[
    {
        "id": "0",
        "category": "0",
        "iconPath": "UI_ss_p_damageup",
        "iconLSizePath": "none",
        "effectType": "194",
        "resistType_1": "18",
        "resistType_2": "18",
        "groupID": "0",
        "force": "0"
    },
    {
        "id": "1",
        "category": "0",
        "iconPath": "UI_ss_p_damageup",
        "iconLSizePath": "none",
        "effectType": "194",
        "resistType_1": "18",
        "resistType_2": "18",
        "groupID": "0",
        "force": "0"
    },
    {
        "id": "2",
        "category": "1",
        "iconPath": "UI_ss_n_damagedown",
        "iconLSizePath": "none",
        "effectType": "193",
        "resistType_1": "18",
        "resistType_2": "18",
        "groupID": "0",
        "force": "0"
    },
    {
        "id": "3",
        "category": "0",
        "iconPath": "UI_ss_p_defenseup",
        "iconLSizePath": "none",
        "effectType": "194",
        "resistType_1": "18",
        "resistType_2": "18",
        "groupID": "0",
        "force": "0"
    },
    {
        "id": "4",
        "category": "1",
        "iconPath": "UI_ss_n_defensdown",
        "iconLSizePath": "none",
        "effectType": "193",
        "resistType_1": "18",
        "resistType_2": "18",
        "groupID": "0",
        "force": "0"
    },
    {
        "id": "5",
        "category": "0",
        "iconPath": "UI_ss_p_speedup",
        "iconLSizePath": "none",
        "effectType": "194",
        "resistType_1": "18",
        "resistType_2": "18",
        "groupID": "0",
        "force": "0"
    },
    {
        "id": "6",
        "category": "1",
        "iconPath": "UI_ss_n_speeddown",
        "iconLSizePath": "none",
        "effectType": "193",
        "resistType_1": "18",
        "resistType_2": "18",
        "groupID": "0",
        "force": "0"
    },
    {
        "id": "7",
        "category": "0",
        "iconPath": "UI_ss_p_resistup",
        "iconLSizePath": "none",
        "effectType": "194",
        "resistType_1": "18",
        "resistType_2": "18",
        "groupID": "0",
        "force": "0"
    },
    {
        "id": "8",
        "category": "1",
        "iconPath": "UI_ss_n_resistdown",
        "iconLSizePath": "none",
        "effectType": "193",
        "resistType_1": "18",
        "resistType_2": "18",
        "groupID": "0",
        "force": "0"
    },
    {
        "id": "9",
        "category": "2",
        "iconPath": "UI_ss_n_doku",
        "iconLSizePath": "none",
        "effectType": "189",
        "resistType_1": "18",
        "resistType_2": "18",
        "groupID": "9",
        "force": "0"
    },
    {
        "id": "10",
        "category": "2",
        "iconPath": "UI_ss_n_mahi",
        "iconLSizePath": "none",
        "effectType": "188",
        "resistType_1": "18",
        "resistType_2": "18",
        "groupID": "9",
        "force": "0"
    },
    {
        "id": "11",
        "category": "2",
        "iconPath": "UI_ss_n_nemuri",
        "iconLSizePath": "UI_ss_n_nemuriL",
        "effectType": "204",
        "resistType_1": "18",
        "resistType_2": "18",
        "groupID": "9",
        "force": "0"
    },
    {
        "id": "12",
        "category": "2",
        "iconPath": "UI_ss_n_koori",
        "iconLSizePath": "UI_ss_n_kooriL",
        "effectType": "203",
        "resistType_1": "18",
        "resistType_2": "18",
        "groupID": "9",
        "force": "0"
    },
    {
        "id": "13",
        "category": "2",
        "iconPath": "UI_ss_n_yakedo",
        "iconLSizePath": "none",
        "effectType": "201",
        "resistType_1": "18",
        "resistType_2": "18",
        "groupID": "9",
        "force": "0"
    },
    {
        "id": "14",
        "category": "2",
        "iconPath": "UI_ss_n_konran",
        "iconLSizePath": "none",
        "effectType": "202",
        "resistType_1": "18",
        "resistType_2": "18",
        "groupID": "9",
        "force": "0"
    },
    {
        "id": "15",
        "category": "2",
        "iconPath": "UI_ss_n_kanasibari",
        "iconLSizePath": "UI_ss_n_kanasibariL",
        "effectType": "247",
        "resistType_1": "18",
        "resistType_2": "18",
        "groupID": "9",
        "force": "0"
    },
    {
        "id": "16",
        "category": "2",
        "iconPath": "UI_ss_n_nemuri",
        "iconLSizePath": "UI_ss_n_nemuriL",
        "effectType": "204",
        "resistType_1": "18",
        "resistType_2": "18",
        "groupID": "9",
        "force": "1"
    }
]
