[
    {
        "id": "0",
        "type": "0",
        "Value_A": "0",
        "Value_B": "0",
        "time": "0",
        "ratio": "1"
    },
    {
        "id": "1",
        "type": "1",
        "Value_A": "0.4",
        "Value_B": "0",
        "time": "20",
        "ratio": "0.08"
    },
    {
        "id": "2",
        "type": "3",
        "Value_A": "0.4",
        "Value_B": "0",
        "time": "20",
        "ratio": "0.08"
    },
    {
        "id": "3",
        "type": "5",
        "Value_A": "0.3",
        "Value_B": "0",
        "time": "20",
        "ratio": "0.08"
    },
    {
        "id": "4",
        "type": "7",
        "Value_A": "0.5",
        "Value_B": "0",
        "time": "20",
        "ratio": "0.08"
    },
    {
        "id": "5",
        "type": "1",
        "Value_A": "0.6",
        "Value_B": "0",
        "time": "15",
        "ratio": "0.08"
    },
    {
        "id": "6",
        "type": "3",
        "Value_A": "0.6",
        "Value_B": "0",
        "time": "15",
        "ratio": "0.08"
    },
    {
        "id": "7",
        "type": "5",
        "Value_A": "0.45",
        "Value_B": "0",
        "time": "15",
        "ratio": "0.08"
    },
    {
        "id": "8",
        "type": "7",
        "Value_A": "0.75",
        "Value_B": "0",
        "time": "15",
        "ratio": "0.08"
    },
    {
        "id": "51",
        "type": "2",
        "Value_A": "0.4",
        "Value_B": "0",
        "time": "20",
        "ratio": "0.12"
    },
    {
        "id": "52",
        "type": "4",
        "Value_A": "0.4",
        "Value_B": "0",
        "time": "20",
        "ratio": "0.12"
    },
    {
        "id": "53",
        "type": "6",
        "Value_A": "0.3",
        "Value_B": "0",
        "time": "20",
        "ratio": "0.12"
    },
    {
        "id": "54",
        "type": "8",
        "Value_A": "0.5",
        "Value_B": "0",
        "time": "20",
        "ratio": "0.12"
    },
    {
        "id": "55",
        "type": "2",
        "Value_A": "0.6",
        "Value_B": "0",
        "time": "15",
        "ratio": "0.12"
    },
    {
        "id": "56",
        "type": "4",
        "Value_A": "0.6",
        "Value_B": "0",
        "time": "15",
        "ratio": "0.12"
    },
    {
        "id": "57",
        "type": "6",
        "Value_A": "0.45",
        "Value_B": "0",
        "time": "15",
        "ratio": "0.12"
    },
    {
        "id": "58",
        "type": "8",
        "Value_A": "0.75",
        "Value_B": "0",
        "time": "15",
        "ratio": "0.12"
    },
    {
        "id": "101",
        "type": "9",
        "Value_A": "0.5",
        "Value_B": "0",
        "time": "20",
        "ratio": "0.1"
    },
    {
        "id": "102",
        "type": "10",
        "Value_A": "0.8",
        "Value_B": "0",
        "time": "15",
        "ratio": "0.1"
    },
    {
        "id": "103",
        "type": "11",
        "Value_A": "0",
        "Value_B": "0",
        "time": "10",
        "ratio": "0.08"
    },
    {
        "id": "104",
        "type": "12",
        "Value_A": "0",
        "Value_B": "0",
        "time": "10",
        "ratio": "0.08"
    },
    {
        "id": "105",
        "type": "13",
        "Value_A": "0.5",
        "Value_B": "0.8",
        "time": "15",
        "ratio": "0.08"
    },
    {
        "id": "106",
        "type": "14",
        "Value_A": "1",
        "Value_B": "0",
        "time": "15",
        "ratio": "0.1"
    },
    {
        "id": "107",
        "type": "15",
        "Value_A": "0",
        "Value_B": "0",
        "time": "18",
        "ratio": "0.1"
    },
    {
        "id": "108",
        "type": "16",
        "Value_A": "0",
        "Value_B": "0",
        "time": "10",
        "ratio": "0.08"
    }
]
