PPtr<GameObject> m_GameObject
	int m_FileID = 0
	SInt64 m_PathID = 0
UInt8 m_Enabled = 1
PPtr<MonoScript> m_Script
	int m_FileID = 0
	SInt64 m_PathID = 2483482918166041167
string m_Name = "CS_mountain1_00"
string m_typeName = "mountain1_00"
vector m_mapChips
	Array Array
	int size = 5
		[0]
		PPtr<$GameObject> data
			int m_FileID = 0
			SInt64 m_PathID = -2327718726005620970
		[1]
		PPtr<$GameObject> data
			int m_FileID = 0
			SInt64 m_PathID = -2269047069008760646
		[2]
		PPtr<$GameObject> data
			int m_FileID = 0
			SInt64 m_PathID = -6852808217781866021
		[3]
		PPtr<$GameObject> data
			int m_FileID = 0
			SInt64 m_PathID = -8458618229766843265
		[4]
		PPtr<$GameObject> data
			int m_FileID = 0
			SInt64 m_PathID = -6332051174809587648
vector m_mapOuts
	Array Array
	int size = 4
		[0]
		PPtr<$GameObject> data
			int m_FileID = 0
			SInt64 m_PathID = 7638422190742841385
		[1]
		PPtr<$GameObject> data
			int m_FileID = 0
			SInt64 m_PathID = -2467870454404482547
		[2]
		PPtr<$GameObject> data
			int m_FileID = 0
			SInt64 m_PathID = -3375855992395160727
		[3]
		PPtr<$GameObject> data
			int m_FileID = 0
			SInt64 m_PathID = -8084728889829905912
