PPtr<GameObject> m_GameObject
	int m_FileID = 0
	SInt64 m_PathID = 0
UInt8 m_Enabled = 1
PPtr<MonoScript> m_Script
	int m_FileID = 0
	SInt64 m_PathID = 8207984131622930176
string m_Name = "GoodsShopDataSet"
GoodsShopData m_datas
	Array Array
	int size = 18
		[0]
		GoodsShopData data
			int m_id = 0
			int m_goodsID = 309
			int m_price = 50
			int m_purchasedFlag = 209
		[1]
		GoodsShopData data
			int m_id = 1
			int m_goodsID = 200
			int m_price = 300
			int m_purchasedFlag = 212
		[2]
		GoodsShopData data
			int m_id = 2
			int m_goodsID = 310
			int m_price = 50
			int m_purchasedFlag = 210
		[3]
		GoodsShopData data
			int m_id = 3
			int m_goodsID = 204
			int m_price = 300
			int m_purchasedFlag = 216
		[4]
		GoodsShopData data
			int m_id = 4
			int m_goodsID = 311
			int m_price = 50
			int m_purchasedFlag = 211
		[5]
		GoodsShopData data
			int m_id = 5
			int m_goodsID = 202
			int m_price = 300
			int m_purchasedFlag = 214
		[6]
		GoodsShopData data
			int m_id = 6
			int m_goodsID = 203
			int m_price = 50
			int m_purchasedFlag = 215
		[7]
		GoodsShopData data
			int m_id = 7
			int m_goodsID = 205
			int m_price = 300
			int m_purchasedFlag = 217
		[8]
		GoodsShopData data
			int m_id = 8
			int m_goodsID = 306
			int m_price = 150
			int m_purchasedFlag = 206
		[9]
		GoodsShopData data
			int m_id = 9
			int m_goodsID = 302
			int m_price = 500
			int m_purchasedFlag = 202
		[10]
		GoodsShopData data
			int m_id = 10
			int m_goodsID = 307
			int m_price = 200
			int m_purchasedFlag = 207
		[11]
		GoodsShopData data
			int m_id = 11
			int m_goodsID = 304
			int m_price = 700
			int m_purchasedFlag = 204
		[12]
		GoodsShopData data
			int m_id = 12
			int m_goodsID = 308
			int m_price = 100
			int m_purchasedFlag = 208
		[13]
		GoodsShopData data
			int m_id = 13
			int m_goodsID = 303
			int m_price = 400
			int m_purchasedFlag = 203
		[14]
		GoodsShopData data
			int m_id = 14
			int m_goodsID = 301
			int m_price = 200
			int m_purchasedFlag = 201
		[15]
		GoodsShopData data
			int m_id = 15
			int m_goodsID = 207
			int m_price = 800
			int m_purchasedFlag = 219
		[16]
		GoodsShopData data
			int m_id = 16
			int m_goodsID = 300
			int m_price = 400
			int m_purchasedFlag = 200
		[17]
		GoodsShopData data
			int m_id = 17
			int m_goodsID = 101
			int m_price = 700
			int m_purchasedFlag = 221
