PPtr<GameObject> m_GameObject
	int m_FileID = 0
	SInt64 m_PathID = 0
UInt8 m_Enabled = 1
PPtr<MonoScript> m_Script
	int m_FileID = 0
	SInt64 m_PathID = 5400809180674381386
string m_Name = "DropItemDataSet"
DropItemData m_datas
	Array Array
	int size = 10
		[0]
		DropItemData data
			int m_itemNo = 1
			int m_weightMin = 100
			int m_weightMax = 100
		[1]
		DropItemData data
			int m_itemNo = 2
			int m_weightMin = 25
			int m_weightMax = 40
		[2]
		DropItemData data
			int m_itemNo = 3
			int m_weightMin = 100
			int m_weightMax = 100
		[3]
		DropItemData data
			int m_itemNo = 4
			int m_weightMin = 25
			int m_weightMax = 40
		[4]
		DropItemData data
			int m_itemNo = 5
			int m_weightMin = 100
			int m_weightMax = 100
		[5]
		DropItemData data
			int m_itemNo = 6
			int m_weightMin = 25
			int m_weightMax = 40
		[6]
		DropItemData data
			int m_itemNo = 7
			int m_weightMin = 100
			int m_weightMax = 100
		[7]
		DropItemData data
			int m_itemNo = 8
			int m_weightMin = 25
			int m_weightMax = 40
		[8]
		DropItemData data
			int m_itemNo = 9
			int m_weightMin = 15
			int m_weightMax = 20
		[9]
		DropItemData data
			int m_itemNo = 10
			int m_weightMin = 25
			int m_weightMax = 40
