PPtr<GameObject> m_GameObject
	int m_FileID = 0
	SInt64 m_PathID = 0
UInt8 m_Enabled = 1
PPtr<MonoScript> m_Script
	int m_FileID = 0
	SInt64 m_PathID = 4792204977208617456
string m_Name = "PotentialStoneTypeSet"
StoneType m_datas
	Array Array
	int size = 2
		[0]
		StoneType data
			int m_type = 1
			int m_weight = 5
			int m_openRank = 3
		[1]
		StoneType data
			int m_type = 0
			int m_weight = 100
			int m_openRank = 1
