PPtr<GameObject> m_GameObject
	int m_FileID = 0
	SInt64 m_PathID = 0
UInt8 m_Enabled = 1
PPtr<MonoScript> m_Script
	int m_FileID = 0
	SInt64 m_PathID = -4614277106559922498
string m_Name = "EffectDataSet"
EffectData m_datas
	Array Array
	int size = 291
		[0]
		EffectData data
			int m_effectType = 0
			int m_actionType = 0
			string m_effectPath = "E_BS_Honoo"
			string m_exPath1 = ""
			string m_exPath2 = ""
			unsigned int m_soundEventID = 0
			UInt8 m_underFlag = 0
		[1]
		EffectData data
			int m_effectType = 1
			int m_actionType = 0
			string m_effectPath = "E_BR_Honoo"
			string m_exPath1 = ""
			string m_exPath2 = ""
			unsigned int m_soundEventID = 0
			UInt8 m_underFlag = 0
		[2]
		EffectData data
			int m_effectType = 2
			int m_actionType = 0
			string m_effectPath = "E_BD_Honoo"
			string m_exPath1 = ""
			string m_exPath2 = ""
			unsigned int m_soundEventID = 2410316341
			UInt8 m_underFlag = 0
		[3]
		EffectData data
			int m_effectType = 3
			int m_actionType = 0
			string m_effectPath = "E_BS_Denki"
			string m_exPath1 = ""
			string m_exPath2 = ""
			unsigned int m_soundEventID = 0
			UInt8 m_underFlag = 0
		[4]
		EffectData data
			int m_effectType = 4
			int m_actionType = 0
			string m_effectPath = "E_BR_Denki"
			string m_exPath1 = ""
			string m_exPath2 = ""
			unsigned int m_soundEventID = 0
			UInt8 m_underFlag = 0
		[5]
		EffectData data
			int m_effectType = 5
			int m_actionType = 0
			string m_effectPath = "E_BD_Denki"
			string m_exPath1 = ""
			string m_exPath2 = ""
			unsigned int m_soundEventID = 2410316341
			UInt8 m_underFlag = 0
		[6]
		EffectData data
			int m_effectType = 6
			int m_actionType = 0
			string m_effectPath = "E_BS_Jimen"
			string m_exPath1 = ""
			string m_exPath2 = ""
			unsigned int m_soundEventID = 0
			UInt8 m_underFlag = 0
		[7]
		EffectData data
			int m_effectType = 7
			int m_actionType = 0
			string m_effectPath = "E_BR_Jimen"
			string m_exPath1 = ""
			string m_exPath2 = ""
			unsigned int m_soundEventID = 0
			UInt8 m_underFlag = 0
		[8]
		EffectData data
			int m_effectType = 8
			int m_actionType = 0
			string m_effectPath = "E_BD_Jimen"
			string m_exPath1 = ""
			string m_exPath2 = ""
			unsigned int m_soundEventID = 2410316341
			UInt8 m_underFlag = 0
		[9]
		EffectData data
			int m_effectType = 9
			int m_actionType = 0
			string m_effectPath = "E_BS_Kusa"
			string m_exPath1 = ""
			string m_exPath2 = ""
			unsigned int m_soundEventID = 0
			UInt8 m_underFlag = 0
		[10]
		EffectData data
			int m_effectType = 10
			int m_actionType = 0
			string m_effectPath = "E_BR_Kusa"
			string m_exPath1 = ""
			string m_exPath2 = ""
			unsigned int m_soundEventID = 0
			UInt8 m_underFlag = 0
		[11]
		EffectData data
			int m_effectType = 11
			int m_actionType = 0
			string m_effectPath = "E_BD_Kusa"
			string m_exPath1 = ""
			string m_exPath2 = ""
			unsigned int m_soundEventID = 2410316341
			UInt8 m_underFlag = 0
		[12]
		EffectData data
			int m_effectType = 12
			int m_actionType = 0
			string m_effectPath = "E_BS_Hikou"
			string m_exPath1 = ""
			string m_exPath2 = ""
			unsigned int m_soundEventID = 0
			UInt8 m_underFlag = 0
		[13]
		EffectData data
			int m_effectType = 13
			int m_actionType = 0
			string m_effectPath = "E_BR_Hikou"
			string m_exPath1 = ""
			string m_exPath2 = ""
			unsigned int m_soundEventID = 0
			UInt8 m_underFlag = 0
		[14]
		EffectData data
			int m_effectType = 14
			int m_actionType = 0
			string m_effectPath = "E_BD_Hikou"
			string m_exPath1 = ""
			string m_exPath2 = ""
			unsigned int m_soundEventID = 2410316341
			UInt8 m_underFlag = 0
		[15]
		EffectData data
			int m_effectType = 15
			int m_actionType = 0
			string m_effectPath = "E_BS_Mizu"
			string m_exPath1 = ""
			string m_exPath2 = ""
			unsigned int m_soundEventID = 0
			UInt8 m_underFlag = 0
		[16]
		EffectData data
			int m_effectType = 16
			int m_actionType = 0
			string m_effectPath = "E_BR_Mizu"
			string m_exPath1 = ""
			string m_exPath2 = ""
			unsigned int m_soundEventID = 0
			UInt8 m_underFlag = 0
		[17]
		EffectData data
			int m_effectType = 17
			int m_actionType = 0
			string m_effectPath = "E_BD_Mizu"
			string m_exPath1 = ""
			string m_exPath2 = ""
			unsigned int m_soundEventID = 2410316341
			UInt8 m_underFlag = 0
		[18]
		EffectData data
			int m_effectType = 18
			int m_actionType = 0
			string m_effectPath = "E_BS_Honoo"
			string m_exPath1 = ""
			string m_exPath2 = ""
			unsigned int m_soundEventID = 0
			UInt8 m_underFlag = 0
		[19]
		EffectData data
			int m_effectType = 19
			int m_actionType = 0
			string m_effectPath = "E_SP_Kaenhosya_Loop"
			string m_exPath1 = ""
			string m_exPath2 = ""
			unsigned int m_soundEventID = 0
			UInt8 m_underFlag = 0
		[20]
		EffectData data
			int m_effectType = 20
			int m_actionType = 0
			string m_effectPath = "E_BD_Honoo"
			string m_exPath1 = ""
			string m_exPath2 = ""
			unsigned int m_soundEventID = 0
			UInt8 m_underFlag = 0
		[21]
		EffectData data
			int m_effectType = 21
			int m_actionType = 0
			string m_effectPath = ""
			string m_exPath1 = ""
			string m_exPath2 = ""
			unsigned int m_soundEventID = 0
			UInt8 m_underFlag = 1
		[22]
		EffectData data
			int m_effectType = 22
			int m_actionType = 3
			string m_effectPath = "E_SP_Yadoriginotane_Start"
			string m_exPath1 = "E_SP_Yadoriginotane_Loop"
			string m_exPath2 = "E_SP_Yadoriginotane_End"
			unsigned int m_soundEventID = 0
			UInt8 m_underFlag = 1
		[23]
		EffectData data
			int m_effectType = 23
			int m_actionType = 0
			string m_effectPath = ""
			string m_exPath1 = ""
			string m_exPath2 = ""
			unsigned int m_soundEventID = 0
			UInt8 m_underFlag = 1
		[24]
		EffectData data
			int m_effectType = 24
			int m_actionType = 0
			string m_effectPath = "E_SP_Kaminari_Start"
			string m_exPath1 = ""
			string m_exPath2 = ""
			unsigned int m_soundEventID = 0
			UInt8 m_underFlag = 0
		[25]
		EffectData data
			int m_effectType = 25
			int m_actionType = 0
			string m_effectPath = "E_SP_Kaminari_Loop"
			string m_exPath1 = ""
			string m_exPath2 = ""
			unsigned int m_soundEventID = 0
			UInt8 m_underFlag = 0
		[26]
		EffectData data
			int m_effectType = 26
			int m_actionType = 0
			string m_effectPath = "E_BD_Denki"
			string m_exPath1 = ""
			string m_exPath2 = ""
			unsigned int m_soundEventID = 0
			UInt8 m_underFlag = 0
		[27]
		EffectData data
			int m_effectType = 27
			int m_actionType = 0
			string m_effectPath = "E_BS_Mizu"
			string m_exPath1 = ""
			string m_exPath2 = ""
			unsigned int m_soundEventID = 0
			UInt8 m_underFlag = 0
		[28]
		EffectData data
			int m_effectType = 28
			int m_actionType = 0
			string m_effectPath = "E_SP_Naminori_Loop"
			string m_exPath1 = ""
			string m_exPath2 = ""
			unsigned int m_soundEventID = 0
			UInt8 m_underFlag = 0
		[29]
		EffectData data
			int m_effectType = 29
			int m_actionType = 0
			string m_effectPath = "E_BD_Mizu"
			string m_exPath1 = ""
			string m_exPath2 = ""
			unsigned int m_soundEventID = 0
			UInt8 m_underFlag = 0
		[30]
		EffectData data
			int m_effectType = 30
			int m_actionType = 1
			string m_effectPath = ""
			string m_exPath1 = ""
			string m_exPath2 = ""
			unsigned int m_soundEventID = 0
			UInt8 m_underFlag = 0
		[31]
		EffectData data
			int m_effectType = 31
			int m_actionType = 0
			string m_effectPath = "E_EF_damage00"
			string m_exPath1 = ""
			string m_exPath2 = ""
			unsigned int m_soundEventID = 0
			UInt8 m_underFlag = 0
		[32]
		EffectData data
			int m_effectType = 32
			int m_actionType = 0
			string m_effectPath = "E_EF_damage01"
			string m_exPath1 = ""
			string m_exPath2 = ""
			unsigned int m_soundEventID = 0
			UInt8 m_underFlag = 0
		[33]
		EffectData data
			int m_effectType = 33
			int m_actionType = 0
			string m_effectPath = "E_SP_Hakaikousen_Reserve"
			string m_exPath1 = ""
			string m_exPath2 = ""
			unsigned int m_soundEventID = 0
			UInt8 m_underFlag = 0
		[34]
		EffectData data
			int m_effectType = 34
			int m_actionType = 0
			string m_effectPath = "E_SP_Hakaikousen_Start"
			string m_exPath1 = ""
			string m_exPath2 = ""
			unsigned int m_soundEventID = 0
			UInt8 m_underFlag = 0
		[35]
		EffectData data
			int m_effectType = 35
			int m_actionType = 0
			string m_effectPath = "E_SP_Hakaikousen_Loop"
			string m_exPath1 = ""
			string m_exPath2 = ""
			unsigned int m_soundEventID = 0
			UInt8 m_underFlag = 0
		[36]
		EffectData data
			int m_effectType = 36
			int m_actionType = 0
			string m_effectPath = "E_SP_Hakaikousen_Damage"
			string m_exPath1 = ""
			string m_exPath2 = ""
			unsigned int m_soundEventID = 0
			UInt8 m_underFlag = 0
		[37]
		EffectData data
			int m_effectType = 37
			int m_actionType = 2
			string m_effectPath = "E_mind"
			string m_exPath1 = "E_mind_bikkuri"
			string m_exPath2 = ""
			unsigned int m_soundEventID = 0
			UInt8 m_underFlag = 0
		[38]
		EffectData data
			int m_effectType = 38
			int m_actionType = 0
			string m_effectPath = "E_BM_Scratch"
			string m_exPath1 = ""
			string m_exPath2 = ""
			unsigned int m_soundEventID = 0
			UInt8 m_underFlag = 0
		[39]
		EffectData data
			int m_effectType = 39
			int m_actionType = 0
			string m_effectPath = "E_attract00_start"
			string m_exPath1 = ""
			string m_exPath2 = ""
			unsigned int m_soundEventID = 0
			UInt8 m_underFlag = 0
		[40]
		EffectData data
			int m_effectType = 40
			int m_actionType = 0
			string m_effectPath = "E_BS_Aku"
			string m_exPath1 = ""
			string m_exPath2 = ""
			unsigned int m_soundEventID = 0
			UInt8 m_underFlag = 0
		[41]
		EffectData data
			int m_effectType = 41
			int m_actionType = 0
			string m_effectPath = "E_BR_Aku"
			string m_exPath1 = ""
			string m_exPath2 = ""
			unsigned int m_soundEventID = 0
			UInt8 m_underFlag = 0
		[42]
		EffectData data
			int m_effectType = 42
			int m_actionType = 0
			string m_effectPath = "E_BD_Aku"
			string m_exPath1 = ""
			string m_exPath2 = ""
			unsigned int m_soundEventID = 2410316341
			UInt8 m_underFlag = 0
		[43]
		EffectData data
			int m_effectType = 43
			int m_actionType = 0
			string m_effectPath = "E_BS_Doku"
			string m_exPath1 = ""
			string m_exPath2 = ""
			unsigned int m_soundEventID = 0
			UInt8 m_underFlag = 0
		[44]
		EffectData data
			int m_effectType = 44
			int m_actionType = 0
			string m_effectPath = "E_BR_Doku"
			string m_exPath1 = ""
			string m_exPath2 = ""
			unsigned int m_soundEventID = 0
			UInt8 m_underFlag = 0
		[45]
		EffectData data
			int m_effectType = 45
			int m_actionType = 0
			string m_effectPath = "E_BD_Doku"
			string m_exPath1 = ""
			string m_exPath2 = ""
			unsigned int m_soundEventID = 2410316341
			UInt8 m_underFlag = 0
		[46]
		EffectData data
			int m_effectType = 46
			int m_actionType = 0
			string m_effectPath = "E_BS_Dragon"
			string m_exPath1 = ""
			string m_exPath2 = ""
			unsigned int m_soundEventID = 0
			UInt8 m_underFlag = 0
		[47]
		EffectData data
			int m_effectType = 47
			int m_actionType = 0
			string m_effectPath = "E_BR_Dragon"
			string m_exPath1 = ""
			string m_exPath2 = ""
			unsigned int m_soundEventID = 0
			UInt8 m_underFlag = 0
		[48]
		EffectData data
			int m_effectType = 48
			int m_actionType = 0
			string m_effectPath = "E_BD_Dragon"
			string m_exPath1 = ""
			string m_exPath2 = ""
			unsigned int m_soundEventID = 2410316341
			UInt8 m_underFlag = 0
		[49]
		EffectData data
			int m_effectType = 49
			int m_actionType = 0
			string m_effectPath = "E_BS_Esper"
			string m_exPath1 = ""
			string m_exPath2 = ""
			unsigned int m_soundEventID = 0
			UInt8 m_underFlag = 0
		[50]
		EffectData data
			int m_effectType = 50
			int m_actionType = 0
			string m_effectPath = "E_BR_Esper"
			string m_exPath1 = ""
			string m_exPath2 = ""
			unsigned int m_soundEventID = 0
			UInt8 m_underFlag = 0
		[51]
		EffectData data
			int m_effectType = 51
			int m_actionType = 0
			string m_effectPath = "E_BD_Esper"
			string m_exPath1 = ""
			string m_exPath2 = ""
			unsigned int m_soundEventID = 2410316341
			UInt8 m_underFlag = 0
		[52]
		EffectData data
			int m_effectType = 52
			int m_actionType = 0
			string m_effectPath = "E_BS_Fairy"
			string m_exPath1 = ""
			string m_exPath2 = ""
			unsigned int m_soundEventID = 0
			UInt8 m_underFlag = 0
		[53]
		EffectData data
			int m_effectType = 53
			int m_actionType = 0
			string m_effectPath = "E_BR_Fairy"
			string m_exPath1 = ""
			string m_exPath2 = ""
			unsigned int m_soundEventID = 0
			UInt8 m_underFlag = 0
		[54]
		EffectData data
			int m_effectType = 54
			int m_actionType = 0
			string m_effectPath = "E_BD_Fairy"
			string m_exPath1 = ""
			string m_exPath2 = ""
			unsigned int m_soundEventID = 2410316341
			UInt8 m_underFlag = 0
		[55]
		EffectData data
			int m_effectType = 55
			int m_actionType = 0
			string m_effectPath = "E_BS_Ghost"
			string m_exPath1 = ""
			string m_exPath2 = ""
			unsigned int m_soundEventID = 0
			UInt8 m_underFlag = 0
		[56]
		EffectData data
			int m_effectType = 56
			int m_actionType = 0
			string m_effectPath = "E_BR_Ghost"
			string m_exPath1 = ""
			string m_exPath2 = ""
			unsigned int m_soundEventID = 0
			UInt8 m_underFlag = 0
		[57]
		EffectData data
			int m_effectType = 57
			int m_actionType = 0
			string m_effectPath = "E_BD_Ghost"
			string m_exPath1 = ""
			string m_exPath2 = ""
			unsigned int m_soundEventID = 2410316341
			UInt8 m_underFlag = 0
		[58]
		EffectData data
			int m_effectType = 58
			int m_actionType = 0
			string m_effectPath = "E_BS_Hagane"
			string m_exPath1 = ""
			string m_exPath2 = ""
			unsigned int m_soundEventID = 0
			UInt8 m_underFlag = 0
		[59]
		EffectData data
			int m_effectType = 59
			int m_actionType = 0
			string m_effectPath = "E_BR_Hagane"
			string m_exPath1 = ""
			string m_exPath2 = ""
			unsigned int m_soundEventID = 0
			UInt8 m_underFlag = 0
		[60]
		EffectData data
			int m_effectType = 60
			int m_actionType = 0
			string m_effectPath = "E_BD_Hagane"
			string m_exPath1 = ""
			string m_exPath2 = ""
			unsigned int m_soundEventID = 2410316341
			UInt8 m_underFlag = 0
		[61]
		EffectData data
			int m_effectType = 61
			int m_actionType = 0
			string m_effectPath = "E_BS_Iwa"
			string m_exPath1 = ""
			string m_exPath2 = ""
			unsigned int m_soundEventID = 0
			UInt8 m_underFlag = 0
		[62]
		EffectData data
			int m_effectType = 62
			int m_actionType = 0
			string m_effectPath = "E_BR_Iwa"
			string m_exPath1 = ""
			string m_exPath2 = ""
			unsigned int m_soundEventID = 0
			UInt8 m_underFlag = 0
		[63]
		EffectData data
			int m_effectType = 63
			int m_actionType = 0
			string m_effectPath = "E_BD_Iwa"
			string m_exPath1 = ""
			string m_exPath2 = ""
			unsigned int m_soundEventID = 2410316341
			UInt8 m_underFlag = 0
		[64]
		EffectData data
			int m_effectType = 64
			int m_actionType = 0
			string m_effectPath = "E_BS_Kakutou"
			string m_exPath1 = ""
			string m_exPath2 = ""
			unsigned int m_soundEventID = 0
			UInt8 m_underFlag = 0
		[65]
		EffectData data
			int m_effectType = 65
			int m_actionType = 0
			string m_effectPath = "E_BR_Kakutou"
			string m_exPath1 = ""
			string m_exPath2 = ""
			unsigned int m_soundEventID = 0
			UInt8 m_underFlag = 0
		[66]
		EffectData data
			int m_effectType = 66
			int m_actionType = 0
			string m_effectPath = "E_BD_Kakutou"
			string m_exPath1 = ""
			string m_exPath2 = ""
			unsigned int m_soundEventID = 2410316341
			UInt8 m_underFlag = 0
		[67]
		EffectData data
			int m_effectType = 67
			int m_actionType = 0
			string m_effectPath = "E_BS_Koori"
			string m_exPath1 = ""
			string m_exPath2 = ""
			unsigned int m_soundEventID = 0
			UInt8 m_underFlag = 0
		[68]
		EffectData data
			int m_effectType = 68
			int m_actionType = 0
			string m_effectPath = "E_BR_Koori"
			string m_exPath1 = ""
			string m_exPath2 = ""
			unsigned int m_soundEventID = 0
			UInt8 m_underFlag = 0
		[69]
		EffectData data
			int m_effectType = 69
			int m_actionType = 0
			string m_effectPath = "E_BD_Koori"
			string m_exPath1 = ""
			string m_exPath2 = ""
			unsigned int m_soundEventID = 2410316341
			UInt8 m_underFlag = 0
		[70]
		EffectData data
			int m_effectType = 70
			int m_actionType = 0
			string m_effectPath = "E_BS_Mushi"
			string m_exPath1 = ""
			string m_exPath2 = ""
			unsigned int m_soundEventID = 0
			UInt8 m_underFlag = 0
		[71]
		EffectData data
			int m_effectType = 71
			int m_actionType = 0
			string m_effectPath = "E_BR_Mushi"
			string m_exPath1 = ""
			string m_exPath2 = ""
			unsigned int m_soundEventID = 0
			UInt8 m_underFlag = 0
		[72]
		EffectData data
			int m_effectType = 72
			int m_actionType = 0
			string m_effectPath = "E_BD_Mushi"
			string m_exPath1 = ""
			string m_exPath2 = ""
			unsigned int m_soundEventID = 2410316341
			UInt8 m_underFlag = 0
		[73]
		EffectData data
			int m_effectType = 73
			int m_actionType = 0
			string m_effectPath = "E_BS_Normal"
			string m_exPath1 = ""
			string m_exPath2 = ""
			unsigned int m_soundEventID = 0
			UInt8 m_underFlag = 0
		[74]
		EffectData data
			int m_effectType = 74
			int m_actionType = 0
			string m_effectPath = "E_BR_Normal"
			string m_exPath1 = ""
			string m_exPath2 = ""
			unsigned int m_soundEventID = 0
			UInt8 m_underFlag = 0
		[75]
		EffectData data
			int m_effectType = 75
			int m_actionType = 0
			string m_effectPath = "E_BD_Normal"
			string m_exPath1 = ""
			string m_exPath2 = ""
			unsigned int m_soundEventID = 2410316341
			UInt8 m_underFlag = 0
		[76]
		EffectData data
			int m_effectType = 76
			int m_actionType = 0
			string m_effectPath = "E_BD_Scratch"
			string m_exPath1 = ""
			string m_exPath2 = ""
			unsigned int m_soundEventID = 0
			UInt8 m_underFlag = 0
		[77]
		EffectData data
			int m_effectType = 77
			int m_actionType = 0
			string m_effectPath = "E_EF_deadball"
			string m_exPath1 = ""
			string m_exPath2 = ""
			unsigned int m_soundEventID = 0
			UInt8 m_underFlag = 0
		[78]
		EffectData data
			int m_effectType = 78
			int m_actionType = 0
			string m_effectPath = "E_BW_Normal"
			string m_exPath1 = ""
			string m_exPath2 = ""
			unsigned int m_soundEventID = 0
			UInt8 m_underFlag = 0
		[79]
		EffectData data
			int m_effectType = 79
			int m_actionType = 0
			string m_effectPath = "E_BW_Honoo"
			string m_exPath1 = ""
			string m_exPath2 = ""
			unsigned int m_soundEventID = 0
			UInt8 m_underFlag = 0
		[80]
		EffectData data
			int m_effectType = 80
			int m_actionType = 0
			string m_effectPath = "E_BW_Normal"
			string m_exPath1 = ""
			string m_exPath2 = ""
			unsigned int m_soundEventID = 0
			UInt8 m_underFlag = 0
		[81]
		EffectData data
			int m_effectType = 81
			int m_actionType = 0
			string m_effectPath = "E_BW_Normal"
			string m_exPath1 = ""
			string m_exPath2 = ""
			unsigned int m_soundEventID = 0
			UInt8 m_underFlag = 0
		[82]
		EffectData data
			int m_effectType = 82
			int m_actionType = 0
			string m_effectPath = "E_BW_Denki"
			string m_exPath1 = ""
			string m_exPath2 = ""
			unsigned int m_soundEventID = 0
			UInt8 m_underFlag = 0
		[83]
		EffectData data
			int m_effectType = 83
			int m_actionType = 0
			string m_effectPath = "E_BW_Normal"
			string m_exPath1 = ""
			string m_exPath2 = ""
			unsigned int m_soundEventID = 0
			UInt8 m_underFlag = 0
		[84]
		EffectData data
			int m_effectType = 84
			int m_actionType = 0
			string m_effectPath = "E_BW_Normal"
			string m_exPath1 = ""
			string m_exPath2 = ""
			unsigned int m_soundEventID = 0
			UInt8 m_underFlag = 0
		[85]
		EffectData data
			int m_effectType = 85
			int m_actionType = 0
			string m_effectPath = "E_BW_Normal"
			string m_exPath1 = ""
			string m_exPath2 = ""
			unsigned int m_soundEventID = 0
			UInt8 m_underFlag = 0
		[86]
		EffectData data
			int m_effectType = 86
			int m_actionType = 0
			string m_effectPath = "E_BW_Normal"
			string m_exPath1 = ""
			string m_exPath2 = ""
			unsigned int m_soundEventID = 0
			UInt8 m_underFlag = 0
		[87]
		EffectData data
			int m_effectType = 87
			int m_actionType = 0
			string m_effectPath = "E_BW_Normal"
			string m_exPath1 = ""
			string m_exPath2 = ""
			unsigned int m_soundEventID = 0
			UInt8 m_underFlag = 0
		[88]
		EffectData data
			int m_effectType = 88
			int m_actionType = 0
			string m_effectPath = "E_BW_Normal"
			string m_exPath1 = ""
			string m_exPath2 = ""
			unsigned int m_soundEventID = 0
			UInt8 m_underFlag = 0
		[89]
		EffectData data
			int m_effectType = 89
			int m_actionType = 0
			string m_effectPath = "E_BW_Normal"
			string m_exPath1 = ""
			string m_exPath2 = ""
			unsigned int m_soundEventID = 0
			UInt8 m_underFlag = 0
		[90]
		EffectData data
			int m_effectType = 90
			int m_actionType = 0
			string m_effectPath = "E_BW_Normal"
			string m_exPath1 = ""
			string m_exPath2 = ""
			unsigned int m_soundEventID = 0
			UInt8 m_underFlag = 0
		[91]
		EffectData data
			int m_effectType = 91
			int m_actionType = 0
			string m_effectPath = "E_BW_Normal"
			string m_exPath1 = ""
			string m_exPath2 = ""
			unsigned int m_soundEventID = 0
			UInt8 m_underFlag = 0
		[92]
		EffectData data
			int m_effectType = 92
			int m_actionType = 0
			string m_effectPath = "E_BW_Normal"
			string m_exPath1 = ""
			string m_exPath2 = ""
			unsigned int m_soundEventID = 0
			UInt8 m_underFlag = 0
		[93]
		EffectData data
			int m_effectType = 93
			int m_actionType = 0
			string m_effectPath = "E_BW_Normal"
			string m_exPath1 = ""
			string m_exPath2 = ""
			unsigned int m_soundEventID = 0
			UInt8 m_underFlag = 0
		[94]
		EffectData data
			int m_effectType = 94
			int m_actionType = 0
			string m_effectPath = "E_BW_Normal"
			string m_exPath1 = ""
			string m_exPath2 = ""
			unsigned int m_soundEventID = 0
			UInt8 m_underFlag = 0
		[95]
		EffectData data
			int m_effectType = 95
			int m_actionType = 0
			string m_effectPath = "E_BW_Normal"
			string m_exPath1 = ""
			string m_exPath2 = ""
			unsigned int m_soundEventID = 0
			UInt8 m_underFlag = 0
		[96]
		EffectData data
			int m_effectType = 96
			int m_actionType = 0
			string m_effectPath = "E_BG_Normal"
			string m_exPath1 = ""
			string m_exPath2 = ""
			unsigned int m_soundEventID = 0
			UInt8 m_underFlag = 1
		[97]
		EffectData data
			int m_effectType = 97
			int m_actionType = 0
			string m_effectPath = "E_BG_Honoo"
			string m_exPath1 = ""
			string m_exPath2 = ""
			unsigned int m_soundEventID = 0
			UInt8 m_underFlag = 1
		[98]
		EffectData data
			int m_effectType = 98
			int m_actionType = 0
			string m_effectPath = "E_BG_Mizu"
			string m_exPath1 = ""
			string m_exPath2 = ""
			unsigned int m_soundEventID = 0
			UInt8 m_underFlag = 1
		[99]
		EffectData data
			int m_effectType = 99
			int m_actionType = 0
			string m_effectPath = "E_BG_Normal"
			string m_exPath1 = ""
			string m_exPath2 = ""
			unsigned int m_soundEventID = 0
			UInt8 m_underFlag = 1
		[100]
		EffectData data
			int m_effectType = 100
			int m_actionType = 0
			string m_effectPath = "E_BG_Denki"
			string m_exPath1 = ""
			string m_exPath2 = ""
			unsigned int m_soundEventID = 0
			UInt8 m_underFlag = 1
		[101]
		EffectData data
			int m_effectType = 101
			int m_actionType = 0
			string m_effectPath = "E_BG_Koori"
			string m_exPath1 = ""
			string m_exPath2 = ""
			unsigned int m_soundEventID = 0
			UInt8 m_underFlag = 1
		[102]
		EffectData data
			int m_effectType = 102
			int m_actionType = 0
			string m_effectPath = "E_BG_Normal"
			string m_exPath1 = ""
			string m_exPath2 = ""
			unsigned int m_soundEventID = 0
			UInt8 m_underFlag = 1
		[103]
		EffectData data
			int m_effectType = 103
			int m_actionType = 0
			string m_effectPath = "E_BG_Doku"
			string m_exPath1 = ""
			string m_exPath2 = ""
			unsigned int m_soundEventID = 0
			UInt8 m_underFlag = 1
		[104]
		EffectData data
			int m_effectType = 104
			int m_actionType = 0
			string m_effectPath = "E_BG_Jimen"
			string m_exPath1 = ""
			string m_exPath2 = ""
			unsigned int m_soundEventID = 0
			UInt8 m_underFlag = 1
		[105]
		EffectData data
			int m_effectType = 105
			int m_actionType = 0
			string m_effectPath = "E_BG_Normal"
			string m_exPath1 = ""
			string m_exPath2 = ""
			unsigned int m_soundEventID = 0
			UInt8 m_underFlag = 1
		[106]
		EffectData data
			int m_effectType = 106
			int m_actionType = 0
			string m_effectPath = "E_BG_Esper"
			string m_exPath1 = ""
			string m_exPath2 = ""
			unsigned int m_soundEventID = 0
			UInt8 m_underFlag = 1
		[107]
		EffectData data
			int m_effectType = 107
			int m_actionType = 0
			string m_effectPath = "E_BG_Normal"
			string m_exPath1 = ""
			string m_exPath2 = ""
			unsigned int m_soundEventID = 0
			UInt8 m_underFlag = 1
		[108]
		EffectData data
			int m_effectType = 108
			int m_actionType = 0
			string m_effectPath = "E_BG_Iwa"
			string m_exPath1 = ""
			string m_exPath2 = ""
			unsigned int m_soundEventID = 0
			UInt8 m_underFlag = 1
		[109]
		EffectData data
			int m_effectType = 109
			int m_actionType = 0
			string m_effectPath = "E_BG_Ghost"
			string m_exPath1 = ""
			string m_exPath2 = ""
			unsigned int m_soundEventID = 0
			UInt8 m_underFlag = 1
		[110]
		EffectData data
			int m_effectType = 110
			int m_actionType = 0
			string m_effectPath = "E_BG_Normal"
			string m_exPath1 = ""
			string m_exPath2 = ""
			unsigned int m_soundEventID = 0
			UInt8 m_underFlag = 1
		[111]
		EffectData data
			int m_effectType = 111
			int m_actionType = 0
			string m_effectPath = "E_BG_Normal"
			string m_exPath1 = ""
			string m_exPath2 = ""
			unsigned int m_soundEventID = 0
			UInt8 m_underFlag = 1
		[112]
		EffectData data
			int m_effectType = 112
			int m_actionType = 0
			string m_effectPath = "E_BG_Normal"
			string m_exPath1 = ""
			string m_exPath2 = ""
			unsigned int m_soundEventID = 0
			UInt8 m_underFlag = 1
		[113]
		EffectData data
			int m_effectType = 113
			int m_actionType = 0
			string m_effectPath = "E_BG_Normal"
			string m_exPath1 = ""
			string m_exPath2 = ""
			unsigned int m_soundEventID = 0
			UInt8 m_underFlag = 1
		[114]
		EffectData data
			int m_effectType = 114
			int m_actionType = 0
			string m_effectPath = "E_BB_Normal"
			string m_exPath1 = ""
			string m_exPath2 = ""
			unsigned int m_soundEventID = 0
			UInt8 m_underFlag = 0
		[115]
		EffectData data
			int m_effectType = 115
			int m_actionType = 0
			string m_effectPath = "E_BB_Honoo"
			string m_exPath1 = ""
			string m_exPath2 = ""
			unsigned int m_soundEventID = 0
			UInt8 m_underFlag = 0
		[116]
		EffectData data
			int m_effectType = 116
			int m_actionType = 0
			string m_effectPath = "E_BB_Normal"
			string m_exPath1 = ""
			string m_exPath2 = ""
			unsigned int m_soundEventID = 0
			UInt8 m_underFlag = 0
		[117]
		EffectData data
			int m_effectType = 117
			int m_actionType = 0
			string m_effectPath = "E_BB_Normal"
			string m_exPath1 = ""
			string m_exPath2 = ""
			unsigned int m_soundEventID = 0
			UInt8 m_underFlag = 0
		[118]
		EffectData data
			int m_effectType = 118
			int m_actionType = 0
			string m_effectPath = "E_BB_Denki"
			string m_exPath1 = ""
			string m_exPath2 = ""
			unsigned int m_soundEventID = 0
			UInt8 m_underFlag = 0
		[119]
		EffectData data
			int m_effectType = 119
			int m_actionType = 0
			string m_effectPath = "E_BB_Koori"
			string m_exPath1 = ""
			string m_exPath2 = ""
			unsigned int m_soundEventID = 0
			UInt8 m_underFlag = 0
		[120]
		EffectData data
			int m_effectType = 120
			int m_actionType = 0
			string m_effectPath = "E_BB_Normal"
			string m_exPath1 = ""
			string m_exPath2 = ""
			unsigned int m_soundEventID = 0
			UInt8 m_underFlag = 0
		[121]
		EffectData data
			int m_effectType = 121
			int m_actionType = 0
			string m_effectPath = "E_BB_Doku"
			string m_exPath1 = ""
			string m_exPath2 = ""
			unsigned int m_soundEventID = 0
			UInt8 m_underFlag = 0
		[122]
		EffectData data
			int m_effectType = 122
			int m_actionType = 0
			string m_effectPath = "E_BB_Normal"
			string m_exPath1 = ""
			string m_exPath2 = ""
			unsigned int m_soundEventID = 0
			UInt8 m_underFlag = 0
		[123]
		EffectData data
			int m_effectType = 123
			int m_actionType = 0
			string m_effectPath = "E_BB_Normal"
			string m_exPath1 = ""
			string m_exPath2 = ""
			unsigned int m_soundEventID = 0
			UInt8 m_underFlag = 0
		[124]
		EffectData data
			int m_effectType = 124
			int m_actionType = 0
			string m_effectPath = "E_BB_Normal"
			string m_exPath1 = ""
			string m_exPath2 = ""
			unsigned int m_soundEventID = 0
			UInt8 m_underFlag = 0
		[125]
		EffectData data
			int m_effectType = 125
			int m_actionType = 0
			string m_effectPath = "E_BB_Normal"
			string m_exPath1 = ""
			string m_exPath2 = ""
			unsigned int m_soundEventID = 0
			UInt8 m_underFlag = 0
		[126]
		EffectData data
			int m_effectType = 126
			int m_actionType = 0
			string m_effectPath = "E_BB_Normal"
			string m_exPath1 = ""
			string m_exPath2 = ""
			unsigned int m_soundEventID = 0
			UInt8 m_underFlag = 0
		[127]
		EffectData data
			int m_effectType = 127
			int m_actionType = 0
			string m_effectPath = "E_BB_Normal"
			string m_exPath1 = ""
			string m_exPath2 = ""
			unsigned int m_soundEventID = 0
			UInt8 m_underFlag = 0
		[128]
		EffectData data
			int m_effectType = 128
			int m_actionType = 0
			string m_effectPath = "E_BB_Normal"
			string m_exPath1 = ""
			string m_exPath2 = ""
			unsigned int m_soundEventID = 0
			UInt8 m_underFlag = 0
		[129]
		EffectData data
			int m_effectType = 129
			int m_actionType = 0
			string m_effectPath = "E_BB_Normal"
			string m_exPath1 = ""
			string m_exPath2 = ""
			unsigned int m_soundEventID = 0
			UInt8 m_underFlag = 0
		[130]
		EffectData data
			int m_effectType = 130
			int m_actionType = 0
			string m_effectPath = "E_BB_Normal"
			string m_exPath1 = ""
			string m_exPath2 = ""
			unsigned int m_soundEventID = 0
			UInt8 m_underFlag = 0
		[131]
		EffectData data
			int m_effectType = 131
			int m_actionType = 0
			string m_effectPath = "E_BB_Normal"
			string m_exPath1 = ""
			string m_exPath2 = ""
			unsigned int m_soundEventID = 0
			UInt8 m_underFlag = 0
		[132]
		EffectData data
			int m_effectType = 132
			int m_actionType = 0
			string m_effectPath = "E_BC_Normal"
			string m_exPath1 = ""
			string m_exPath2 = ""
			unsigned int m_soundEventID = 0
			UInt8 m_underFlag = 1
		[133]
		EffectData data
			int m_effectType = 133
			int m_actionType = 0
			string m_effectPath = "E_BC_Honoo"
			string m_exPath1 = ""
			string m_exPath2 = ""
			unsigned int m_soundEventID = 0
			UInt8 m_underFlag = 1
		[134]
		EffectData data
			int m_effectType = 134
			int m_actionType = 0
			string m_effectPath = "E_BC_Mizu"
			string m_exPath1 = ""
			string m_exPath2 = ""
			unsigned int m_soundEventID = 0
			UInt8 m_underFlag = 1
		[135]
		EffectData data
			int m_effectType = 135
			int m_actionType = 0
			string m_effectPath = "E_BC_Normal"
			string m_exPath1 = ""
			string m_exPath2 = ""
			unsigned int m_soundEventID = 0
			UInt8 m_underFlag = 1
		[136]
		EffectData data
			int m_effectType = 136
			int m_actionType = 0
			string m_effectPath = "E_BC_Normal"
			string m_exPath1 = ""
			string m_exPath2 = ""
			unsigned int m_soundEventID = 0
			UInt8 m_underFlag = 1
		[137]
		EffectData data
			int m_effectType = 137
			int m_actionType = 0
			string m_effectPath = "E_BC_Normal"
			string m_exPath1 = ""
			string m_exPath2 = ""
			unsigned int m_soundEventID = 0
			UInt8 m_underFlag = 1
		[138]
		EffectData data
			int m_effectType = 138
			int m_actionType = 0
			string m_effectPath = "E_BC_Normal"
			string m_exPath1 = ""
			string m_exPath2 = ""
			unsigned int m_soundEventID = 0
			UInt8 m_underFlag = 1
		[139]
		EffectData data
			int m_effectType = 139
			int m_actionType = 0
			string m_effectPath = "E_BC_Normal"
			string m_exPath1 = ""
			string m_exPath2 = ""
			unsigned int m_soundEventID = 0
			UInt8 m_underFlag = 1
		[140]
		EffectData data
			int m_effectType = 140
			int m_actionType = 0
			string m_effectPath = "E_BC_Normal"
			string m_exPath1 = ""
			string m_exPath2 = ""
			unsigned int m_soundEventID = 0
			UInt8 m_underFlag = 1
		[141]
		EffectData data
			int m_effectType = 141
			int m_actionType = 0
			string m_effectPath = "E_BC_Normal"
			string m_exPath1 = ""
			string m_exPath2 = ""
			unsigned int m_soundEventID = 0
			UInt8 m_underFlag = 1
		[142]
		EffectData data
			int m_effectType = 142
			int m_actionType = 0
			string m_effectPath = "E_BC_Normal"
			string m_exPath1 = ""
			string m_exPath2 = ""
			unsigned int m_soundEventID = 0
			UInt8 m_underFlag = 1
		[143]
		EffectData data
			int m_effectType = 143
			int m_actionType = 0
			string m_effectPath = "E_BC_Normal"
			string m_exPath1 = ""
			string m_exPath2 = ""
			unsigned int m_soundEventID = 0
			UInt8 m_underFlag = 1
		[144]
		EffectData data
			int m_effectType = 144
			int m_actionType = 0
			string m_effectPath = "E_BC_Iwa"
			string m_exPath1 = ""
			string m_exPath2 = ""
			unsigned int m_soundEventID = 0
			UInt8 m_underFlag = 1
		[145]
		EffectData data
			int m_effectType = 145
			int m_actionType = 0
			string m_effectPath = "E_BC_Normal"
			string m_exPath1 = ""
			string m_exPath2 = ""
			unsigned int m_soundEventID = 0
			UInt8 m_underFlag = 1
		[146]
		EffectData data
			int m_effectType = 146
			int m_actionType = 0
			string m_effectPath = "E_BC_Normal"
			string m_exPath1 = ""
			string m_exPath2 = ""
			unsigned int m_soundEventID = 0
			UInt8 m_underFlag = 1
		[147]
		EffectData data
			int m_effectType = 147
			int m_actionType = 0
			string m_effectPath = "E_BC_Normal"
			string m_exPath1 = ""
			string m_exPath2 = ""
			unsigned int m_soundEventID = 0
			UInt8 m_underFlag = 1
		[148]
		EffectData data
			int m_effectType = 148
			int m_actionType = 0
			string m_effectPath = "E_BC_Normal"
			string m_exPath1 = ""
			string m_exPath2 = ""
			unsigned int m_soundEventID = 0
			UInt8 m_underFlag = 1
		[149]
		EffectData data
			int m_effectType = 149
			int m_actionType = 0
			string m_effectPath = "E_BC_Normal"
			string m_exPath1 = ""
			string m_exPath2 = ""
			unsigned int m_soundEventID = 0
			UInt8 m_underFlag = 1
		[150]
		EffectData data
			int m_effectType = 150
			int m_actionType = 0
			string m_effectPath = "E_BCB_Normal"
			string m_exPath1 = ""
			string m_exPath2 = ""
			unsigned int m_soundEventID = 0
			UInt8 m_underFlag = 1
		[151]
		EffectData data
			int m_effectType = 151
			int m_actionType = 0
			string m_effectPath = "E_BCB_Normal"
			string m_exPath1 = ""
			string m_exPath2 = ""
			unsigned int m_soundEventID = 0
			UInt8 m_underFlag = 1
		[152]
		EffectData data
			int m_effectType = 152
			int m_actionType = 0
			string m_effectPath = "E_BCB_Normal"
			string m_exPath1 = ""
			string m_exPath2 = ""
			unsigned int m_soundEventID = 0
			UInt8 m_underFlag = 1
		[153]
		EffectData data
			int m_effectType = 153
			int m_actionType = 0
			string m_effectPath = "E_BCB_Normal"
			string m_exPath1 = ""
			string m_exPath2 = ""
			unsigned int m_soundEventID = 0
			UInt8 m_underFlag = 1
		[154]
		EffectData data
			int m_effectType = 154
			int m_actionType = 0
			string m_effectPath = "E_BCB_Normal"
			string m_exPath1 = ""
			string m_exPath2 = ""
			unsigned int m_soundEventID = 0
			UInt8 m_underFlag = 1
		[155]
		EffectData data
			int m_effectType = 155
			int m_actionType = 0
			string m_effectPath = "E_BCB_Normal"
			string m_exPath1 = ""
			string m_exPath2 = ""
			unsigned int m_soundEventID = 0
			UInt8 m_underFlag = 1
		[156]
		EffectData data
			int m_effectType = 156
			int m_actionType = 0
			string m_effectPath = "E_BCB_Normal"
			string m_exPath1 = ""
			string m_exPath2 = ""
			unsigned int m_soundEventID = 0
			UInt8 m_underFlag = 1
		[157]
		EffectData data
			int m_effectType = 157
			int m_actionType = 0
			string m_effectPath = "E_BCB_Normal"
			string m_exPath1 = ""
			string m_exPath2 = ""
			unsigned int m_soundEventID = 0
			UInt8 m_underFlag = 1
		[158]
		EffectData data
			int m_effectType = 158
			int m_actionType = 0
			string m_effectPath = "E_BCB_Normal"
			string m_exPath1 = ""
			string m_exPath2 = ""
			unsigned int m_soundEventID = 0
			UInt8 m_underFlag = 1
		[159]
		EffectData data
			int m_effectType = 159
			int m_actionType = 0
			string m_effectPath = "E_BCB_Normal"
			string m_exPath1 = ""
			string m_exPath2 = ""
			unsigned int m_soundEventID = 0
			UInt8 m_underFlag = 1
		[160]
		EffectData data
			int m_effectType = 160
			int m_actionType = 0
			string m_effectPath = "E_BCB_Normal"
			string m_exPath1 = ""
			string m_exPath2 = ""
			unsigned int m_soundEventID = 0
			UInt8 m_underFlag = 1
		[161]
		EffectData data
			int m_effectType = 161
			int m_actionType = 0
			string m_effectPath = "E_BCB_Normal"
			string m_exPath1 = ""
			string m_exPath2 = ""
			unsigned int m_soundEventID = 0
			UInt8 m_underFlag = 1
		[162]
		EffectData data
			int m_effectType = 162
			int m_actionType = 0
			string m_effectPath = "E_BCB_Normal"
			string m_exPath1 = ""
			string m_exPath2 = ""
			unsigned int m_soundEventID = 0
			UInt8 m_underFlag = 1
		[163]
		EffectData data
			int m_effectType = 163
			int m_actionType = 0
			string m_effectPath = "E_BCB_Normal"
			string m_exPath1 = ""
			string m_exPath2 = ""
			unsigned int m_soundEventID = 0
			UInt8 m_underFlag = 1
		[164]
		EffectData data
			int m_effectType = 164
			int m_actionType = 0
			string m_effectPath = "E_BCB_Normal"
			string m_exPath1 = ""
			string m_exPath2 = ""
			unsigned int m_soundEventID = 0
			UInt8 m_underFlag = 1
		[165]
		EffectData data
			int m_effectType = 165
			int m_actionType = 0
			string m_effectPath = "E_BCB_Normal"
			string m_exPath1 = ""
			string m_exPath2 = ""
			unsigned int m_soundEventID = 0
			UInt8 m_underFlag = 1
		[166]
		EffectData data
			int m_effectType = 166
			int m_actionType = 0
			string m_effectPath = "E_BCB_Normal"
			string m_exPath1 = ""
			string m_exPath2 = ""
			unsigned int m_soundEventID = 0
			UInt8 m_underFlag = 1
		[167]
		EffectData data
			int m_effectType = 167
			int m_actionType = 0
			string m_effectPath = "E_BCB_Normal"
			string m_exPath1 = ""
			string m_exPath2 = ""
			unsigned int m_soundEventID = 0
			UInt8 m_underFlag = 0
		[168]
		EffectData data
			int m_effectType = 168
			int m_actionType = 0
			string m_effectPath = "E_BGB_Normal"
			string m_exPath1 = ""
			string m_exPath2 = ""
			unsigned int m_soundEventID = 0
			UInt8 m_underFlag = 0
		[169]
		EffectData data
			int m_effectType = 169
			int m_actionType = 0
			string m_effectPath = "E_BGB_Honoo"
			string m_exPath1 = ""
			string m_exPath2 = ""
			unsigned int m_soundEventID = 0
			UInt8 m_underFlag = 0
		[170]
		EffectData data
			int m_effectType = 170
			int m_actionType = 0
			string m_effectPath = "E_BGB_Mizu"
			string m_exPath1 = ""
			string m_exPath2 = ""
			unsigned int m_soundEventID = 0
			UInt8 m_underFlag = 0
		[171]
		EffectData data
			int m_effectType = 171
			int m_actionType = 0
			string m_effectPath = "E_BGB_Normal"
			string m_exPath1 = ""
			string m_exPath2 = ""
			unsigned int m_soundEventID = 0
			UInt8 m_underFlag = 0
		[172]
		EffectData data
			int m_effectType = 172
			int m_actionType = 0
			string m_effectPath = "E_BGB_Denki"
			string m_exPath1 = ""
			string m_exPath2 = ""
			unsigned int m_soundEventID = 0
			UInt8 m_underFlag = 0
		[173]
		EffectData data
			int m_effectType = 173
			int m_actionType = 0
			string m_effectPath = "E_BGB_Koori"
			string m_exPath1 = ""
			string m_exPath2 = ""
			unsigned int m_soundEventID = 0
			UInt8 m_underFlag = 0
		[174]
		EffectData data
			int m_effectType = 174
			int m_actionType = 0
			string m_effectPath = "E_BGB_Normal"
			string m_exPath1 = ""
			string m_exPath2 = ""
			unsigned int m_soundEventID = 0
			UInt8 m_underFlag = 0
		[175]
		EffectData data
			int m_effectType = 175
			int m_actionType = 0
			string m_effectPath = "E_BGB_Doku"
			string m_exPath1 = ""
			string m_exPath2 = ""
			unsigned int m_soundEventID = 0
			UInt8 m_underFlag = 0
		[176]
		EffectData data
			int m_effectType = 176
			int m_actionType = 0
			string m_effectPath = "E_BGB_Normal"
			string m_exPath1 = ""
			string m_exPath2 = ""
			unsigned int m_soundEventID = 0
			UInt8 m_underFlag = 0
		[177]
		EffectData data
			int m_effectType = 177
			int m_actionType = 0
			string m_effectPath = "E_BGB_Normal"
			string m_exPath1 = ""
			string m_exPath2 = ""
			unsigned int m_soundEventID = 0
			UInt8 m_underFlag = 0
		[178]
		EffectData data
			int m_effectType = 178
			int m_actionType = 0
			string m_effectPath = "E_BGB_Esper"
			string m_exPath1 = ""
			string m_exPath2 = ""
			unsigned int m_soundEventID = 0
			UInt8 m_underFlag = 0
		[179]
		EffectData data
			int m_effectType = 179
			int m_actionType = 0
			string m_effectPath = "E_BGB_Normal"
			string m_exPath1 = ""
			string m_exPath2 = ""
			unsigned int m_soundEventID = 0
			UInt8 m_underFlag = 0
		[180]
		EffectData data
			int m_effectType = 180
			int m_actionType = 0
			string m_effectPath = "E_BGB_Iwa"
			string m_exPath1 = ""
			string m_exPath2 = ""
			unsigned int m_soundEventID = 0
			UInt8 m_underFlag = 0
		[181]
		EffectData data
			int m_effectType = 181
			int m_actionType = 0
			string m_effectPath = "E_BGB_Ghost"
			string m_exPath1 = ""
			string m_exPath2 = ""
			unsigned int m_soundEventID = 0
			UInt8 m_underFlag = 0
		[182]
		EffectData data
			int m_effectType = 182
			int m_actionType = 0
			string m_effectPath = "E_BGB_Normal"
			string m_exPath1 = ""
			string m_exPath2 = ""
			unsigned int m_soundEventID = 0
			UInt8 m_underFlag = 0
		[183]
		EffectData data
			int m_effectType = 183
			int m_actionType = 0
			string m_effectPath = "E_BGB_Normal"
			string m_exPath1 = ""
			string m_exPath2 = ""
			unsigned int m_soundEventID = 0
			UInt8 m_underFlag = 0
		[184]
		EffectData data
			int m_effectType = 184
			int m_actionType = 0
			string m_effectPath = "E_BGB_Normal"
			string m_exPath1 = ""
			string m_exPath2 = ""
			unsigned int m_soundEventID = 0
			UInt8 m_underFlag = 0
		[185]
		EffectData data
			int m_effectType = 185
			int m_actionType = 0
			string m_effectPath = "E_BGB_Normal"
			string m_exPath1 = ""
			string m_exPath2 = ""
			unsigned int m_soundEventID = 0
			UInt8 m_underFlag = 0
		[186]
		EffectData data
			int m_effectType = 186
			int m_actionType = 0
			string m_effectPath = "E_EF_Charge"
			string m_exPath1 = ""
			string m_exPath2 = ""
			unsigned int m_soundEventID = 0
			UInt8 m_underFlag = 0
		[187]
		EffectData data
			int m_effectType = 187
			int m_actionType = 0
			string m_effectPath = "E_EF_Flash"
			string m_exPath1 = ""
			string m_exPath2 = ""
			unsigned int m_soundEventID = 0
			UInt8 m_underFlag = 0
		[188]
		EffectData data
			int m_effectType = 188
			int m_actionType = 0
			string m_effectPath = "E_EF_Paralyse"
			string m_exPath1 = ""
			string m_exPath2 = ""
			unsigned int m_soundEventID = 1777523627
			UInt8 m_underFlag = 0
		[189]
		EffectData data
			int m_effectType = 189
			int m_actionType = 0
			string m_effectPath = "E_EF_Poison"
			string m_exPath1 = ""
			string m_exPath2 = ""
			unsigned int m_soundEventID = 2510030711
			UInt8 m_underFlag = 0
		[190]
		EffectData data
			int m_effectType = 190
			int m_actionType = 0
			string m_effectPath = "E_SP_Rinpun"
			string m_exPath1 = ""
			string m_exPath2 = ""
			unsigned int m_soundEventID = 0
			UInt8 m_underFlag = 0
		[191]
		EffectData data
			int m_effectType = 191
			int m_actionType = 3
			string m_effectPath = "E_BP_Honoo_Start"
			string m_exPath1 = "E_BP_Honoo_Loop"
			string m_exPath2 = "E_BP_Honoo_End"
			unsigned int m_soundEventID = 0
			UInt8 m_underFlag = 1
		[192]
		EffectData data
			int m_effectType = 192
			int m_actionType = 3
			string m_effectPath = "E_BPB_Honoo_Start"
			string m_exPath1 = "E_BPB_Honoo_Loop"
			string m_exPath2 = "E_BPB_Honoo_End"
			unsigned int m_soundEventID = 0
			UInt8 m_underFlag = 1
		[193]
		EffectData data
			int m_effectType = 193
			int m_actionType = 0
			string m_effectPath = "E_EF_Negative"
			string m_exPath1 = ""
			string m_exPath2 = ""
			unsigned int m_soundEventID = 1102703458
			UInt8 m_underFlag = 0
		[194]
		EffectData data
			int m_effectType = 194
			int m_actionType = 0
			string m_effectPath = "E_EF_Positive"
			string m_exPath1 = ""
			string m_exPath2 = ""
			unsigned int m_soundEventID = 3638497921
			UInt8 m_underFlag = 0
		[195]
		EffectData data
			int m_effectType = 195
			int m_actionType = 0
			string m_effectPath = "E_EF_Return"
			string m_exPath1 = ""
			string m_exPath2 = ""
			unsigned int m_soundEventID = 0
			UInt8 m_underFlag = 0
		[196]
		EffectData data
			int m_effectType = 196
			int m_actionType = 0
			string m_effectPath = "E_BRB_Denki"
			string m_exPath1 = ""
			string m_exPath2 = ""
			unsigned int m_soundEventID = 0
			UInt8 m_underFlag = 0
		[197]
		EffectData data
			int m_effectType = 197
			int m_actionType = 0
			string m_effectPath = "E_BRB_Esper"
			string m_exPath1 = ""
			string m_exPath2 = ""
			unsigned int m_soundEventID = 0
			UInt8 m_underFlag = 0
		[198]
		EffectData data
			int m_effectType = 198
			int m_actionType = 0
			string m_effectPath = "E_BRB_Ghost"
			string m_exPath1 = ""
			string m_exPath2 = ""
			unsigned int m_soundEventID = 0
			UInt8 m_underFlag = 0
		[199]
		EffectData data
			int m_effectType = 199
			int m_actionType = 0
			string m_effectPath = "E_BRB_Honoo"
			string m_exPath1 = ""
			string m_exPath2 = ""
			unsigned int m_soundEventID = 0
			UInt8 m_underFlag = 0
		[200]
		EffectData data
			int m_effectType = 200
			int m_actionType = 0
			string m_effectPath = "E_BRB_Mizu"
			string m_exPath1 = ""
			string m_exPath2 = ""
			unsigned int m_soundEventID = 0
			UInt8 m_underFlag = 0
		[201]
		EffectData data
			int m_effectType = 201
			int m_actionType = 0
			string m_effectPath = "E_EF_Burn"
			string m_exPath1 = ""
			string m_exPath2 = ""
			unsigned int m_soundEventID = 1282226517
			UInt8 m_underFlag = 0
		[202]
		EffectData data
			int m_effectType = 202
			int m_actionType = 0
			string m_effectPath = "E_EF_Confuse"
			string m_exPath1 = ""
			string m_exPath2 = ""
			unsigned int m_soundEventID = 3344740979
			UInt8 m_underFlag = 0
		[203]
		EffectData data
			int m_effectType = 203
			int m_actionType = 0
			string m_effectPath = "E_EF_Freeze"
			string m_exPath1 = ""
			string m_exPath2 = ""
			unsigned int m_soundEventID = 3776826818
			UInt8 m_underFlag = 0
		[204]
		EffectData data
			int m_effectType = 204
			int m_actionType = 0
			string m_effectPath = "E_EF_Sleep"
			string m_exPath1 = ""
			string m_exPath2 = ""
			unsigned int m_soundEventID = 1953786442
			UInt8 m_underFlag = 0
		[205]
		EffectData data
			int m_effectType = 206
			int m_actionType = 0
			string m_effectPath = "E_EF_Onpa"
			string m_exPath1 = ""
			string m_exPath2 = ""
			unsigned int m_soundEventID = 0
			UInt8 m_underFlag = 0
		[206]
		EffectData data
			int m_effectType = 207
			int m_actionType = 0
			string m_effectPath = "E_SP_Egg"
			string m_exPath1 = ""
			string m_exPath2 = ""
			unsigned int m_soundEventID = 0
			UInt8 m_underFlag = 1
		[207]
		EffectData data
			int m_effectType = 208
			int m_actionType = 0
			string m_effectPath = "E_SP_Honebuumeran"
			string m_exPath1 = ""
			string m_exPath2 = ""
			unsigned int m_soundEventID = 0
			UInt8 m_underFlag = 0
		[208]
		EffectData data
			int m_effectType = 209
			int m_actionType = 0
			string m_effectPath = "E_SP_Kumonosu"
			string m_exPath1 = ""
			string m_exPath2 = ""
			unsigned int m_soundEventID = 0
			UInt8 m_underFlag = 1
		[209]
		EffectData data
			int m_effectType = 210
			int m_actionType = 0
			string m_effectPath = "E_SP_Migawari"
			string m_exPath1 = ""
			string m_exPath2 = ""
			unsigned int m_soundEventID = 0
			UInt8 m_underFlag = 1
		[210]
		EffectData data
			int m_effectType = 211
			int m_actionType = 0
			string m_effectPath = "E_SP_Tsuno"
			string m_exPath1 = ""
			string m_exPath2 = ""
			unsigned int m_soundEventID = 0
			UInt8 m_underFlag = 0
		[211]
		EffectData data
			int m_effectType = 212
			int m_actionType = 0
			string m_effectPath = "E_BD_Honoo"
			string m_exPath1 = ""
			string m_exPath2 = ""
			unsigned int m_soundEventID = 2410316342
			UInt8 m_underFlag = 0
		[212]
		EffectData data
			int m_effectType = 213
			int m_actionType = 0
			string m_effectPath = "E_BD_Denki"
			string m_exPath1 = ""
			string m_exPath2 = ""
			unsigned int m_soundEventID = 2410316342
			UInt8 m_underFlag = 0
		[213]
		EffectData data
			int m_effectType = 214
			int m_actionType = 0
			string m_effectPath = "E_BD_Jimen"
			string m_exPath1 = ""
			string m_exPath2 = ""
			unsigned int m_soundEventID = 2410316342
			UInt8 m_underFlag = 0
		[214]
		EffectData data
			int m_effectType = 215
			int m_actionType = 0
			string m_effectPath = "E_BD_Kusa"
			string m_exPath1 = ""
			string m_exPath2 = ""
			unsigned int m_soundEventID = 2410316342
			UInt8 m_underFlag = 0
		[215]
		EffectData data
			int m_effectType = 216
			int m_actionType = 0
			string m_effectPath = "E_BD_Hikou"
			string m_exPath1 = ""
			string m_exPath2 = ""
			unsigned int m_soundEventID = 2410316342
			UInt8 m_underFlag = 0
		[216]
		EffectData data
			int m_effectType = 217
			int m_actionType = 0
			string m_effectPath = "E_BD_Mizu"
			string m_exPath1 = ""
			string m_exPath2 = ""
			unsigned int m_soundEventID = 2410316342
			UInt8 m_underFlag = 0
		[217]
		EffectData data
			int m_effectType = 218
			int m_actionType = 0
			string m_effectPath = "E_BD_Aku"
			string m_exPath1 = ""
			string m_exPath2 = ""
			unsigned int m_soundEventID = 2410316342
			UInt8 m_underFlag = 0
		[218]
		EffectData data
			int m_effectType = 219
			int m_actionType = 0
			string m_effectPath = "E_BD_Doku"
			string m_exPath1 = ""
			string m_exPath2 = ""
			unsigned int m_soundEventID = 2410316342
			UInt8 m_underFlag = 0
		[219]
		EffectData data
			int m_effectType = 220
			int m_actionType = 0
			string m_effectPath = "E_BD_Dragon"
			string m_exPath1 = ""
			string m_exPath2 = ""
			unsigned int m_soundEventID = 2410316342
			UInt8 m_underFlag = 0
		[220]
		EffectData data
			int m_effectType = 221
			int m_actionType = 0
			string m_effectPath = "E_BD_Esper"
			string m_exPath1 = ""
			string m_exPath2 = ""
			unsigned int m_soundEventID = 2410316342
			UInt8 m_underFlag = 0
		[221]
		EffectData data
			int m_effectType = 222
			int m_actionType = 0
			string m_effectPath = "E_BD_Fairy"
			string m_exPath1 = ""
			string m_exPath2 = ""
			unsigned int m_soundEventID = 2410316342
			UInt8 m_underFlag = 0
		[222]
		EffectData data
			int m_effectType = 223
			int m_actionType = 0
			string m_effectPath = "E_BD_Ghost"
			string m_exPath1 = ""
			string m_exPath2 = ""
			unsigned int m_soundEventID = 2410316342
			UInt8 m_underFlag = 0
		[223]
		EffectData data
			int m_effectType = 224
			int m_actionType = 0
			string m_effectPath = "E_BD_Hagane"
			string m_exPath1 = ""
			string m_exPath2 = ""
			unsigned int m_soundEventID = 2410316342
			UInt8 m_underFlag = 0
		[224]
		EffectData data
			int m_effectType = 225
			int m_actionType = 0
			string m_effectPath = "E_BD_Iwa"
			string m_exPath1 = ""
			string m_exPath2 = ""
			unsigned int m_soundEventID = 2410316342
			UInt8 m_underFlag = 0
		[225]
		EffectData data
			int m_effectType = 226
			int m_actionType = 0
			string m_effectPath = "E_BD_Kakutou"
			string m_exPath1 = ""
			string m_exPath2 = ""
			unsigned int m_soundEventID = 2410316342
			UInt8 m_underFlag = 0
		[226]
		EffectData data
			int m_effectType = 227
			int m_actionType = 0
			string m_effectPath = "E_BD_Koori"
			string m_exPath1 = ""
			string m_exPath2 = ""
			unsigned int m_soundEventID = 2410316342
			UInt8 m_underFlag = 0
		[227]
		EffectData data
			int m_effectType = 228
			int m_actionType = 0
			string m_effectPath = "E_BD_Mushi"
			string m_exPath1 = ""
			string m_exPath2 = ""
			unsigned int m_soundEventID = 2410316342
			UInt8 m_underFlag = 0
		[228]
		EffectData data
			int m_effectType = 229
			int m_actionType = 0
			string m_effectPath = "E_BD_Normal"
			string m_exPath1 = ""
			string m_exPath2 = ""
			unsigned int m_soundEventID = 2410316342
			UInt8 m_underFlag = 0
		[229]
		EffectData data
			int m_effectType = 230
			int m_actionType = 0
			string m_effectPath = "E_BL_Normal"
			string m_exPath1 = ""
			string m_exPath2 = ""
			unsigned int m_soundEventID = 0
			UInt8 m_underFlag = 0
		[230]
		EffectData data
			int m_effectType = 231
			int m_actionType = 0
			string m_effectPath = "E_BL_Normal_Reserve"
			string m_exPath1 = ""
			string m_exPath2 = ""
			unsigned int m_soundEventID = 0
			UInt8 m_underFlag = 0
		[231]
		EffectData data
			int m_effectType = 232
			int m_actionType = 0
			string m_effectPath = "E_BL_Esper"
			string m_exPath1 = ""
			string m_exPath2 = ""
			unsigned int m_soundEventID = 0
			UInt8 m_underFlag = 0
		[232]
		EffectData data
			int m_effectType = 233
			int m_actionType = 0
			string m_effectPath = "E_BL_Esper_Reserve"
			string m_exPath1 = ""
			string m_exPath2 = ""
			unsigned int m_soundEventID = 0
			UInt8 m_underFlag = 0
		[233]
		EffectData data
			int m_effectType = 234
			int m_actionType = 0
			string m_effectPath = "E_BL_Hagane"
			string m_exPath1 = ""
			string m_exPath2 = ""
			unsigned int m_soundEventID = 0
			UInt8 m_underFlag = 0
		[234]
		EffectData data
			int m_effectType = 235
			int m_actionType = 0
			string m_effectPath = "E_BL_Hagane_Reserve"
			string m_exPath1 = ""
			string m_exPath2 = ""
			unsigned int m_soundEventID = 0
			UInt8 m_underFlag = 0
		[235]
		EffectData data
			int m_effectType = 236
			int m_actionType = 0
			string m_effectPath = "E_BL_Koori"
			string m_exPath1 = ""
			string m_exPath2 = ""
			unsigned int m_soundEventID = 0
			UInt8 m_underFlag = 0
		[236]
		EffectData data
			int m_effectType = 237
			int m_actionType = 0
			string m_effectPath = "E_BL_Koori_Reserve"
			string m_exPath1 = ""
			string m_exPath2 = ""
			unsigned int m_soundEventID = 0
			UInt8 m_underFlag = 0
		[237]
		EffectData data
			int m_effectType = 238
			int m_actionType = 0
			string m_effectPath = "E_BL_Kusa"
			string m_exPath1 = ""
			string m_exPath2 = ""
			unsigned int m_soundEventID = 0
			UInt8 m_underFlag = 0
		[238]
		EffectData data
			int m_effectType = 239
			int m_actionType = 0
			string m_effectPath = "E_BL_Kusa_Reserve"
			string m_exPath1 = ""
			string m_exPath2 = ""
			unsigned int m_soundEventID = 0
			UInt8 m_underFlag = 0
		[239]
		EffectData data
			int m_effectType = 240
			int m_actionType = 3
			string m_effectPath = "E_BP_Iwa_Start"
			string m_exPath1 = "E_BP_Iwa_Loop"
			string m_exPath2 = "E_BP_Iwa_End"
			unsigned int m_soundEventID = 0
			UInt8 m_underFlag = 1
		[240]
		EffectData data
			int m_effectType = 241
			int m_actionType = 3
			string m_effectPath = "E_BP_Mizu_Start"
			string m_exPath1 = "E_BP_Mizu_Loop"
			string m_exPath2 = "E_BP_Mizu_End"
			unsigned int m_soundEventID = 0
			UInt8 m_underFlag = 1
		[241]
		EffectData data
			int m_effectType = 242
			int m_actionType = 3
			string m_effectPath = "E_BP_Normal_Start"
			string m_exPath1 = "E_BP_Normal_Loop"
			string m_exPath2 = "E_BP_Normal_End"
			unsigned int m_soundEventID = 0
			UInt8 m_underFlag = 1
		[242]
		EffectData data
			int m_effectType = 243
			int m_actionType = 3
			string m_effectPath = "E_BPB_Normal_Start"
			string m_exPath1 = "E_BPB_Normal_Loop"
			string m_exPath2 = "E_BPB_Normal_End"
			unsigned int m_soundEventID = 0
			UInt8 m_underFlag = 1
		[243]
		EffectData data
			int m_effectType = 244
			int m_actionType = 0
			string m_effectPath = "E_evolve_in"
			string m_exPath1 = ""
			string m_exPath2 = ""
			unsigned int m_soundEventID = 0
			UInt8 m_underFlag = 0
		[244]
		EffectData data
			int m_effectType = 245
			int m_actionType = 0
			string m_effectPath = "E_evolve_out"
			string m_exPath1 = ""
			string m_exPath2 = ""
			unsigned int m_soundEventID = 0
			UInt8 m_underFlag = 0
		[245]
		EffectData data
			int m_effectType = 246
			int m_actionType = 0
			string m_effectPath = "E_BBB_Normal"
			string m_exPath1 = ""
			string m_exPath2 = ""
			unsigned int m_soundEventID = 0
			UInt8 m_underFlag = 1
		[246]
		EffectData data
			int m_effectType = 247
			int m_actionType = 0
			string m_effectPath = "E_EF_Kanasibari"
			string m_exPath1 = ""
			string m_exPath2 = ""
			unsigned int m_soundEventID = 2066410143
			UInt8 m_underFlag = 0
		[247]
		EffectData data
			int m_effectType = 248
			int m_actionType = 0
			string m_effectPath = "E_EF_damage_boss"
			string m_exPath1 = ""
			string m_exPath2 = ""
			unsigned int m_soundEventID = 0
			UInt8 m_underFlag = 0
		[248]
		EffectData data
			int m_effectType = 249
			int m_actionType = 0
			string m_effectPath = "E_EF_damage_boss_end"
			string m_exPath1 = ""
			string m_exPath2 = ""
			unsigned int m_soundEventID = 0
			UInt8 m_underFlag = 0
		[249]
		EffectData data
			int m_effectType = 250
			int m_actionType = 0
			string m_effectPath = "E_BBB_Denki"
			string m_exPath1 = ""
			string m_exPath2 = ""
			unsigned int m_soundEventID = 0
			UInt8 m_underFlag = 1
		[250]
		EffectData data
			int m_effectType = 251
			int m_actionType = 0
			string m_effectPath = "E_BBB_Doku"
			string m_exPath1 = ""
			string m_exPath2 = ""
			unsigned int m_soundEventID = 0
			UInt8 m_underFlag = 1
		[251]
		EffectData data
			int m_effectType = 252
			int m_actionType = 0
			string m_effectPath = "E_BBB_Honoo"
			string m_exPath1 = ""
			string m_exPath2 = ""
			unsigned int m_soundEventID = 0
			UInt8 m_underFlag = 1
		[252]
		EffectData data
			int m_effectType = 253
			int m_actionType = 0
			string m_effectPath = "E_BBB_Koori"
			string m_exPath1 = ""
			string m_exPath2 = ""
			unsigned int m_soundEventID = 0
			UInt8 m_underFlag = 1
		[253]
		EffectData data
			int m_effectType = 254
			int m_actionType = 0
			string m_effectPath = "E_BD_Critical"
			string m_exPath1 = ""
			string m_exPath2 = ""
			unsigned int m_soundEventID = 0
			UInt8 m_underFlag = 0
		[254]
		EffectData data
			int m_effectType = 255
			int m_actionType = 0
			string m_effectPath = "E_EF_Heal"
			string m_exPath1 = ""
			string m_exPath2 = ""
			unsigned int m_soundEventID = 1257049337
			UInt8 m_underFlag = 0
		[255]
		EffectData data
			int m_effectType = 256
			int m_actionType = 0
			string m_effectPath = "E_EF_Onpabullet"
			string m_exPath1 = ""
			string m_exPath2 = ""
			unsigned int m_soundEventID = 0
			UInt8 m_underFlag = 0
		[256]
		EffectData data
			int m_effectType = 257
			int m_actionType = 0
			string m_effectPath = "E_SP_Daimonji"
			string m_exPath1 = ""
			string m_exPath2 = ""
			unsigned int m_soundEventID = 0
			UInt8 m_underFlag = 1
		[257]
		EffectData data
			int m_effectType = 258
			int m_actionType = 0
			string m_effectPath = "E_SP_Punch_Honoo"
			string m_exPath1 = ""
			string m_exPath2 = ""
			unsigned int m_soundEventID = 0
			UInt8 m_underFlag = 0
		[258]
		EffectData data
			int m_effectType = 259
			int m_actionType = 0
			string m_effectPath = "E_SP_Punch_Denki"
			string m_exPath1 = ""
			string m_exPath2 = ""
			unsigned int m_soundEventID = 0
			UInt8 m_underFlag = 0
		[259]
		EffectData data
			int m_effectType = 260
			int m_actionType = 0
			string m_effectPath = "E_SP_Punch_Koori"
			string m_exPath1 = ""
			string m_exPath2 = ""
			unsigned int m_soundEventID = 0
			UInt8 m_underFlag = 0
		[260]
		EffectData data
			int m_effectType = 261
			int m_actionType = 0
			string m_effectPath = "E_EF_damage_gimmick"
			string m_exPath1 = ""
			string m_exPath2 = ""
			unsigned int m_soundEventID = 0
			UInt8 m_underFlag = 0
		[261]
		EffectData data
			int m_effectType = 262
			int m_actionType = 0
			string m_effectPath = "E_SP_Cutter"
			string m_exPath1 = ""
			string m_exPath2 = ""
			unsigned int m_soundEventID = 0
			UInt8 m_underFlag = 0
		[262]
		EffectData data
			int m_effectType = 263
			int m_actionType = 0
			string m_effectPath = "E_SP_Meteo"
			string m_exPath1 = ""
			string m_exPath2 = ""
			unsigned int m_soundEventID = 0
			UInt8 m_underFlag = 0
		[263]
		EffectData data
			int m_effectType = 264
			int m_actionType = 0
			string m_effectPath = "E_SP_Petal"
			string m_exPath1 = ""
			string m_exPath2 = ""
			unsigned int m_soundEventID = 0
			UInt8 m_underFlag = 0
		[264]
		EffectData data
			int m_effectType = 265
			int m_actionType = 0
			string m_effectPath = "E_EF_damage_lastboss"
			string m_exPath1 = ""
			string m_exPath2 = ""
			unsigned int m_soundEventID = 0
			UInt8 m_underFlag = 0
		[265]
		EffectData data
			int m_effectType = 266
			int m_actionType = 0
			string m_effectPath = "E_EF_instructBlue"
			string m_exPath1 = ""
			string m_exPath2 = ""
			unsigned int m_soundEventID = 0
			UInt8 m_underFlag = 0
		[266]
		EffectData data
			int m_effectType = 267
			int m_actionType = 0
			string m_effectPath = "E_EF_instructGreen"
			string m_exPath1 = ""
			string m_exPath2 = ""
			unsigned int m_soundEventID = 0
			UInt8 m_underFlag = 0
		[267]
		EffectData data
			int m_effectType = 268
			int m_actionType = 0
			string m_effectPath = "E_EF_instructRed"
			string m_exPath1 = ""
			string m_exPath2 = ""
			unsigned int m_soundEventID = 0
			UInt8 m_underFlag = 0
		[268]
		EffectData data
			int m_effectType = 269
			int m_actionType = 0
			string m_effectPath = "E_EF_Metamon_smoke"
			string m_exPath1 = ""
			string m_exPath2 = ""
			unsigned int m_soundEventID = 0
			UInt8 m_underFlag = 0
		[269]
		EffectData data
			int m_effectType = 270
			int m_actionType = 0
			string m_effectPath = "E_SP_Icicle"
			string m_exPath1 = ""
			string m_exPath2 = ""
			unsigned int m_soundEventID = 0
			UInt8 m_underFlag = 0
		[270]
		EffectData data
			int m_effectType = 271
			int m_actionType = 0
			string m_effectPath = "E_SP_Kumonosu_Denki"
			string m_exPath1 = ""
			string m_exPath2 = ""
			unsigned int m_soundEventID = 0
			UInt8 m_underFlag = 1
		[271]
		EffectData data
			int m_effectType = 272
			int m_actionType = 0
			string m_effectPath = "E_BM_Normal"
			string m_exPath1 = ""
			string m_exPath2 = ""
			unsigned int m_soundEventID = 0
			UInt8 m_underFlag = 0
		[272]
		EffectData data
			int m_effectType = 273
			int m_actionType = 0
			string m_effectPath = "E_BM_Honoo"
			string m_exPath1 = ""
			string m_exPath2 = ""
			unsigned int m_soundEventID = 0
			UInt8 m_underFlag = 0
		[273]
		EffectData data
			int m_effectType = 274
			int m_actionType = 0
			string m_effectPath = "E_BM_Mizu"
			string m_exPath1 = ""
			string m_exPath2 = ""
			unsigned int m_soundEventID = 0
			UInt8 m_underFlag = 0
		[274]
		EffectData data
			int m_effectType = 275
			int m_actionType = 0
			string m_effectPath = "E_BM_Kusa"
			string m_exPath1 = ""
			string m_exPath2 = ""
			unsigned int m_soundEventID = 0
			UInt8 m_underFlag = 0
		[275]
		EffectData data
			int m_effectType = 276
			int m_actionType = 0
			string m_effectPath = "E_BM_Denki"
			string m_exPath1 = ""
			string m_exPath2 = ""
			unsigned int m_soundEventID = 0
			UInt8 m_underFlag = 0
		[276]
		EffectData data
			int m_effectType = 277
			int m_actionType = 0
			string m_effectPath = "E_BM_Koori"
			string m_exPath1 = ""
			string m_exPath2 = ""
			unsigned int m_soundEventID = 0
			UInt8 m_underFlag = 0
		[277]
		EffectData data
			int m_effectType = 278
			int m_actionType = 0
			string m_effectPath = "E_BM_Kakutou"
			string m_exPath1 = ""
			string m_exPath2 = ""
			unsigned int m_soundEventID = 0
			UInt8 m_underFlag = 0
		[278]
		EffectData data
			int m_effectType = 279
			int m_actionType = 0
			string m_effectPath = "E_BM_Doku"
			string m_exPath1 = ""
			string m_exPath2 = ""
			unsigned int m_soundEventID = 0
			UInt8 m_underFlag = 0
		[279]
		EffectData data
			int m_effectType = 280
			int m_actionType = 0
			string m_effectPath = "E_BM_Jimen"
			string m_exPath1 = ""
			string m_exPath2 = ""
			unsigned int m_soundEventID = 0
			UInt8 m_underFlag = 0
		[280]
		EffectData data
			int m_effectType = 281
			int m_actionType = 0
			string m_effectPath = "E_BM_Hikou"
			string m_exPath1 = ""
			string m_exPath2 = ""
			unsigned int m_soundEventID = 0
			UInt8 m_underFlag = 0
		[281]
		EffectData data
			int m_effectType = 282
			int m_actionType = 0
			string m_effectPath = "E_BM_Esper"
			string m_exPath1 = ""
			string m_exPath2 = ""
			unsigned int m_soundEventID = 0
			UInt8 m_underFlag = 0
		[282]
		EffectData data
			int m_effectType = 283
			int m_actionType = 0
			string m_effectPath = "E_BM_Mushi"
			string m_exPath1 = ""
			string m_exPath2 = ""
			unsigned int m_soundEventID = 0
			UInt8 m_underFlag = 0
		[283]
		EffectData data
			int m_effectType = 284
			int m_actionType = 0
			string m_effectPath = "E_BM_Iwa"
			string m_exPath1 = ""
			string m_exPath2 = ""
			unsigned int m_soundEventID = 0
			UInt8 m_underFlag = 0
		[284]
		EffectData data
			int m_effectType = 285
			int m_actionType = 0
			string m_effectPath = "E_BM_Ghost"
			string m_exPath1 = ""
			string m_exPath2 = ""
			unsigned int m_soundEventID = 0
			UInt8 m_underFlag = 0
		[285]
		EffectData data
			int m_effectType = 286
			int m_actionType = 0
			string m_effectPath = "E_BM_Dragon"
			string m_exPath1 = ""
			string m_exPath2 = ""
			unsigned int m_soundEventID = 0
			UInt8 m_underFlag = 0
		[286]
		EffectData data
			int m_effectType = 287
			int m_actionType = 0
			string m_effectPath = "E_BM_Aku"
			string m_exPath1 = ""
			string m_exPath2 = ""
			unsigned int m_soundEventID = 0
			UInt8 m_underFlag = 0
		[287]
		EffectData data
			int m_effectType = 288
			int m_actionType = 0
			string m_effectPath = "E_BM_Hagane"
			string m_exPath1 = ""
			string m_exPath2 = ""
			unsigned int m_soundEventID = 0
			UInt8 m_underFlag = 0
		[288]
		EffectData data
			int m_effectType = 289
			int m_actionType = 0
			string m_effectPath = "E_BM_Fairy"
			string m_exPath1 = ""
			string m_exPath2 = ""
			unsigned int m_soundEventID = 0
			UInt8 m_underFlag = 0
		[289]
		EffectData data
			int m_effectType = 290
			int m_actionType = 0
			string m_effectPath = "E_SP_Escape_RarePoke"
			string m_exPath1 = ""
			string m_exPath2 = ""
			unsigned int m_soundEventID = 0
			UInt8 m_underFlag = 0
		[290]
		EffectData data
			int m_effectType = 291
			int m_actionType = 0
			string m_effectPath = "E_SP_Hit_Training"
			string m_exPath1 = ""
			string m_exPath2 = ""
			unsigned int m_soundEventID = 0
			UInt8 m_underFlag = 0
