PPtr<GameObject> m_GameObject
	int m_FileID = 0
	SInt64 m_PathID = 0
UInt8 m_Enabled = 1
PPtr<MonoScript> m_Script
	int m_FileID = 0
	SInt64 m_PathID = 1088006837878153380
string m_Name = "EnemyPack_forest2_005"
EnemySet m_normalPrimaryEnemySets
	Array Array
	int size = 3
		[0]
		EnemySet data
			RegistData m_registDatas
				Array Array
				int size = 2
					[0]
					RegistData data
						PPtr<$EnemyData> m_enemyData
							int m_FileID = 0
							SInt64 m_PathID = 8865054485313906840
						int m_lotteryRate = 60
					[1]
					RegistData data
						PPtr<$EnemyData> m_enemyData
							int m_FileID = 0
							SInt64 m_PathID = -5594445087199766841
						int m_lotteryRate = 60
		[1]
		EnemySet data
			RegistData m_registDatas
				Array Array
				int size = 2
					[0]
					RegistData data
						PPtr<$EnemyData> m_enemyData
							int m_FileID = 0
							SInt64 m_PathID = 588443203131436938
						int m_lotteryRate = 60
					[1]
					RegistData data
						PPtr<$EnemyData> m_enemyData
							int m_FileID = 0
							SInt64 m_PathID = -166500388132909965
						int m_lotteryRate = 60
		[2]
		EnemySet data
			RegistData m_registDatas
				Array Array
				int size = 1
					[0]
					RegistData data
						PPtr<$EnemyData> m_enemyData
							int m_FileID = 0
							SInt64 m_PathID = -8636807738520649247
						int m_lotteryRate = 100
EnemySet m_normalSecondaryEnemySets
	Array Array
	int size = 3
		[0]
		EnemySet data
			RegistData m_registDatas
				Array Array
				int size = 2
					[0]
					RegistData data
						PPtr<$EnemyData> m_enemyData
							int m_FileID = 0
							SInt64 m_PathID = 3738337903606189688
						int m_lotteryRate = 40
					[1]
					RegistData data
						PPtr<$EnemyData> m_enemyData
							int m_FileID = 0
							SInt64 m_PathID = -5392475425023697829
						int m_lotteryRate = 40
		[1]
		EnemySet data
			RegistData m_registDatas
				Array Array
				int size = 2
					[0]
					RegistData data
						PPtr<$EnemyData> m_enemyData
							int m_FileID = 0
							SInt64 m_PathID = 7640229723077794262
						int m_lotteryRate = 50
					[1]
					RegistData data
						PPtr<$EnemyData> m_enemyData
							int m_FileID = 0
							SInt64 m_PathID = -4106379420868233630
						int m_lotteryRate = 50
		[2]
		EnemySet data
			RegistData m_registDatas
				Array Array
				int size = 1
					[0]
					RegistData data
						PPtr<$EnemyData> m_enemyData
							int m_FileID = 0
							SInt64 m_PathID = 4299135019960450947
						int m_lotteryRate = 100
EnemySet m_normalTertiaryEnemySets
	Array Array
	int size = 1
		[0]
		EnemySet data
			RegistData m_registDatas
				Array Array
				int size = 1
					[0]
					RegistData data
						PPtr<$EnemyData> m_enemyData
							int m_FileID = 0
							SInt64 m_PathID = 0
						int m_lotteryRate = 0
EnemySet m_normalQuarternaryEnemySets
	Array Array
	int size = 1
		[0]
		EnemySet data
			RegistData m_registDatas
				Array Array
				int size = 1
					[0]
					RegistData data
						PPtr<$EnemyData> m_enemyData
							int m_FileID = 0
							SInt64 m_PathID = 0
						int m_lotteryRate = 0
EnemySet m_bossPrimaryEnemySet
	RegistData m_registDatas
		Array Array
		int size = 2
			[0]
			RegistData data
				PPtr<$EnemyData> m_enemyData
					int m_FileID = 0
					SInt64 m_PathID = 6150793305451548506
				int m_lotteryRate = 100
			[1]
			RegistData data
				PPtr<$EnemyData> m_enemyData
					int m_FileID = 0
					SInt64 m_PathID = 3960129616405728063
				int m_lotteryRate = 100
EnemySet m_bossSecondaryEnemySet
	RegistData m_registDatas
		Array Array
		int size = 0
EnemySet m_bossTertiaryEnemySet
	RegistData m_registDatas
		Array Array
		int size = 1
			[0]
			RegistData data
				PPtr<$EnemyData> m_enemyData
					int m_FileID = 0
					SInt64 m_PathID = 0
				int m_lotteryRate = 0
EnemySet m_bossQuarternaryEnemySet
	RegistData m_registDatas
		Array Array
		int size = 1
			[0]
			RegistData data
				PPtr<$EnemyData> m_enemyData
					int m_FileID = 0
					SInt64 m_PathID = 0
				int m_lotteryRate = 0
RegistData m_registDatas
	Array Array
	int size = 7
		[0]
		RegistData data
			PPtr<$EnemyData> m_enemyData
				int m_FileID = 0
				SInt64 m_PathID = 0
			int m_min = 2
			int m_max = 2
			UInt8 m_isFixPosition = 0
			UInt8 m_isBoss = 0
			int m_setType = 0
			int m_setIndex = 0
			int m_spawnMode = 2
		[1]
		RegistData data
			PPtr<$EnemyData> m_enemyData
				int m_FileID = 0
				SInt64 m_PathID = 0
			int m_min = 2
			int m_max = 2
			UInt8 m_isFixPosition = 0
			UInt8 m_isBoss = 0
			int m_setType = 1
			int m_setIndex = 0
			int m_spawnMode = 2
		[2]
		RegistData data
			PPtr<$EnemyData> m_enemyData
				int m_FileID = 0
				SInt64 m_PathID = 0
			int m_min = 1
			int m_max = 1
			UInt8 m_isFixPosition = 0
			UInt8 m_isBoss = 0
			int m_setType = 0
			int m_setIndex = 2
			int m_spawnMode = 0
		[3]
		RegistData data
			PPtr<$EnemyData> m_enemyData
				int m_FileID = 0
				SInt64 m_PathID = 0
			int m_min = 3
			int m_max = 3
			UInt8 m_isFixPosition = 0
			UInt8 m_isBoss = 0
			int m_setType = 0
			int m_setIndex = 1
			int m_spawnMode = 0
		[4]
		RegistData data
			PPtr<$EnemyData> m_enemyData
				int m_FileID = 0
				SInt64 m_PathID = 0
			int m_min = 1
			int m_max = 1
			UInt8 m_isFixPosition = 0
			UInt8 m_isBoss = 0
			int m_setType = 1
			int m_setIndex = 0
			int m_spawnMode = 0
		[5]
		RegistData data
			PPtr<$EnemyData> m_enemyData
				int m_FileID = 0
				SInt64 m_PathID = 0
			int m_min = 1
			int m_max = 1
			UInt8 m_isFixPosition = 0
			UInt8 m_isBoss = 1
			int m_setType = 0
			int m_setIndex = 0
			int m_spawnMode = 0
		[6]
		RegistData data
			PPtr<$EnemyData> m_enemyData
				int m_FileID = 0
				SInt64 m_PathID = 0
			int m_min = 3
			int m_max = 3
			UInt8 m_isFixPosition = 0
			UInt8 m_isBoss = 0
			int m_setType = 1
			int m_setIndex = 1
			int m_spawnMode = 0
