PPtr<GameObject> m_GameObject
	int m_FileID = 0
	SInt64 m_PathID = 0
UInt8 m_Enabled = 1
PPtr<MonoScript> m_Script
	int m_FileID = 0
	SInt64 m_PathID = 6043352165331053422
string m_Name = "TrainingSkillDataSet"
TrainingSkillData m_datas
	Array Array
	int size = 100
		[0]
		TrainingSkillData data
			vector m_ratio
				Array Array
				int size = 8
					[0]
					float data = 0.14
					[1]
					float data = 0.2
					[2]
					float data = 0.28
					[3]
					float data = 0.31
					[4]
					float data = 0.34
					[5]
					float data = 0.42
					[6]
					float data = 0.56
					[7]
					float data = 0.62
		[1]
		TrainingSkillData data
			vector m_ratio
				Array Array
				int size = 8
					[0]
					float data = 0.14
					[1]
					float data = 0.2
					[2]
					float data = 0.28
					[3]
					float data = 0.31
					[4]
					float data = 0.34
					[5]
					float data = 0.42
					[6]
					float data = 0.56
					[7]
					float data = 0.62
		[2]
		TrainingSkillData data
			vector m_ratio
				Array Array
				int size = 8
					[0]
					float data = 0.14
					[1]
					float data = 0.2
					[2]
					float data = 0.28
					[3]
					float data = 0.31
					[4]
					float data = 0.34
					[5]
					float data = 0.42
					[6]
					float data = 0.56
					[7]
					float data = 0.62
		[3]
		TrainingSkillData data
			vector m_ratio
				Array Array
				int size = 8
					[0]
					float data = 0.14
					[1]
					float data = 0.2
					[2]
					float data = 0.28
					[3]
					float data = 0.31
					[4]
					float data = 0.34
					[5]
					float data = 0.42
					[6]
					float data = 0.56
					[7]
					float data = 0.62
		[4]
		TrainingSkillData data
			vector m_ratio
				Array Array
				int size = 8
					[0]
					float data = 0.14
					[1]
					float data = 0.2
					[2]
					float data = 0.28
					[3]
					float data = 0.31
					[4]
					float data = 0.34
					[5]
					float data = 0.42
					[6]
					float data = 0.56
					[7]
					float data = 0.62
		[5]
		TrainingSkillData data
			vector m_ratio
				Array Array
				int size = 8
					[0]
					float data = 0.14
					[1]
					float data = 0.2
					[2]
					float data = 0.28
					[3]
					float data = 0.31
					[4]
					float data = 0.34
					[5]
					float data = 0.42
					[6]
					float data = 0.56
					[7]
					float data = 0.62
		[6]
		TrainingSkillData data
			vector m_ratio
				Array Array
				int size = 8
					[0]
					float data = 0.14
					[1]
					float data = 0.2
					[2]
					float data = 0.28
					[3]
					float data = 0.31
					[4]
					float data = 0.34
					[5]
					float data = 0.42
					[6]
					float data = 0.56
					[7]
					float data = 0.62
		[7]
		TrainingSkillData data
			vector m_ratio
				Array Array
				int size = 8
					[0]
					float data = 0.14
					[1]
					float data = 0.2
					[2]
					float data = 0.28
					[3]
					float data = 0.31
					[4]
					float data = 0.34
					[5]
					float data = 0.42
					[6]
					float data = 0.56
					[7]
					float data = 0.62
		[8]
		TrainingSkillData data
			vector m_ratio
				Array Array
				int size = 8
					[0]
					float data = 0.14
					[1]
					float data = 0.2
					[2]
					float data = 0.28
					[3]
					float data = 0.31
					[4]
					float data = 0.34
					[5]
					float data = 0.42
					[6]
					float data = 0.56
					[7]
					float data = 0.62
		[9]
		TrainingSkillData data
			vector m_ratio
				Array Array
				int size = 8
					[0]
					float data = 0.14
					[1]
					float data = 0.2
					[2]
					float data = 0.28
					[3]
					float data = 0.31
					[4]
					float data = 0.34
					[5]
					float data = 0.42
					[6]
					float data = 0.56
					[7]
					float data = 0.62
		[10]
		TrainingSkillData data
			vector m_ratio
				Array Array
				int size = 8
					[0]
					float data = 0.15
					[1]
					float data = 0.21
					[2]
					float data = 0.29
					[3]
					float data = 0.32
					[4]
					float data = 0.35
					[5]
					float data = 0.44
					[6]
					float data = 0.58
					[7]
					float data = 0.64
		[11]
		TrainingSkillData data
			vector m_ratio
				Array Array
				int size = 8
					[0]
					float data = 0.15
					[1]
					float data = 0.21
					[2]
					float data = 0.29
					[3]
					float data = 0.32
					[4]
					float data = 0.35
					[5]
					float data = 0.44
					[6]
					float data = 0.58
					[7]
					float data = 0.64
		[12]
		TrainingSkillData data
			vector m_ratio
				Array Array
				int size = 8
					[0]
					float data = 0.15
					[1]
					float data = 0.21
					[2]
					float data = 0.29
					[3]
					float data = 0.32
					[4]
					float data = 0.35
					[5]
					float data = 0.44
					[6]
					float data = 0.58
					[7]
					float data = 0.64
		[13]
		TrainingSkillData data
			vector m_ratio
				Array Array
				int size = 8
					[0]
					float data = 0.15
					[1]
					float data = 0.21
					[2]
					float data = 0.29
					[3]
					float data = 0.32
					[4]
					float data = 0.35
					[5]
					float data = 0.44
					[6]
					float data = 0.58
					[7]
					float data = 0.64
		[14]
		TrainingSkillData data
			vector m_ratio
				Array Array
				int size = 8
					[0]
					float data = 0.15
					[1]
					float data = 0.21
					[2]
					float data = 0.29
					[3]
					float data = 0.32
					[4]
					float data = 0.35
					[5]
					float data = 0.44
					[6]
					float data = 0.58
					[7]
					float data = 0.64
		[15]
		TrainingSkillData data
			vector m_ratio
				Array Array
				int size = 8
					[0]
					float data = 0.15
					[1]
					float data = 0.21
					[2]
					float data = 0.29
					[3]
					float data = 0.32
					[4]
					float data = 0.35
					[5]
					float data = 0.44
					[6]
					float data = 0.58
					[7]
					float data = 0.64
		[16]
		TrainingSkillData data
			vector m_ratio
				Array Array
				int size = 8
					[0]
					float data = 0.15
					[1]
					float data = 0.21
					[2]
					float data = 0.29
					[3]
					float data = 0.32
					[4]
					float data = 0.35
					[5]
					float data = 0.44
					[6]
					float data = 0.58
					[7]
					float data = 0.64
		[17]
		TrainingSkillData data
			vector m_ratio
				Array Array
				int size = 8
					[0]
					float data = 0.15
					[1]
					float data = 0.21
					[2]
					float data = 0.29
					[3]
					float data = 0.32
					[4]
					float data = 0.35
					[5]
					float data = 0.44
					[6]
					float data = 0.58
					[7]
					float data = 0.64
		[18]
		TrainingSkillData data
			vector m_ratio
				Array Array
				int size = 8
					[0]
					float data = 0.15
					[1]
					float data = 0.21
					[2]
					float data = 0.29
					[3]
					float data = 0.32
					[4]
					float data = 0.35
					[5]
					float data = 0.44
					[6]
					float data = 0.58
					[7]
					float data = 0.64
		[19]
		TrainingSkillData data
			vector m_ratio
				Array Array
				int size = 8
					[0]
					float data = 0.15
					[1]
					float data = 0.21
					[2]
					float data = 0.29
					[3]
					float data = 0.32
					[4]
					float data = 0.35
					[5]
					float data = 0.44
					[6]
					float data = 0.58
					[7]
					float data = 0.64
		[20]
		TrainingSkillData data
			vector m_ratio
				Array Array
				int size = 8
					[0]
					float data = 0.15
					[1]
					float data = 0.21
					[2]
					float data = 0.3
					[3]
					float data = 0.33
					[4]
					float data = 0.36
					[5]
					float data = 0.45
					[6]
					float data = 0.6
					[7]
					float data = 0.66
		[21]
		TrainingSkillData data
			vector m_ratio
				Array Array
				int size = 8
					[0]
					float data = 0.15
					[1]
					float data = 0.21
					[2]
					float data = 0.3
					[3]
					float data = 0.33
					[4]
					float data = 0.36
					[5]
					float data = 0.45
					[6]
					float data = 0.6
					[7]
					float data = 0.66
		[22]
		TrainingSkillData data
			vector m_ratio
				Array Array
				int size = 8
					[0]
					float data = 0.15
					[1]
					float data = 0.21
					[2]
					float data = 0.3
					[3]
					float data = 0.33
					[4]
					float data = 0.36
					[5]
					float data = 0.45
					[6]
					float data = 0.6
					[7]
					float data = 0.66
		[23]
		TrainingSkillData data
			vector m_ratio
				Array Array
				int size = 8
					[0]
					float data = 0.15
					[1]
					float data = 0.21
					[2]
					float data = 0.3
					[3]
					float data = 0.33
					[4]
					float data = 0.36
					[5]
					float data = 0.45
					[6]
					float data = 0.6
					[7]
					float data = 0.66
		[24]
		TrainingSkillData data
			vector m_ratio
				Array Array
				int size = 8
					[0]
					float data = 0.15
					[1]
					float data = 0.21
					[2]
					float data = 0.3
					[3]
					float data = 0.33
					[4]
					float data = 0.36
					[5]
					float data = 0.45
					[6]
					float data = 0.6
					[7]
					float data = 0.66
		[25]
		TrainingSkillData data
			vector m_ratio
				Array Array
				int size = 8
					[0]
					float data = 0.15
					[1]
					float data = 0.21
					[2]
					float data = 0.3
					[3]
					float data = 0.33
					[4]
					float data = 0.36
					[5]
					float data = 0.45
					[6]
					float data = 0.6
					[7]
					float data = 0.66
		[26]
		TrainingSkillData data
			vector m_ratio
				Array Array
				int size = 8
					[0]
					float data = 0.15
					[1]
					float data = 0.21
					[2]
					float data = 0.3
					[3]
					float data = 0.33
					[4]
					float data = 0.36
					[5]
					float data = 0.45
					[6]
					float data = 0.6
					[7]
					float data = 0.66
		[27]
		TrainingSkillData data
			vector m_ratio
				Array Array
				int size = 8
					[0]
					float data = 0.15
					[1]
					float data = 0.21
					[2]
					float data = 0.3
					[3]
					float data = 0.33
					[4]
					float data = 0.36
					[5]
					float data = 0.45
					[6]
					float data = 0.6
					[7]
					float data = 0.66
		[28]
		TrainingSkillData data
			vector m_ratio
				Array Array
				int size = 8
					[0]
					float data = 0.15
					[1]
					float data = 0.21
					[2]
					float data = 0.3
					[3]
					float data = 0.33
					[4]
					float data = 0.36
					[5]
					float data = 0.45
					[6]
					float data = 0.6
					[7]
					float data = 0.66
		[29]
		TrainingSkillData data
			vector m_ratio
				Array Array
				int size = 8
					[0]
					float data = 0.15
					[1]
					float data = 0.21
					[2]
					float data = 0.3
					[3]
					float data = 0.33
					[4]
					float data = 0.36
					[5]
					float data = 0.45
					[6]
					float data = 0.6
					[7]
					float data = 0.66
		[30]
		TrainingSkillData data
			vector m_ratio
				Array Array
				int size = 8
					[0]
					float data = 0.16
					[1]
					float data = 0.22
					[2]
					float data = 0.31
					[3]
					float data = 0.35
					[4]
					float data = 0.38
					[5]
					float data = 0.47
					[6]
					float data = 0.62
					[7]
					float data = 0.69
		[31]
		TrainingSkillData data
			vector m_ratio
				Array Array
				int size = 8
					[0]
					float data = 0.16
					[1]
					float data = 0.22
					[2]
					float data = 0.31
					[3]
					float data = 0.35
					[4]
					float data = 0.38
					[5]
					float data = 0.47
					[6]
					float data = 0.62
					[7]
					float data = 0.69
		[32]
		TrainingSkillData data
			vector m_ratio
				Array Array
				int size = 8
					[0]
					float data = 0.16
					[1]
					float data = 0.22
					[2]
					float data = 0.31
					[3]
					float data = 0.35
					[4]
					float data = 0.38
					[5]
					float data = 0.47
					[6]
					float data = 0.62
					[7]
					float data = 0.69
		[33]
		TrainingSkillData data
			vector m_ratio
				Array Array
				int size = 8
					[0]
					float data = 0.16
					[1]
					float data = 0.22
					[2]
					float data = 0.31
					[3]
					float data = 0.35
					[4]
					float data = 0.38
					[5]
					float data = 0.47
					[6]
					float data = 0.62
					[7]
					float data = 0.69
		[34]
		TrainingSkillData data
			vector m_ratio
				Array Array
				int size = 8
					[0]
					float data = 0.16
					[1]
					float data = 0.22
					[2]
					float data = 0.31
					[3]
					float data = 0.35
					[4]
					float data = 0.38
					[5]
					float data = 0.47
					[6]
					float data = 0.62
					[7]
					float data = 0.69
		[35]
		TrainingSkillData data
			vector m_ratio
				Array Array
				int size = 8
					[0]
					float data = 0.16
					[1]
					float data = 0.22
					[2]
					float data = 0.31
					[3]
					float data = 0.35
					[4]
					float data = 0.38
					[5]
					float data = 0.47
					[6]
					float data = 0.62
					[7]
					float data = 0.69
		[36]
		TrainingSkillData data
			vector m_ratio
				Array Array
				int size = 8
					[0]
					float data = 0.16
					[1]
					float data = 0.22
					[2]
					float data = 0.31
					[3]
					float data = 0.35
					[4]
					float data = 0.38
					[5]
					float data = 0.47
					[6]
					float data = 0.62
					[7]
					float data = 0.69
		[37]
		TrainingSkillData data
			vector m_ratio
				Array Array
				int size = 8
					[0]
					float data = 0.16
					[1]
					float data = 0.22
					[2]
					float data = 0.31
					[3]
					float data = 0.35
					[4]
					float data = 0.38
					[5]
					float data = 0.47
					[6]
					float data = 0.62
					[7]
					float data = 0.69
		[38]
		TrainingSkillData data
			vector m_ratio
				Array Array
				int size = 8
					[0]
					float data = 0.16
					[1]
					float data = 0.22
					[2]
					float data = 0.31
					[3]
					float data = 0.35
					[4]
					float data = 0.38
					[5]
					float data = 0.47
					[6]
					float data = 0.62
					[7]
					float data = 0.69
		[39]
		TrainingSkillData data
			vector m_ratio
				Array Array
				int size = 8
					[0]
					float data = 0.16
					[1]
					float data = 0.22
					[2]
					float data = 0.31
					[3]
					float data = 0.35
					[4]
					float data = 0.38
					[5]
					float data = 0.47
					[6]
					float data = 0.62
					[7]
					float data = 0.69
		[40]
		TrainingSkillData data
			vector m_ratio
				Array Array
				int size = 8
					[0]
					float data = 0.16
					[1]
					float data = 0.23
					[2]
					float data = 0.32
					[3]
					float data = 0.36
					[4]
					float data = 0.39
					[5]
					float data = 0.48
					[6]
					float data = 0.64
					[7]
					float data = 0.71
		[41]
		TrainingSkillData data
			vector m_ratio
				Array Array
				int size = 8
					[0]
					float data = 0.16
					[1]
					float data = 0.23
					[2]
					float data = 0.32
					[3]
					float data = 0.36
					[4]
					float data = 0.39
					[5]
					float data = 0.48
					[6]
					float data = 0.64
					[7]
					float data = 0.71
		[42]
		TrainingSkillData data
			vector m_ratio
				Array Array
				int size = 8
					[0]
					float data = 0.16
					[1]
					float data = 0.23
					[2]
					float data = 0.32
					[3]
					float data = 0.36
					[4]
					float data = 0.39
					[5]
					float data = 0.48
					[6]
					float data = 0.64
					[7]
					float data = 0.71
		[43]
		TrainingSkillData data
			vector m_ratio
				Array Array
				int size = 8
					[0]
					float data = 0.16
					[1]
					float data = 0.23
					[2]
					float data = 0.32
					[3]
					float data = 0.36
					[4]
					float data = 0.39
					[5]
					float data = 0.48
					[6]
					float data = 0.64
					[7]
					float data = 0.71
		[44]
		TrainingSkillData data
			vector m_ratio
				Array Array
				int size = 8
					[0]
					float data = 0.16
					[1]
					float data = 0.23
					[2]
					float data = 0.32
					[3]
					float data = 0.36
					[4]
					float data = 0.39
					[5]
					float data = 0.48
					[6]
					float data = 0.64
					[7]
					float data = 0.71
		[45]
		TrainingSkillData data
			vector m_ratio
				Array Array
				int size = 8
					[0]
					float data = 0.16
					[1]
					float data = 0.23
					[2]
					float data = 0.32
					[3]
					float data = 0.36
					[4]
					float data = 0.39
					[5]
					float data = 0.48
					[6]
					float data = 0.64
					[7]
					float data = 0.71
		[46]
		TrainingSkillData data
			vector m_ratio
				Array Array
				int size = 8
					[0]
					float data = 0.16
					[1]
					float data = 0.23
					[2]
					float data = 0.32
					[3]
					float data = 0.36
					[4]
					float data = 0.39
					[5]
					float data = 0.48
					[6]
					float data = 0.64
					[7]
					float data = 0.71
		[47]
		TrainingSkillData data
			vector m_ratio
				Array Array
				int size = 8
					[0]
					float data = 0.16
					[1]
					float data = 0.23
					[2]
					float data = 0.32
					[3]
					float data = 0.36
					[4]
					float data = 0.39
					[5]
					float data = 0.48
					[6]
					float data = 0.64
					[7]
					float data = 0.71
		[48]
		TrainingSkillData data
			vector m_ratio
				Array Array
				int size = 8
					[0]
					float data = 0.16
					[1]
					float data = 0.23
					[2]
					float data = 0.32
					[3]
					float data = 0.36
					[4]
					float data = 0.39
					[5]
					float data = 0.48
					[6]
					float data = 0.64
					[7]
					float data = 0.71
		[49]
		TrainingSkillData data
			vector m_ratio
				Array Array
				int size = 8
					[0]
					float data = 0.16
					[1]
					float data = 0.23
					[2]
					float data = 0.32
					[3]
					float data = 0.36
					[4]
					float data = 0.39
					[5]
					float data = 0.48
					[6]
					float data = 0.64
					[7]
					float data = 0.71
		[50]
		TrainingSkillData data
			vector m_ratio
				Array Array
				int size = 8
					[0]
					float data = 0.17
					[1]
					float data = 0.24
					[2]
					float data = 0.33
					[3]
					float data = 0.37
					[4]
					float data = 0.4
					[5]
					float data = 0.5
					[6]
					float data = 0.66
					[7]
					float data = 0.73
		[51]
		TrainingSkillData data
			vector m_ratio
				Array Array
				int size = 8
					[0]
					float data = 0.17
					[1]
					float data = 0.24
					[2]
					float data = 0.33
					[3]
					float data = 0.37
					[4]
					float data = 0.4
					[5]
					float data = 0.5
					[6]
					float data = 0.66
					[7]
					float data = 0.73
		[52]
		TrainingSkillData data
			vector m_ratio
				Array Array
				int size = 8
					[0]
					float data = 0.17
					[1]
					float data = 0.24
					[2]
					float data = 0.33
					[3]
					float data = 0.37
					[4]
					float data = 0.4
					[5]
					float data = 0.5
					[6]
					float data = 0.66
					[7]
					float data = 0.73
		[53]
		TrainingSkillData data
			vector m_ratio
				Array Array
				int size = 8
					[0]
					float data = 0.17
					[1]
					float data = 0.24
					[2]
					float data = 0.33
					[3]
					float data = 0.37
					[4]
					float data = 0.4
					[5]
					float data = 0.5
					[6]
					float data = 0.66
					[7]
					float data = 0.73
		[54]
		TrainingSkillData data
			vector m_ratio
				Array Array
				int size = 8
					[0]
					float data = 0.17
					[1]
					float data = 0.24
					[2]
					float data = 0.33
					[3]
					float data = 0.37
					[4]
					float data = 0.4
					[5]
					float data = 0.5
					[6]
					float data = 0.66
					[7]
					float data = 0.73
		[55]
		TrainingSkillData data
			vector m_ratio
				Array Array
				int size = 8
					[0]
					float data = 0.17
					[1]
					float data = 0.24
					[2]
					float data = 0.33
					[3]
					float data = 0.37
					[4]
					float data = 0.4
					[5]
					float data = 0.5
					[6]
					float data = 0.66
					[7]
					float data = 0.73
		[56]
		TrainingSkillData data
			vector m_ratio
				Array Array
				int size = 8
					[0]
					float data = 0.17
					[1]
					float data = 0.24
					[2]
					float data = 0.33
					[3]
					float data = 0.37
					[4]
					float data = 0.4
					[5]
					float data = 0.5
					[6]
					float data = 0.66
					[7]
					float data = 0.73
		[57]
		TrainingSkillData data
			vector m_ratio
				Array Array
				int size = 8
					[0]
					float data = 0.17
					[1]
					float data = 0.24
					[2]
					float data = 0.33
					[3]
					float data = 0.37
					[4]
					float data = 0.4
					[5]
					float data = 0.5
					[6]
					float data = 0.66
					[7]
					float data = 0.73
		[58]
		TrainingSkillData data
			vector m_ratio
				Array Array
				int size = 8
					[0]
					float data = 0.17
					[1]
					float data = 0.24
					[2]
					float data = 0.33
					[3]
					float data = 0.37
					[4]
					float data = 0.4
					[5]
					float data = 0.5
					[6]
					float data = 0.66
					[7]
					float data = 0.73
		[59]
		TrainingSkillData data
			vector m_ratio
				Array Array
				int size = 8
					[0]
					float data = 0.17
					[1]
					float data = 0.24
					[2]
					float data = 0.33
					[3]
					float data = 0.37
					[4]
					float data = 0.4
					[5]
					float data = 0.5
					[6]
					float data = 0.66
					[7]
					float data = 0.73
		[60]
		TrainingSkillData data
			vector m_ratio
				Array Array
				int size = 8
					[0]
					float data = 0.17
					[1]
					float data = 0.24
					[2]
					float data = 0.34
					[3]
					float data = 0.38
					[4]
					float data = 0.41
					[5]
					float data = 0.51
					[6]
					float data = 0.68
					[7]
					float data = 0.75
		[61]
		TrainingSkillData data
			vector m_ratio
				Array Array
				int size = 8
					[0]
					float data = 0.17
					[1]
					float data = 0.24
					[2]
					float data = 0.34
					[3]
					float data = 0.38
					[4]
					float data = 0.41
					[5]
					float data = 0.51
					[6]
					float data = 0.68
					[7]
					float data = 0.75
		[62]
		TrainingSkillData data
			vector m_ratio
				Array Array
				int size = 8
					[0]
					float data = 0.17
					[1]
					float data = 0.24
					[2]
					float data = 0.34
					[3]
					float data = 0.38
					[4]
					float data = 0.41
					[5]
					float data = 0.51
					[6]
					float data = 0.68
					[7]
					float data = 0.75
		[63]
		TrainingSkillData data
			vector m_ratio
				Array Array
				int size = 8
					[0]
					float data = 0.17
					[1]
					float data = 0.24
					[2]
					float data = 0.34
					[3]
					float data = 0.38
					[4]
					float data = 0.41
					[5]
					float data = 0.51
					[6]
					float data = 0.68
					[7]
					float data = 0.75
		[64]
		TrainingSkillData data
			vector m_ratio
				Array Array
				int size = 8
					[0]
					float data = 0.17
					[1]
					float data = 0.24
					[2]
					float data = 0.34
					[3]
					float data = 0.38
					[4]
					float data = 0.41
					[5]
					float data = 0.51
					[6]
					float data = 0.68
					[7]
					float data = 0.75
		[65]
		TrainingSkillData data
			vector m_ratio
				Array Array
				int size = 8
					[0]
					float data = 0.17
					[1]
					float data = 0.24
					[2]
					float data = 0.34
					[3]
					float data = 0.38
					[4]
					float data = 0.41
					[5]
					float data = 0.51
					[6]
					float data = 0.68
					[7]
					float data = 0.75
		[66]
		TrainingSkillData data
			vector m_ratio
				Array Array
				int size = 8
					[0]
					float data = 0.17
					[1]
					float data = 0.24
					[2]
					float data = 0.34
					[3]
					float data = 0.38
					[4]
					float data = 0.41
					[5]
					float data = 0.51
					[6]
					float data = 0.68
					[7]
					float data = 0.75
		[67]
		TrainingSkillData data
			vector m_ratio
				Array Array
				int size = 8
					[0]
					float data = 0.17
					[1]
					float data = 0.24
					[2]
					float data = 0.34
					[3]
					float data = 0.38
					[4]
					float data = 0.41
					[5]
					float data = 0.51
					[6]
					float data = 0.68
					[7]
					float data = 0.75
		[68]
		TrainingSkillData data
			vector m_ratio
				Array Array
				int size = 8
					[0]
					float data = 0.17
					[1]
					float data = 0.24
					[2]
					float data = 0.34
					[3]
					float data = 0.38
					[4]
					float data = 0.41
					[5]
					float data = 0.51
					[6]
					float data = 0.68
					[7]
					float data = 0.75
		[69]
		TrainingSkillData data
			vector m_ratio
				Array Array
				int size = 8
					[0]
					float data = 0.17
					[1]
					float data = 0.24
					[2]
					float data = 0.34
					[3]
					float data = 0.38
					[4]
					float data = 0.41
					[5]
					float data = 0.51
					[6]
					float data = 0.68
					[7]
					float data = 0.75
		[70]
		TrainingSkillData data
			vector m_ratio
				Array Array
				int size = 8
					[0]
					float data = 0.18
					[1]
					float data = 0.25
					[2]
					float data = 0.35
					[3]
					float data = 0.39
					[4]
					float data = 0.42
					[5]
					float data = 0.53
					[6]
					float data = 0.7
					[7]
					float data = 0.77
		[71]
		TrainingSkillData data
			vector m_ratio
				Array Array
				int size = 8
					[0]
					float data = 0.18
					[1]
					float data = 0.25
					[2]
					float data = 0.35
					[3]
					float data = 0.39
					[4]
					float data = 0.42
					[5]
					float data = 0.53
					[6]
					float data = 0.7
					[7]
					float data = 0.77
		[72]
		TrainingSkillData data
			vector m_ratio
				Array Array
				int size = 8
					[0]
					float data = 0.18
					[1]
					float data = 0.25
					[2]
					float data = 0.35
					[3]
					float data = 0.39
					[4]
					float data = 0.42
					[5]
					float data = 0.53
					[6]
					float data = 0.7
					[7]
					float data = 0.77
		[73]
		TrainingSkillData data
			vector m_ratio
				Array Array
				int size = 8
					[0]
					float data = 0.18
					[1]
					float data = 0.25
					[2]
					float data = 0.35
					[3]
					float data = 0.39
					[4]
					float data = 0.42
					[5]
					float data = 0.53
					[6]
					float data = 0.7
					[7]
					float data = 0.77
		[74]
		TrainingSkillData data
			vector m_ratio
				Array Array
				int size = 8
					[0]
					float data = 0.18
					[1]
					float data = 0.25
					[2]
					float data = 0.35
					[3]
					float data = 0.39
					[4]
					float data = 0.42
					[5]
					float data = 0.53
					[6]
					float data = 0.7
					[7]
					float data = 0.77
		[75]
		TrainingSkillData data
			vector m_ratio
				Array Array
				int size = 8
					[0]
					float data = 0.18
					[1]
					float data = 0.25
					[2]
					float data = 0.35
					[3]
					float data = 0.39
					[4]
					float data = 0.42
					[5]
					float data = 0.53
					[6]
					float data = 0.7
					[7]
					float data = 0.77
		[76]
		TrainingSkillData data
			vector m_ratio
				Array Array
				int size = 8
					[0]
					float data = 0.18
					[1]
					float data = 0.25
					[2]
					float data = 0.35
					[3]
					float data = 0.39
					[4]
					float data = 0.42
					[5]
					float data = 0.53
					[6]
					float data = 0.7
					[7]
					float data = 0.77
		[77]
		TrainingSkillData data
			vector m_ratio
				Array Array
				int size = 8
					[0]
					float data = 0.18
					[1]
					float data = 0.25
					[2]
					float data = 0.35
					[3]
					float data = 0.39
					[4]
					float data = 0.42
					[5]
					float data = 0.53
					[6]
					float data = 0.7
					[7]
					float data = 0.77
		[78]
		TrainingSkillData data
			vector m_ratio
				Array Array
				int size = 8
					[0]
					float data = 0.18
					[1]
					float data = 0.25
					[2]
					float data = 0.35
					[3]
					float data = 0.39
					[4]
					float data = 0.42
					[5]
					float data = 0.53
					[6]
					float data = 0.7
					[7]
					float data = 0.77
		[79]
		TrainingSkillData data
			vector m_ratio
				Array Array
				int size = 8
					[0]
					float data = 0.18
					[1]
					float data = 0.25
					[2]
					float data = 0.35
					[3]
					float data = 0.39
					[4]
					float data = 0.42
					[5]
					float data = 0.53
					[6]
					float data = 0.7
					[7]
					float data = 0.77
		[80]
		TrainingSkillData data
			vector m_ratio
				Array Array
				int size = 8
					[0]
					float data = 0.18
					[1]
					float data = 0.26
					[2]
					float data = 0.36
					[3]
					float data = 0.4
					[4]
					float data = 0.44
					[5]
					float data = 0.54
					[6]
					float data = 0.72
					[7]
					float data = 0.8
		[81]
		TrainingSkillData data
			vector m_ratio
				Array Array
				int size = 8
					[0]
					float data = 0.18
					[1]
					float data = 0.26
					[2]
					float data = 0.36
					[3]
					float data = 0.4
					[4]
					float data = 0.44
					[5]
					float data = 0.54
					[6]
					float data = 0.72
					[7]
					float data = 0.8
		[82]
		TrainingSkillData data
			vector m_ratio
				Array Array
				int size = 8
					[0]
					float data = 0.18
					[1]
					float data = 0.26
					[2]
					float data = 0.36
					[3]
					float data = 0.4
					[4]
					float data = 0.44
					[5]
					float data = 0.54
					[6]
					float data = 0.72
					[7]
					float data = 0.8
		[83]
		TrainingSkillData data
			vector m_ratio
				Array Array
				int size = 8
					[0]
					float data = 0.18
					[1]
					float data = 0.26
					[2]
					float data = 0.36
					[3]
					float data = 0.4
					[4]
					float data = 0.44
					[5]
					float data = 0.54
					[6]
					float data = 0.72
					[7]
					float data = 0.8
		[84]
		TrainingSkillData data
			vector m_ratio
				Array Array
				int size = 8
					[0]
					float data = 0.18
					[1]
					float data = 0.26
					[2]
					float data = 0.36
					[3]
					float data = 0.4
					[4]
					float data = 0.44
					[5]
					float data = 0.54
					[6]
					float data = 0.72
					[7]
					float data = 0.8
		[85]
		TrainingSkillData data
			vector m_ratio
				Array Array
				int size = 8
					[0]
					float data = 0.18
					[1]
					float data = 0.26
					[2]
					float data = 0.36
					[3]
					float data = 0.4
					[4]
					float data = 0.44
					[5]
					float data = 0.54
					[6]
					float data = 0.72
					[7]
					float data = 0.8
		[86]
		TrainingSkillData data
			vector m_ratio
				Array Array
				int size = 8
					[0]
					float data = 0.18
					[1]
					float data = 0.26
					[2]
					float data = 0.36
					[3]
					float data = 0.4
					[4]
					float data = 0.44
					[5]
					float data = 0.54
					[6]
					float data = 0.72
					[7]
					float data = 0.8
		[87]
		TrainingSkillData data
			vector m_ratio
				Array Array
				int size = 8
					[0]
					float data = 0.18
					[1]
					float data = 0.26
					[2]
					float data = 0.36
					[3]
					float data = 0.4
					[4]
					float data = 0.44
					[5]
					float data = 0.54
					[6]
					float data = 0.72
					[7]
					float data = 0.8
		[88]
		TrainingSkillData data
			vector m_ratio
				Array Array
				int size = 8
					[0]
					float data = 0.18
					[1]
					float data = 0.26
					[2]
					float data = 0.36
					[3]
					float data = 0.4
					[4]
					float data = 0.44
					[5]
					float data = 0.54
					[6]
					float data = 0.72
					[7]
					float data = 0.8
		[89]
		TrainingSkillData data
			vector m_ratio
				Array Array
				int size = 8
					[0]
					float data = 0.18
					[1]
					float data = 0.26
					[2]
					float data = 0.36
					[3]
					float data = 0.4
					[4]
					float data = 0.44
					[5]
					float data = 0.54
					[6]
					float data = 0.72
					[7]
					float data = 0.8
		[90]
		TrainingSkillData data
			vector m_ratio
				Array Array
				int size = 8
					[0]
					float data = 0.19
					[1]
					float data = 0.26
					[2]
					float data = 0.37
					[3]
					float data = 0.41
					[4]
					float data = 0.45
					[5]
					float data = 0.56
					[6]
					float data = 0.74
					[7]
					float data = 0.82
		[91]
		TrainingSkillData data
			vector m_ratio
				Array Array
				int size = 8
					[0]
					float data = 0.19
					[1]
					float data = 0.26
					[2]
					float data = 0.37
					[3]
					float data = 0.41
					[4]
					float data = 0.45
					[5]
					float data = 0.56
					[6]
					float data = 0.74
					[7]
					float data = 0.82
		[92]
		TrainingSkillData data
			vector m_ratio
				Array Array
				int size = 8
					[0]
					float data = 0.19
					[1]
					float data = 0.26
					[2]
					float data = 0.37
					[3]
					float data = 0.41
					[4]
					float data = 0.45
					[5]
					float data = 0.56
					[6]
					float data = 0.74
					[7]
					float data = 0.82
		[93]
		TrainingSkillData data
			vector m_ratio
				Array Array
				int size = 8
					[0]
					float data = 0.19
					[1]
					float data = 0.26
					[2]
					float data = 0.37
					[3]
					float data = 0.41
					[4]
					float data = 0.45
					[5]
					float data = 0.56
					[6]
					float data = 0.74
					[7]
					float data = 0.82
		[94]
		TrainingSkillData data
			vector m_ratio
				Array Array
				int size = 8
					[0]
					float data = 0.19
					[1]
					float data = 0.26
					[2]
					float data = 0.37
					[3]
					float data = 0.41
					[4]
					float data = 0.45
					[5]
					float data = 0.56
					[6]
					float data = 0.74
					[7]
					float data = 0.82
		[95]
		TrainingSkillData data
			vector m_ratio
				Array Array
				int size = 8
					[0]
					float data = 0.19
					[1]
					float data = 0.26
					[2]
					float data = 0.37
					[3]
					float data = 0.41
					[4]
					float data = 0.45
					[5]
					float data = 0.56
					[6]
					float data = 0.74
					[7]
					float data = 0.82
		[96]
		TrainingSkillData data
			vector m_ratio
				Array Array
				int size = 8
					[0]
					float data = 0.19
					[1]
					float data = 0.26
					[2]
					float data = 0.37
					[3]
					float data = 0.41
					[4]
					float data = 0.45
					[5]
					float data = 0.56
					[6]
					float data = 0.74
					[7]
					float data = 0.82
		[97]
		TrainingSkillData data
			vector m_ratio
				Array Array
				int size = 8
					[0]
					float data = 0.19
					[1]
					float data = 0.26
					[2]
					float data = 0.37
					[3]
					float data = 0.41
					[4]
					float data = 0.45
					[5]
					float data = 0.56
					[6]
					float data = 0.74
					[7]
					float data = 0.82
		[98]
		TrainingSkillData data
			vector m_ratio
				Array Array
				int size = 8
					[0]
					float data = 0.19
					[1]
					float data = 0.26
					[2]
					float data = 0.37
					[3]
					float data = 0.41
					[4]
					float data = 0.45
					[5]
					float data = 0.56
					[6]
					float data = 0.74
					[7]
					float data = 0.82
		[99]
		TrainingSkillData data
			vector m_ratio
				Array Array
				int size = 8
					[0]
					float data = 0.19
					[1]
					float data = 0.26
					[2]
					float data = 0.37
					[3]
					float data = 0.41
					[4]
					float data = 0.45
					[5]
					float data = 0.56
					[6]
					float data = 0.74
					[7]
					float data = 0.82
