PPtr<GameObject> m_GameObject
	int m_FileID = 0
	SInt64 m_PathID = 0
UInt8 m_Enabled = 1
PPtr<MonoScript> m_Script
	int m_FileID = 0
	SInt64 m_PathID = 8939064469258987321
string m_Name = "SkillDependDataSet"
SkillDependData m_datas
	Array Array
	int size = 248
		[0]
		SkillDependData data
			vector m_effects
				Array Array
				int size = 3
					[0]
					int data = 73
					[1]
					int data = 272
					[2]
					int data = 229
			vector m_conditions
				Array Array
				int size = 0
		[1]
		SkillDependData data
			vector m_effects
				Array Array
				int size = 3
					[0]
					int data = 73
					[1]
					int data = 74
					[2]
					int data = 229
			vector m_conditions
				Array Array
				int size = 0
		[2]
		SkillDependData data
			vector m_effects
				Array Array
				int size = 3
					[0]
					int data = 64
					[1]
					int data = 278
					[2]
					int data = 226
			vector m_conditions
				Array Array
				int size = 0
		[3]
		SkillDependData data
			vector m_effects
				Array Array
				int size = 3
					[0]
					int data = 64
					[1]
					int data = 65
					[2]
					int data = 226
			vector m_conditions
				Array Array
				int size = 0
		[4]
		SkillDependData data
			vector m_effects
				Array Array
				int size = 3
					[0]
					int data = 12
					[1]
					int data = 281
					[2]
					int data = 216
			vector m_conditions
				Array Array
				int size = 0
		[5]
		SkillDependData data
			vector m_effects
				Array Array
				int size = 3
					[0]
					int data = 12
					[1]
					int data = 13
					[2]
					int data = 216
			vector m_conditions
				Array Array
				int size = 0
		[6]
		SkillDependData data
			vector m_effects
				Array Array
				int size = 3
					[0]
					int data = 43
					[1]
					int data = 279
					[2]
					int data = 219
			vector m_conditions
				Array Array
				int size = 0
		[7]
		SkillDependData data
			vector m_effects
				Array Array
				int size = 3
					[0]
					int data = 43
					[1]
					int data = 44
					[2]
					int data = 219
			vector m_conditions
				Array Array
				int size = 0
		[8]
		SkillDependData data
			vector m_effects
				Array Array
				int size = 3
					[0]
					int data = 6
					[1]
					int data = 280
					[2]
					int data = 214
			vector m_conditions
				Array Array
				int size = 0
		[9]
		SkillDependData data
			vector m_effects
				Array Array
				int size = 3
					[0]
					int data = 6
					[1]
					int data = 7
					[2]
					int data = 214
			vector m_conditions
				Array Array
				int size = 0
		[10]
		SkillDependData data
			vector m_effects
				Array Array
				int size = 3
					[0]
					int data = 61
					[1]
					int data = 284
					[2]
					int data = 225
			vector m_conditions
				Array Array
				int size = 0
		[11]
		SkillDependData data
			vector m_effects
				Array Array
				int size = 3
					[0]
					int data = 61
					[1]
					int data = 62
					[2]
					int data = 225
			vector m_conditions
				Array Array
				int size = 0
		[12]
		SkillDependData data
			vector m_effects
				Array Array
				int size = 3
					[0]
					int data = 70
					[1]
					int data = 283
					[2]
					int data = 228
			vector m_conditions
				Array Array
				int size = 0
		[13]
		SkillDependData data
			vector m_effects
				Array Array
				int size = 3
					[0]
					int data = 70
					[1]
					int data = 71
					[2]
					int data = 228
			vector m_conditions
				Array Array
				int size = 0
		[14]
		SkillDependData data
			vector m_effects
				Array Array
				int size = 3
					[0]
					int data = 55
					[1]
					int data = 285
					[2]
					int data = 223
			vector m_conditions
				Array Array
				int size = 0
		[15]
		SkillDependData data
			vector m_effects
				Array Array
				int size = 3
					[0]
					int data = 55
					[1]
					int data = 56
					[2]
					int data = 223
			vector m_conditions
				Array Array
				int size = 0
		[16]
		SkillDependData data
			vector m_effects
				Array Array
				int size = 3
					[0]
					int data = 58
					[1]
					int data = 288
					[2]
					int data = 224
			vector m_conditions
				Array Array
				int size = 0
		[17]
		SkillDependData data
			vector m_effects
				Array Array
				int size = 3
					[0]
					int data = 58
					[1]
					int data = 59
					[2]
					int data = 224
			vector m_conditions
				Array Array
				int size = 0
		[18]
		SkillDependData data
			vector m_effects
				Array Array
				int size = 3
					[0]
					int data = 0
					[1]
					int data = 273
					[2]
					int data = 212
			vector m_conditions
				Array Array
				int size = 0
		[19]
		SkillDependData data
			vector m_effects
				Array Array
				int size = 3
					[0]
					int data = 0
					[1]
					int data = 1
					[2]
					int data = 212
			vector m_conditions
				Array Array
				int size = 0
		[20]
		SkillDependData data
			vector m_effects
				Array Array
				int size = 3
					[0]
					int data = 15
					[1]
					int data = 274
					[2]
					int data = 217
			vector m_conditions
				Array Array
				int size = 0
		[21]
		SkillDependData data
			vector m_effects
				Array Array
				int size = 3
					[0]
					int data = 15
					[1]
					int data = 16
					[2]
					int data = 217
			vector m_conditions
				Array Array
				int size = 0
		[22]
		SkillDependData data
			vector m_effects
				Array Array
				int size = 3
					[0]
					int data = 9
					[1]
					int data = 275
					[2]
					int data = 215
			vector m_conditions
				Array Array
				int size = 0
		[23]
		SkillDependData data
			vector m_effects
				Array Array
				int size = 3
					[0]
					int data = 9
					[1]
					int data = 10
					[2]
					int data = 215
			vector m_conditions
				Array Array
				int size = 0
		[24]
		SkillDependData data
			vector m_effects
				Array Array
				int size = 3
					[0]
					int data = 3
					[1]
					int data = 276
					[2]
					int data = 213
			vector m_conditions
				Array Array
				int size = 0
		[25]
		SkillDependData data
			vector m_effects
				Array Array
				int size = 3
					[0]
					int data = 3
					[1]
					int data = 4
					[2]
					int data = 213
			vector m_conditions
				Array Array
				int size = 0
		[26]
		SkillDependData data
			vector m_effects
				Array Array
				int size = 3
					[0]
					int data = 49
					[1]
					int data = 282
					[2]
					int data = 221
			vector m_conditions
				Array Array
				int size = 0
		[27]
		SkillDependData data
			vector m_effects
				Array Array
				int size = 3
					[0]
					int data = 49
					[1]
					int data = 50
					[2]
					int data = 221
			vector m_conditions
				Array Array
				int size = 0
		[28]
		SkillDependData data
			vector m_effects
				Array Array
				int size = 3
					[0]
					int data = 67
					[1]
					int data = 277
					[2]
					int data = 227
			vector m_conditions
				Array Array
				int size = 0
		[29]
		SkillDependData data
			vector m_effects
				Array Array
				int size = 3
					[0]
					int data = 67
					[1]
					int data = 68
					[2]
					int data = 227
			vector m_conditions
				Array Array
				int size = 0
		[30]
		SkillDependData data
			vector m_effects
				Array Array
				int size = 3
					[0]
					int data = 46
					[1]
					int data = 286
					[2]
					int data = 220
			vector m_conditions
				Array Array
				int size = 0
		[31]
		SkillDependData data
			vector m_effects
				Array Array
				int size = 3
					[0]
					int data = 46
					[1]
					int data = 47
					[2]
					int data = 220
			vector m_conditions
				Array Array
				int size = 0
		[32]
		SkillDependData data
			vector m_effects
				Array Array
				int size = 3
					[0]
					int data = 40
					[1]
					int data = 287
					[2]
					int data = 218
			vector m_conditions
				Array Array
				int size = 0
		[33]
		SkillDependData data
			vector m_effects
				Array Array
				int size = 3
					[0]
					int data = 40
					[1]
					int data = 41
					[2]
					int data = 218
			vector m_conditions
				Array Array
				int size = 0
		[34]
		SkillDependData data
			vector m_effects
				Array Array
				int size = 3
					[0]
					int data = 52
					[1]
					int data = 289
					[2]
					int data = 222
			vector m_conditions
				Array Array
				int size = 0
		[35]
		SkillDependData data
			vector m_effects
				Array Array
				int size = 3
					[0]
					int data = 52
					[1]
					int data = 53
					[2]
					int data = 222
			vector m_conditions
				Array Array
				int size = 0
		[36]
		SkillDependData data
			vector m_effects
				Array Array
				int size = 3
					[0]
					int data = 18
					[1]
					int data = 19
					[2]
					int data = 20
			vector m_conditions
				Array Array
				int size = 1
					[0]
					int data = 105
		[37]
		SkillDependData data
			vector m_effects
				Array Array
				int size = 4
					[0]
					int data = 27
					[1]
					int data = 28
					[2]
					int data = 17
					[3]
					int data = 80
			vector m_conditions
				Array Array
				int size = 0
		[38]
		SkillDependData data
			vector m_effects
				Array Array
				int size = 3
					[0]
					int data = 154
					[1]
					int data = 24
					[2]
					int data = 26
			vector m_conditions
				Array Array
				int size = 1
					[0]
					int data = 102
		[39]
		SkillDependData data
			vector m_effects
				Array Array
				int size = 3
					[0]
					int data = 10
					[1]
					int data = 22
					[2]
					int data = 11
			vector m_conditions
				Array Array
				int size = 0
		[40]
		SkillDependData data
			vector m_effects
				Array Array
				int size = 4
					[0]
					int data = 33
					[1]
					int data = 34
					[2]
					int data = 35
					[3]
					int data = 36
			vector m_conditions
				Array Array
				int size = 0
		[41]
		SkillDependData data
			vector m_effects
				Array Array
				int size = 6
					[0]
					int data = 186
					[1]
					int data = 0
					[2]
					int data = 97
					[3]
					int data = 2
					[4]
					int data = 1
					[5]
					int data = 2
			vector m_conditions
				Array Array
				int size = 1
					[0]
					int data = 105
		[42]
		SkillDependData data
			vector m_effects
				Array Array
				int size = 5
					[0]
					int data = 252
					[1]
					int data = 2
					[2]
					int data = 18
					[3]
					int data = 19
					[4]
					int data = 2
			vector m_conditions
				Array Array
				int size = 1
					[0]
					int data = 105
		[43]
		SkillDependData data
			vector m_effects
				Array Array
				int size = 2
					[0]
					int data = 191
					[1]
					int data = 2
			vector m_conditions
				Array Array
				int size = 1
					[0]
					int data = 105
		[44]
		SkillDependData data
			vector m_effects
				Array Array
				int size = 3
					[0]
					int data = 0
					[1]
					int data = 258
					[2]
					int data = 2
			vector m_conditions
				Array Array
				int size = 1
					[0]
					int data = 105
		[45]
		SkillDependData data
			vector m_effects
				Array Array
				int size = 2
					[0]
					int data = 192
					[1]
					int data = 2
			vector m_conditions
				Array Array
				int size = 1
					[0]
					int data = 105
		[46]
		SkillDependData data
			vector m_effects
				Array Array
				int size = 3
					[0]
					int data = 0
					[1]
					int data = 115
					[2]
					int data = 2
			vector m_conditions
				Array Array
				int size = 1
					[0]
					int data = 105
		[47]
		SkillDependData data
			vector m_effects
				Array Array
				int size = 1
					[0]
					int data = 0
			vector m_conditions
				Array Array
				int size = 1
					[0]
					int data = 1
		[48]
		SkillDependData data
			vector m_effects
				Array Array
				int size = 3
					[0]
					int data = 15
					[1]
					int data = 16
					[2]
					int data = 17
			vector m_conditions
				Array Array
				int size = 1
					[0]
					int data = 53
		[49]
		SkillDependData data
			vector m_effects
				Array Array
				int size = 3
					[0]
					int data = 152
					[1]
					int data = 241
					[2]
					int data = 17
			vector m_conditions
				Array Array
				int size = 0
		[50]
		SkillDependData data
			vector m_effects
				Array Array
				int size = 12
					[0]
					int data = 134
					[1]
					int data = 241
					[2]
					int data = 17
					[3]
					int data = 134
					[4]
					int data = 241
					[5]
					int data = 17
					[6]
					int data = 134
					[7]
					int data = 241
					[8]
					int data = 17
					[9]
					int data = 134
					[10]
					int data = 241
					[11]
					int data = 17
			vector m_conditions
				Array Array
				int size = 0
		[51]
		SkillDependData data
			vector m_effects
				Array Array
				int size = 2
					[0]
					int data = 241
					[1]
					int data = 17
			vector m_conditions
				Array Array
				int size = 0
		[52]
		SkillDependData data
			vector m_effects
				Array Array
				int size = 1
					[0]
					int data = 15
			vector m_conditions
				Array Array
				int size = 1
					[0]
					int data = 2
		[53]
		SkillDependData data
			vector m_effects
				Array Array
				int size = 0
			vector m_conditions
				Array Array
				int size = 0
		[54]
		SkillDependData data
			vector m_effects
				Array Array
				int size = 2
					[0]
					int data = 134
					[1]
					int data = 255
			vector m_conditions
				Array Array
				int size = 0
		[55]
		SkillDependData data
			vector m_effects
				Array Array
				int size = 3
					[0]
					int data = 186
					[1]
					int data = 80
					[2]
					int data = 17
			vector m_conditions
				Array Array
				int size = 0
		[56]
		SkillDependData data
			vector m_effects
				Array Array
				int size = 3
					[0]
					int data = 4
					[1]
					int data = 118
					[2]
					int data = 5
			vector m_conditions
				Array Array
				int size = 1
					[0]
					int data = 102
		[57]
		SkillDependData data
			vector m_effects
				Array Array
				int size = 4
					[0]
					int data = 186
					[1]
					int data = 172
					[2]
					int data = 5
					[3]
					int data = 3
			vector m_conditions
				Array Array
				int size = 1
					[0]
					int data = 102
		[58]
		SkillDependData data
			vector m_effects
				Array Array
				int size = 8
					[0]
					int data = 82
					[1]
					int data = 5
					[2]
					int data = 118
					[3]
					int data = 5
					[4]
					int data = 118
					[5]
					int data = 5
					[6]
					int data = 118
					[7]
					int data = 5
			vector m_conditions
				Array Array
				int size = 1
					[0]
					int data = 102
		[59]
		SkillDependData data
			vector m_effects
				Array Array
				int size = 2
					[0]
					int data = 259
					[1]
					int data = 5
			vector m_conditions
				Array Array
				int size = 1
					[0]
					int data = 102
		[60]
		SkillDependData data
			vector m_effects
				Array Array
				int size = 1
					[0]
					int data = 186
			vector m_conditions
				Array Array
				int size = 2
					[0]
					int data = 1
					[1]
					int data = 4
		[61]
		SkillDependData data
			vector m_effects
				Array Array
				int size = 1
					[0]
					int data = 186
			vector m_conditions
				Array Array
				int size = 1
					[0]
					int data = 1
		[62]
		SkillDependData data
			vector m_effects
				Array Array
				int size = 3
					[0]
					int data = 4
					[1]
					int data = 271
					[2]
					int data = 5
			vector m_conditions
				Array Array
				int size = 1
					[0]
					int data = 53
		[63]
		SkillDependData data
			vector m_effects
				Array Array
				int size = 5
					[0]
					int data = 9
					[1]
					int data = 10
					[2]
					int data = 11
					[3]
					int data = 262
					[4]
					int data = 11
			vector m_conditions
				Array Array
				int size = 0
		[64]
		SkillDependData data
			vector m_effects
				Array Array
				int size = 4
					[0]
					int data = 97
					[1]
					int data = 238
					[2]
					int data = 11
					[3]
					int data = 239
			vector m_conditions
				Array Array
				int size = 0
		[65]
		SkillDependData data
			vector m_effects
				Array Array
				int size = 3
					[0]
					int data = 9
					[1]
					int data = 10
					[2]
					int data = 11
			vector m_conditions
				Array Array
				int size = 0
		[66]
		SkillDependData data
			vector m_effects
				Array Array
				int size = 6
					[0]
					int data = 9
					[1]
					int data = 264
					[2]
					int data = 11
					[3]
					int data = 9
					[4]
					int data = 264
					[5]
					int data = 11
			vector m_conditions
				Array Array
				int size = 0
		[67]
		SkillDependData data
			vector m_effects
				Array Array
				int size = 2
					[0]
					int data = 153
					[1]
					int data = 190
			vector m_conditions
				Array Array
				int size = 1
					[0]
					int data = 102
		[68]
		SkillDependData data
			vector m_effects
				Array Array
				int size = 2
					[0]
					int data = 153
					[1]
					int data = 190
			vector m_conditions
				Array Array
				int size = 1
					[0]
					int data = 103
		[69]
		SkillDependData data
			vector m_effects
				Array Array
				int size = 4
					[0]
					int data = 9
					[1]
					int data = 9
					[2]
					int data = 117
					[3]
					int data = 11
			vector m_conditions
				Array Array
				int size = 0
		[70]
		SkillDependData data
			vector m_effects
				Array Array
				int size = 1
					[0]
					int data = 186
			vector m_conditions
				Array Array
				int size = 1
					[0]
					int data = 1
		[71]
		SkillDependData data
			vector m_effects
				Array Array
				int size = 0
			vector m_conditions
				Array Array
				int size = 0
		[72]
		SkillDependData data
			vector m_effects
				Array Array
				int size = 4
					[0]
					int data = 237
					[1]
					int data = 67
					[2]
					int data = 236
					[3]
					int data = 69
			vector m_conditions
				Array Array
				int size = 1
					[0]
					int data = 104
		[73]
		SkillDependData data
			vector m_effects
				Array Array
				int size = 7
					[0]
					int data = 155
					[1]
					int data = 270
					[2]
					int data = 69
					[3]
					int data = 270
					[4]
					int data = 69
					[5]
					int data = 270
					[6]
					int data = 69
			vector m_conditions
				Array Array
				int size = 1
					[0]
					int data = 104
		[74]
		SkillDependData data
			vector m_effects
				Array Array
				int size = 2
					[0]
					int data = 101
					[1]
					int data = 69
			vector m_conditions
				Array Array
				int size = 1
					[0]
					int data = 104
		[75]
		SkillDependData data
			vector m_effects
				Array Array
				int size = 2
					[0]
					int data = 260
					[1]
					int data = 69
			vector m_conditions
				Array Array
				int size = 1
					[0]
					int data = 104
		[76]
		SkillDependData data
			vector m_effects
				Array Array
				int size = 0
			vector m_conditions
				Array Array
				int size = 0
		[77]
		SkillDependData data
			vector m_effects
				Array Array
				int size = 1
					[0]
					int data = 186
			vector m_conditions
				Array Array
				int size = 1
					[0]
					int data = 2
		[78]
		SkillDependData data
			vector m_effects
				Array Array
				int size = 0
			vector m_conditions
				Array Array
				int size = 0
		[79]
		SkillDependData data
			vector m_effects
				Array Array
				int size = 3
					[0]
					int data = 67
					[1]
					int data = 243
					[2]
					int data = 69
			vector m_conditions
				Array Array
				int size = 1
					[0]
					int data = 53
		[80]
		SkillDependData data
			vector m_effects
				Array Array
				int size = 3
					[0]
					int data = 64
					[1]
					int data = 120
					[2]
					int data = 66
			vector m_conditions
				Array Array
				int size = 1
					[0]
					int data = 1
		[81]
		SkillDependData data
			vector m_effects
				Array Array
				int size = 3
					[0]
					int data = 64
					[1]
					int data = 246
					[2]
					int data = 66
			vector m_conditions
				Array Array
				int size = 0
		[82]
		SkillDependData data
			vector m_effects
				Array Array
				int size = 2
					[0]
					int data = 84
					[1]
					int data = 66
			vector m_conditions
				Array Array
				int size = 0
		[83]
		SkillDependData data
			vector m_effects
				Array Array
				int size = 3
					[0]
					int data = 64
					[1]
					int data = 120
					[2]
					int data = 66
			vector m_conditions
				Array Array
				int size = 0
		[84]
		SkillDependData data
			vector m_effects
				Array Array
				int size = 3
					[0]
					int data = 64
					[1]
					int data = 262
					[2]
					int data = 66
			vector m_conditions
				Array Array
				int size = 0
		[85]
		SkillDependData data
			vector m_effects
				Array Array
				int size = 9
					[0]
					int data = 64
					[1]
					int data = 65
					[2]
					int data = 66
					[3]
					int data = 64
					[4]
					int data = 65
					[5]
					int data = 66
					[6]
					int data = 64
					[7]
					int data = 65
					[8]
					int data = 66
			vector m_conditions
				Array Array
				int size = 1
					[0]
					int data = 106
		[86]
		SkillDependData data
			vector m_effects
				Array Array
				int size = 1
					[0]
					int data = 186
			vector m_conditions
				Array Array
				int size = 2
					[0]
					int data = 1
					[1]
					int data = 2
		[87]
		SkillDependData data
			vector m_effects
				Array Array
				int size = 4
					[0]
					int data = 186
					[1]
					int data = 64
					[2]
					int data = 65
					[3]
					int data = 66
			vector m_conditions
				Array Array
				int size = 0
		[88]
		SkillDependData data
			vector m_effects
				Array Array
				int size = 3
					[0]
					int data = 64
					[1]
					int data = 39
					[2]
					int data = 66
			vector m_conditions
				Array Array
				int size = 0
		[89]
		SkillDependData data
			vector m_effects
				Array Array
				int size = 3
					[0]
					int data = 43
					[1]
					int data = 211
					[2]
					int data = 45
			vector m_conditions
				Array Array
				int size = 1
					[0]
					int data = 101
		[90]
		SkillDependData data
			vector m_effects
				Array Array
				int size = 3
					[0]
					int data = 103
					[1]
					int data = 251
					[2]
					int data = 45
			vector m_conditions
				Array Array
				int size = 1
					[0]
					int data = 101
		[91]
		SkillDependData data
			vector m_effects
				Array Array
				int size = 4
					[0]
					int data = 186
					[1]
					int data = 175
					[2]
					int data = 251
					[3]
					int data = 45
			vector m_conditions
				Array Array
				int size = 1
					[0]
					int data = 101
		[92]
		SkillDependData data
			vector m_effects
				Array Array
				int size = 1
					[0]
					int data = 43
			vector m_conditions
				Array Array
				int size = 1
					[0]
					int data = 2
		[93]
		SkillDependData data
			vector m_effects
				Array Array
				int size = 2
					[0]
					int data = 190
					[1]
					int data = 45
			vector m_conditions
				Array Array
				int size = 1
					[0]
					int data = 101
		[94]
		SkillDependData data
			vector m_effects
				Array Array
				int size = 2
					[0]
					int data = 157
					[1]
					int data = 190
			vector m_conditions
				Array Array
				int size = 1
					[0]
					int data = 101
		[95]
		SkillDependData data
			vector m_effects
				Array Array
				int size = 11
					[0]
					int data = 43
					[1]
					int data = 103
					[2]
					int data = 43
					[3]
					int data = 121
					[4]
					int data = 45
					[5]
					int data = 43
					[6]
					int data = 121
					[7]
					int data = 45
					[8]
					int data = 43
					[9]
					int data = 121
					[10]
					int data = 45
			vector m_conditions
				Array Array
				int size = 1
					[0]
					int data = 52
		[96]
		SkillDependData data
			vector m_effects
				Array Array
				int size = 3
					[0]
					int data = 6
					[1]
					int data = 7
					[2]
					int data = 8
			vector m_conditions
				Array Array
				int size = 1
					[0]
					int data = 53
		[97]
		SkillDependData data
			vector m_effects
				Array Array
				int size = 3
					[0]
					int data = 6
					[1]
					int data = 208
					[2]
					int data = 8
			vector m_conditions
				Array Array
				int size = 0
		[98]
		SkillDependData data
			vector m_effects
				Array Array
				int size = 4
					[0]
					int data = 6
					[1]
					int data = 104
					[2]
					int data = 122
					[3]
					int data = 8
			vector m_conditions
				Array Array
				int size = 1
					[0]
					int data = 52
		[99]
		SkillDependData data
			vector m_effects
				Array Array
				int size = 4
					[0]
					int data = 6
					[1]
					int data = 104
					[2]
					int data = 104
					[3]
					int data = 8
			vector m_conditions
				Array Array
				int size = 0
		[100]
		SkillDependData data
			vector m_effects
				Array Array
				int size = 6
					[0]
					int data = 158
					[1]
					int data = 122
					[2]
					int data = 8
					[3]
					int data = 122
					[4]
					int data = 8
					[5]
					int data = 6
			vector m_conditions
				Array Array
				int size = 0
		[101]
		SkillDependData data
			vector m_effects
				Array Array
				int size = 3
					[0]
					int data = 6
					[1]
					int data = 122
					[2]
					int data = 8
			vector m_conditions
				Array Array
				int size = 0
		[102]
		SkillDependData data
			vector m_effects
				Array Array
				int size = 2
					[0]
					int data = 140
					[1]
					int data = 255
			vector m_conditions
				Array Array
				int size = 0
		[103]
		SkillDependData data
			vector m_effects
				Array Array
				int size = 0
			vector m_conditions
				Array Array
				int size = 0
		[104]
		SkillDependData data
			vector m_effects
				Array Array
				int size = 2
					[0]
					int data = 87
					[1]
					int data = 14
			vector m_conditions
				Array Array
				int size = 0
		[105]
		SkillDependData data
			vector m_effects
				Array Array
				int size = 3
					[0]
					int data = 12
					[1]
					int data = 123
					[2]
					int data = 14
			vector m_conditions
				Array Array
				int size = 0
		[106]
		SkillDependData data
			vector m_effects
				Array Array
				int size = 4
					[0]
					int data = 12
					[1]
					int data = 0
					[2]
					int data = 79
					[3]
					int data = 14
			vector m_conditions
				Array Array
				int size = 0
		[107]
		SkillDependData data
			vector m_effects
				Array Array
				int size = 3
					[0]
					int data = 12
					[1]
					int data = 13
					[2]
					int data = 14
			vector m_conditions
				Array Array
				int size = 0
		[108]
		SkillDependData data
			vector m_effects
				Array Array
				int size = 2
					[0]
					int data = 13
					[1]
					int data = 14
			vector m_conditions
				Array Array
				int size = 1
					[0]
					int data = 106
		[109]
		SkillDependData data
			vector m_effects
				Array Array
				int size = 1
					[0]
					int data = 186
			vector m_conditions
				Array Array
				int size = 1
					[0]
					int data = 3
		[110]
		SkillDependData data
			vector m_effects
				Array Array
				int size = 2
					[0]
					int data = 186
					[1]
					int data = 255
			vector m_conditions
				Array Array
				int size = 0
		[111]
		SkillDependData data
			vector m_effects
				Array Array
				int size = 4
					[0]
					int data = 262
					[1]
					int data = 14
					[2]
					int data = 262
					[3]
					int data = 14
			vector m_conditions
				Array Array
				int size = 0
		[112]
		SkillDependData data
			vector m_effects
				Array Array
				int size = 3
					[0]
					int data = 49
					[1]
					int data = 35
					[2]
					int data = 51
			vector m_conditions
				Array Array
				int size = 1
					[0]
					int data = 106
		[113]
		SkillDependData data
			vector m_effects
				Array Array
				int size = 2
					[0]
					int data = 124
					[1]
					int data = 51
			vector m_conditions
				Array Array
				int size = 0
		[114]
		SkillDependData data
			vector m_effects
				Array Array
				int size = 4
					[0]
					int data = 178
					[1]
					int data = 49
					[2]
					int data = 197
					[3]
					int data = 51
			vector m_conditions
				Array Array
				int size = 1
					[0]
					int data = 52
		[115]
		SkillDependData data
			vector m_effects
				Array Array
				int size = 3
					[0]
					int data = 49
					[1]
					int data = 49
					[2]
					int data = 49
			vector m_conditions
				Array Array
				int size = 1
					[0]
					int data = 3
		[116]
		SkillDependData data
			vector m_effects
				Array Array
				int size = 1
					[0]
					int data = 186
			vector m_conditions
				Array Array
				int size = 1
					[0]
					int data = 2
		[117]
		SkillDependData data
			vector m_effects
				Array Array
				int size = 2
					[0]
					int data = 160
					[1]
					int data = 187
			vector m_conditions
				Array Array
				int size = 1
					[0]
					int data = 103
		[118]
		SkillDependData data
			vector m_effects
				Array Array
				int size = 4
					[0]
					int data = 186
					[1]
					int data = 73
					[2]
					int data = 73
					[3]
					int data = 73
			vector m_conditions
				Array Array
				int size = 0
		[119]
		SkillDependData data
			vector m_effects
				Array Array
				int size = 3
					[0]
					int data = 49
					[1]
					int data = 262
					[2]
					int data = 51
			vector m_conditions
				Array Array
				int size = 0
		[120]
		SkillDependData data
			vector m_effects
				Array Array
				int size = 0
			vector m_conditions
				Array Array
				int size = 0
		[121]
		SkillDependData data
			vector m_effects
				Array Array
				int size = 1
					[0]
					int data = 186
			vector m_conditions
				Array Array
				int size = 1
					[0]
					int data = 4
		[122]
		SkillDependData data
			vector m_effects
				Array Array
				int size = 4
					[0]
					int data = 160
					[1]
					int data = 106
					[2]
					int data = 50
					[3]
					int data = 51
			vector m_conditions
				Array Array
				int size = 0
		[123]
		SkillDependData data
			vector m_effects
				Array Array
				int size = 7
					[0]
					int data = 70
					[1]
					int data = 211
					[2]
					int data = 72
					[3]
					int data = 211
					[4]
					int data = 72
					[5]
					int data = 211
					[6]
					int data = 72
			vector m_conditions
				Array Array
				int size = 0
		[124]
		SkillDependData data
			vector m_effects
				Array Array
				int size = 3
					[0]
					int data = 70
					[1]
					int data = 125
					[2]
					int data = 72
			vector m_conditions
				Array Array
				int size = 0
		[125]
		SkillDependData data
			vector m_effects
				Array Array
				int size = 4
					[0]
					int data = 70
					[1]
					int data = 71
					[2]
					int data = 209
					[3]
					int data = 72
			vector m_conditions
				Array Array
				int size = 1
					[0]
					int data = 53
		[126]
		SkillDependData data
			vector m_effects
				Array Array
				int size = 3
					[0]
					int data = 186
					[1]
					int data = 125
					[2]
					int data = 72
			vector m_conditions
				Array Array
				int size = 0
		[127]
		SkillDependData data
			vector m_effects
				Array Array
				int size = 1
					[0]
					int data = 190
			vector m_conditions
				Array Array
				int size = 0
		[128]
		SkillDependData data
			vector m_effects
				Array Array
				int size = 3
					[0]
					int data = 70
					[1]
					int data = 13
					[2]
					int data = 72
			vector m_conditions
				Array Array
				int size = 4
					[0]
					int data = 1
					[1]
					int data = 2
					[2]
					int data = 3
					[3]
					int data = 4
		[129]
		SkillDependData data
			vector m_effects
				Array Array
				int size = 2
					[0]
					int data = 125
					[1]
					int data = 72
			vector m_conditions
				Array Array
				int size = 0
		[130]
		SkillDependData data
			vector m_effects
				Array Array
				int size = 3
					[0]
					int data = 70
					[1]
					int data = 125
					[2]
					int data = 72
			vector m_conditions
				Array Array
				int size = 0
		[131]
		SkillDependData data
			vector m_effects
				Array Array
				int size = 3
					[0]
					int data = 55
					[1]
					int data = 198
					[2]
					int data = 57
			vector m_conditions
				Array Array
				int size = 1
					[0]
					int data = 52
		[132]
		SkillDependData data
			vector m_effects
				Array Array
				int size = 3
					[0]
					int data = 55
					[1]
					int data = 127
					[2]
					int data = 57
			vector m_conditions
				Array Array
				int size = 1
					[0]
					int data = 102
		[133]
		SkillDependData data
			vector m_effects
				Array Array
				int size = 3
					[0]
					int data = 55
					[1]
					int data = 256
					[2]
					int data = 187
			vector m_conditions
				Array Array
				int size = 1
					[0]
					int data = 106
		[134]
		SkillDependData data
			vector m_effects
				Array Array
				int size = 3
					[0]
					int data = 163
					[1]
					int data = 187
					[2]
					int data = 57
			vector m_conditions
				Array Array
				int size = 1
					[0]
					int data = 107
		[135]
		SkillDependData data
			vector m_effects
				Array Array
				int size = 3
					[0]
					int data = 55
					[1]
					int data = 127
					[2]
					int data = 57
			vector m_conditions
				Array Array
				int size = 0
		[136]
		SkillDependData data
			vector m_effects
				Array Array
				int size = 3
					[0]
					int data = 191
					[1]
					int data = 48
					[2]
					int data = 46
			vector m_conditions
				Array Array
				int size = 0
		[137]
		SkillDependData data
			vector m_effects
				Array Array
				int size = 3
					[0]
					int data = 46
					[1]
					int data = 47
					[2]
					int data = 48
			vector m_conditions
				Array Array
				int size = 0
		[138]
		SkillDependData data
			vector m_effects
				Array Array
				int size = 3
					[0]
					int data = 46
					[1]
					int data = 38
					[2]
					int data = 48
			vector m_conditions
				Array Array
				int size = 0
		[139]
		SkillDependData data
			vector m_effects
				Array Array
				int size = 6
					[0]
					int data = 128
					[1]
					int data = 48
					[2]
					int data = 128
					[3]
					int data = 48
					[4]
					int data = 128
					[5]
					int data = 48
			vector m_conditions
				Array Array
				int size = 1
					[0]
					int data = 106
		[140]
		SkillDependData data
			vector m_effects
				Array Array
				int size = 3
					[0]
					int data = 46
					[1]
					int data = 13
					[2]
					int data = 48
			vector m_conditions
				Array Array
				int size = 0
		[141]
		SkillDependData data
			vector m_effects
				Array Array
				int size = 1
					[0]
					int data = 186
			vector m_conditions
				Array Array
				int size = 2
					[0]
					int data = 1
					[1]
					int data = 3
		[142]
		SkillDependData data
			vector m_effects
				Array Array
				int size = 13
					[0]
					int data = 186
					[1]
					int data = 263
					[2]
					int data = 246
					[3]
					int data = 48
					[4]
					int data = 263
					[5]
					int data = 246
					[6]
					int data = 48
					[7]
					int data = 263
					[8]
					int data = 246
					[9]
					int data = 48
					[10]
					int data = 263
					[11]
					int data = 246
					[12]
					int data = 48
			vector m_conditions
				Array Array
				int size = 1
					[0]
					int data = 51
		[143]
		SkillDependData data
			vector m_effects
				Array Array
				int size = 3
					[0]
					int data = 40
					[1]
					int data = 38
					[2]
					int data = 42
			vector m_conditions
				Array Array
				int size = 0
		[144]
		SkillDependData data
			vector m_effects
				Array Array
				int size = 7
					[0]
					int data = 40
					[1]
					int data = 40
					[2]
					int data = 262
					[3]
					int data = 42
					[4]
					int data = 40
					[5]
					int data = 262
					[6]
					int data = 42
			vector m_conditions
				Array Array
				int size = 0
		[145]
		SkillDependData data
			vector m_effects
				Array Array
				int size = 3
					[0]
					int data = 40
					[1]
					int data = 93
					[2]
					int data = 42
			vector m_conditions
				Array Array
				int size = 0
		[146]
		SkillDependData data
			vector m_effects
				Array Array
				int size = 1
					[0]
					int data = 186
			vector m_conditions
				Array Array
				int size = 1
					[0]
					int data = 1
		[147]
		SkillDependData data
			vector m_effects
				Array Array
				int size = 2
					[0]
					int data = 186
					[1]
					int data = 39
			vector m_conditions
				Array Array
				int size = 3
					[0]
					int data = 106
					[1]
					int data = 1
					[2]
					int data = 2
		[148]
		SkillDependData data
			vector m_effects
				Array Array
				int size = 2
					[0]
					int data = 186
					[1]
					int data = 39
			vector m_conditions
				Array Array
				int size = 0
		[149]
		SkillDependData data
			vector m_effects
				Array Array
				int size = 3
					[0]
					int data = 262
					[1]
					int data = 60
					[2]
					int data = 94
			vector m_conditions
				Array Array
				int size = 1
					[0]
					int data = 2
		[150]
		SkillDependData data
			vector m_effects
				Array Array
				int size = 3
					[0]
					int data = 58
					[1]
					int data = 262
					[2]
					int data = 60
			vector m_conditions
				Array Array
				int size = 1
					[0]
					int data = 52
		[151]
		SkillDependData data
			vector m_effects
				Array Array
				int size = 3
					[0]
					int data = 58
					[1]
					int data = 38
					[2]
					int data = 60
			vector m_conditions
				Array Array
				int size = 1
					[0]
					int data = 1
		[152]
		SkillDependData data
			vector m_effects
				Array Array
				int size = 1
					[0]
					int data = 186
			vector m_conditions
				Array Array
				int size = 1
					[0]
					int data = 2
		[153]
		SkillDependData data
			vector m_effects
				Array Array
				int size = 1
					[0]
					int data = 256
			vector m_conditions
				Array Array
				int size = 1
					[0]
					int data = 52
		[154]
		SkillDependData data
			vector m_effects
				Array Array
				int size = 4
					[0]
					int data = 235
					[1]
					int data = 58
					[2]
					int data = 234
					[3]
					int data = 60
			vector m_conditions
				Array Array
				int size = 1
					[0]
					int data = 52
		[155]
		SkillDependData data
			vector m_effects
				Array Array
				int size = 3
					[0]
					int data = 95
					[1]
					int data = 54
					[2]
					int data = 187
			vector m_conditions
				Array Array
				int size = 0
		[156]
		SkillDependData data
			vector m_effects
				Array Array
				int size = 2
					[0]
					int data = 187
					[1]
					int data = 54
			vector m_conditions
				Array Array
				int size = 0
		[157]
		SkillDependData data
			vector m_effects
				Array Array
				int size = 2
					[0]
					int data = 186
					[1]
					int data = 39
			vector m_conditions
				Array Array
				int size = 1
					[0]
					int data = 51
		[158]
		SkillDependData data
			vector m_effects
				Array Array
				int size = 2
					[0]
					int data = 187
					[1]
					int data = 54
			vector m_conditions
				Array Array
				int size = 1
					[0]
					int data = 106
		[159]
		SkillDependData data
			vector m_effects
				Array Array
				int size = 0
			vector m_conditions
				Array Array
				int size = 0
		[160]
		SkillDependData data
			vector m_effects
				Array Array
				int size = 3
					[0]
					int data = 95
					[1]
					int data = 54
					[2]
					int data = 52
			vector m_conditions
				Array Array
				int size = 1
					[0]
					int data = 51
		[161]
		SkillDependData data
			vector m_effects
				Array Array
				int size = 2
					[0]
					int data = 38
					[1]
					int data = 75
			vector m_conditions
				Array Array
				int size = 0
		[162]
		SkillDependData data
			vector m_effects
				Array Array
				int size = 2
					[0]
					int data = 78
					[1]
					int data = 75
			vector m_conditions
				Array Array
				int size = 0
		[163]
		SkillDependData data
			vector m_effects
				Array Array
				int size = 3
					[0]
					int data = 78
					[1]
					int data = 75
					[2]
					int data = 73
			vector m_conditions
				Array Array
				int size = 0
		[164]
		SkillDependData data
			vector m_effects
				Array Array
				int size = 2
					[0]
					int data = 78
					[1]
					int data = 75
			vector m_conditions
				Array Array
				int size = 0
		[165]
		SkillDependData data
			vector m_effects
				Array Array
				int size = 4
					[0]
					int data = 15
					[1]
					int data = 15
					[2]
					int data = 114
					[3]
					int data = 75
			vector m_conditions
				Array Array
				int size = 0
		[166]
		SkillDependData data
			vector m_effects
				Array Array
				int size = 2
					[0]
					int data = 186
					[1]
					int data = 194
			vector m_conditions
				Array Array
				int size = 1
					[0]
					int data = 108
		[167]
		SkillDependData data
			vector m_effects
				Array Array
				int size = 3
					[0]
					int data = 255
					[1]
					int data = 73
					[2]
					int data = 207
			vector m_conditions
				Array Array
				int size = 0
		[168]
		SkillDependData data
			vector m_effects
				Array Array
				int size = 3
					[0]
					int data = 186
					[1]
					int data = 246
					[2]
					int data = 75
			vector m_conditions
				Array Array
				int size = 0
		[169]
		SkillDependData data
			vector m_effects
				Array Array
				int size = 2
					[0]
					int data = 114
					[1]
					int data = 75
			vector m_conditions
				Array Array
				int size = 0
		[170]
		SkillDependData data
			vector m_effects
				Array Array
				int size = 2
					[0]
					int data = 186
					[1]
					int data = 39
			vector m_conditions
				Array Array
				int size = 0
		[171]
		SkillDependData data
			vector m_effects
				Array Array
				int size = 8
					[0]
					int data = 186
					[1]
					int data = 1
					[2]
					int data = 75
					[3]
					int data = 4
					[4]
					int data = 75
					[5]
					int data = 68
					[6]
					int data = 75
					[7]
					int data = 73
			vector m_conditions
				Array Array
				int size = 3
					[0]
					int data = 105
					[1]
					int data = 102
					[2]
					int data = 104
		[172]
		SkillDependData data
			vector m_effects
				Array Array
				int size = 1
					[0]
					int data = 186
			vector m_conditions
				Array Array
				int size = 1
					[0]
					int data = 1
		[173]
		SkillDependData data
			vector m_effects
				Array Array
				int size = 1
					[0]
					int data = 186
			vector m_conditions
				Array Array
				int size = 1
					[0]
					int data = 2
		[174]
		SkillDependData data
			vector m_effects
				Array Array
				int size = 3
					[0]
					int data = 73
					[1]
					int data = 246
					[2]
					int data = 75
			vector m_conditions
				Array Array
				int size = 0
		[175]
		SkillDependData data
			vector m_effects
				Array Array
				int size = 2
					[0]
					int data = 202
					[1]
					int data = 114
			vector m_conditions
				Array Array
				int size = 0
		[176]
		SkillDependData data
			vector m_effects
				Array Array
				int size = 3
					[0]
					int data = 73
					[1]
					int data = 256
					[2]
					int data = 75
			vector m_conditions
				Array Array
				int size = 1
					[0]
					int data = 51
		[177]
		SkillDependData data
			vector m_effects
				Array Array
				int size = 2
					[0]
					int data = 187
					[1]
					int data = 75
			vector m_conditions
				Array Array
				int size = 1
					[0]
					int data = 52
		[178]
		SkillDependData data
			vector m_effects
				Array Array
				int size = 3
					[0]
					int data = 186
					[1]
					int data = 256
					[2]
					int data = 75
			vector m_conditions
				Array Array
				int size = 1
					[0]
					int data = 103
		[179]
		SkillDependData data
			vector m_effects
				Array Array
				int size = 2
					[0]
					int data = 73
					[1]
					int data = 256
			vector m_conditions
				Array Array
				int size = 1
					[0]
					int data = 106
		[180]
		SkillDependData data
			vector m_effects
				Array Array
				int size = 2
					[0]
					int data = 186
					[1]
					int data = 255
			vector m_conditions
				Array Array
				int size = 0
		[181]
		SkillDependData data
			vector m_effects
				Array Array
				int size = 3
					[0]
					int data = 150
					[1]
					int data = 246
					[2]
					int data = 75
			vector m_conditions
				Array Array
				int size = 0
		[182]
		SkillDependData data
			vector m_effects
				Array Array
				int size = 2
					[0]
					int data = 73
					[1]
					int data = 210
			vector m_conditions
				Array Array
				int size = 0
		[183]
		SkillDependData data
			vector m_effects
				Array Array
				int size = 4
					[0]
					int data = 186
					[1]
					int data = 73
					[2]
					int data = 13
					[3]
					int data = 75
			vector m_conditions
				Array Array
				int size = 0
		[184]
		SkillDependData data
			vector m_effects
				Array Array
				int size = 4
					[0]
					int data = 0
					[1]
					int data = 169
					[2]
					int data = 257
					[3]
					int data = 2
			vector m_conditions
				Array Array
				int size = 1
					[0]
					int data = 105
		[185]
		SkillDependData data
			vector m_effects
				Array Array
				int size = 3
					[0]
					int data = 150
					[1]
					int data = 73
					[2]
					int data = 187
			vector m_conditions
				Array Array
				int size = 1
					[0]
					int data = 107
		[186]
		SkillDependData data
			vector m_effects
				Array Array
				int size = 2
					[0]
					int data = 186
					[1]
					int data = 187
			vector m_conditions
				Array Array
				int size = 1
					[0]
					int data = 53
		[187]
		SkillDependData data
			vector m_effects
				Array Array
				int size = 6
					[0]
					int data = 38
					[1]
					int data = 75
					[2]
					int data = 38
					[3]
					int data = 75
					[4]
					int data = 38
					[5]
					int data = 75
			vector m_conditions
				Array Array
				int size = 0
		[188]
		SkillDependData data
			vector m_effects
				Array Array
				int size = 10
					[0]
					int data = 61
					[1]
					int data = 108
					[2]
					int data = 108
					[3]
					int data = 126
					[4]
					int data = 63
					[5]
					int data = 61
					[6]
					int data = 108
					[7]
					int data = 108
					[8]
					int data = 126
					[9]
					int data = 63
			vector m_conditions
				Array Array
				int size = 0
		[189]
		SkillDependData data
			vector m_effects
				Array Array
				int size = 2
					[0]
					int data = 90
					[1]
					int data = 63
			vector m_conditions
				Array Array
				int size = 0
		[190]
		SkillDependData data
			vector m_effects
				Array Array
				int size = 4
					[0]
					int data = 61
					[1]
					int data = 162
					[2]
					int data = 240
					[3]
					int data = 63
			vector m_conditions
				Array Array
				int size = 0
		[191]
		SkillDependData data
			vector m_effects
				Array Array
				int size = 5
					[0]
					int data = 61
					[1]
					int data = 62
					[2]
					int data = 63
					[3]
					int data = 126
					[4]
					int data = 63
			vector m_conditions
				Array Array
				int size = 0
		[192]
		SkillDependData data
			vector m_effects
				Array Array
				int size = 1
					[0]
					int data = 186
			vector m_conditions
				Array Array
				int size = 1
					[0]
					int data = 3
		[193]
		SkillDependData data
			vector m_effects
				Array Array
				int size = 2
					[0]
					int data = 240
					[1]
					int data = 63
			vector m_conditions
				Array Array
				int size = 0
		[194]
		SkillDependData data
			vector m_effects
				Array Array
				int size = 4
					[0]
					int data = 162
					[1]
					int data = 108
					[2]
					int data = 246
					[3]
					int data = 63
			vector m_conditions
				Array Array
				int size = 1
					[0]
					int data = 53
		[195]
		SkillDependData data
			vector m_effects
				Array Array
				int size = 2
					[0]
					int data = 186
					[1]
					int data = 75
			vector m_conditions
				Array Array
				int size = 4
					[0]
					int data = 1
					[1]
					int data = 2
					[2]
					int data = 3
					[3]
					int data = 4
		[196]
		SkillDependData data
			vector m_effects
				Array Array
				int size = 1
					[0]
					int data = 186
			vector m_conditions
				Array Array
				int size = 1
					[0]
					int data = 1
		[197]
		SkillDependData data
			vector m_effects
				Array Array
				int size = 3
					[0]
					int data = 73
					[1]
					int data = 256
					[2]
					int data = 75
			vector m_conditions
				Array Array
				int size = 0
		[198]
		SkillDependData data
			vector m_effects
				Array Array
				int size = 1
					[0]
					int data = 186
			vector m_conditions
				Array Array
				int size = 1
					[0]
					int data = 1
		[199]
		SkillDependData data
			vector m_effects
				Array Array
				int size = 1
					[0]
					int data = 186
			vector m_conditions
				Array Array
				int size = 2
					[0]
					int data = 1
					[1]
					int data = 4
		[200]
		SkillDependData data
			vector m_effects
				Array Array
				int size = 3
					[0]
					int data = 0
					[1]
					int data = 199
					[2]
					int data = 2
			vector m_conditions
				Array Array
				int size = 1
					[0]
					int data = 105
		[201]
		SkillDependData data
			vector m_effects
				Array Array
				int size = 3
					[0]
					int data = 0
					[1]
					int data = 19
					[2]
					int data = 2
			vector m_conditions
				Array Array
				int size = 1
					[0]
					int data = 105
		[202]
		SkillDependData data
			vector m_effects
				Array Array
				int size = 3
					[0]
					int data = 186
					[1]
					int data = 78
					[2]
					int data = 75
			vector m_conditions
				Array Array
				int size = 0
		[203]
		SkillDependData data
			vector m_effects
				Array Array
				int size = 3
					[0]
					int data = 150
					[1]
					int data = 246
					[2]
					int data = 75
			vector m_conditions
				Array Array
				int size = 0
		[204]
		SkillDependData data
			vector m_effects
				Array Array
				int size = 4
					[0]
					int data = 186
					[1]
					int data = 40
					[2]
					int data = 38
					[3]
					int data = 42
			vector m_conditions
				Array Array
				int size = 0
		[205]
		SkillDependData data
			vector m_effects
				Array Array
				int size = 1
					[0]
					int data = 186
			vector m_conditions
				Array Array
				int size = 1
					[0]
					int data = 2
		[206]
		SkillDependData data
			vector m_effects
				Array Array
				int size = 5
					[0]
					int data = 186
					[1]
					int data = 70
					[2]
					int data = 71
					[3]
					int data = 209
					[4]
					int data = 72
			vector m_conditions
				Array Array
				int size = 1
					[0]
					int data = 53
		[207]
		SkillDependData data
			vector m_effects
				Array Array
				int size = 3
					[0]
					int data = 70
					[1]
					int data = 211
					[2]
					int data = 72
			vector m_conditions
				Array Array
				int size = 0
		[208]
		SkillDependData data
			vector m_effects
				Array Array
				int size = 3
					[0]
					int data = 35
					[1]
					int data = 51
					[2]
					int data = 49
			vector m_conditions
				Array Array
				int size = 1
					[0]
					int data = 106
		[209]
		SkillDependData data
			vector m_effects
				Array Array
				int size = 10
					[0]
					int data = 186
					[1]
					int data = 73
					[2]
					int data = 38
					[3]
					int data = 75
					[4]
					int data = 73
					[5]
					int data = 38
					[6]
					int data = 75
					[7]
					int data = 73
					[8]
					int data = 38
					[9]
					int data = 75
			vector m_conditions
				Array Array
				int size = 0
		[210]
		SkillDependData data
			vector m_effects
				Array Array
				int size = 3
					[0]
					int data = 161
					[1]
					int data = 246
					[2]
					int data = 72
			vector m_conditions
				Array Array
				int size = 0
		[211]
		SkillDependData data
			vector m_effects
				Array Array
				int size = 4
					[0]
					int data = 150
					[1]
					int data = 73
					[2]
					int data = 114
					[3]
					int data = 75
			vector m_conditions
				Array Array
				int size = 1
					[0]
					int data = 102
		[212]
		SkillDependData data
			vector m_effects
				Array Array
				int size = 8
					[0]
					int data = 161
					[1]
					int data = 89
					[2]
					int data = 125
					[3]
					int data = 72
					[4]
					int data = 125
					[5]
					int data = 72
					[6]
					int data = 125
					[7]
					int data = 72
			vector m_conditions
				Array Array
				int size = 0
		[213]
		SkillDependData data
			vector m_effects
				Array Array
				int size = 3
					[0]
					int data = 186
					[1]
					int data = 82
					[2]
					int data = 5
			vector m_conditions
				Array Array
				int size = 0
		[214]
		SkillDependData data
			vector m_effects
				Array Array
				int size = 1
					[0]
					int data = 188
			vector m_conditions
				Array Array
				int size = 0
		[215]
		SkillDependData data
			vector m_effects
				Array Array
				int size = 9
					[0]
					int data = 186
					[1]
					int data = 65
					[2]
					int data = 66
					[3]
					int data = 65
					[4]
					int data = 66
					[5]
					int data = 65
					[6]
					int data = 66
					[7]
					int data = 65
					[8]
					int data = 66
			vector m_conditions
				Array Array
				int size = 1
					[0]
					int data = 106
		[216]
		SkillDependData data
			vector m_effects
				Array Array
				int size = 4
					[0]
					int data = 186
					[1]
					int data = 49
					[2]
					int data = 49
					[3]
					int data = 49
			vector m_conditions
				Array Array
				int size = 0
		[217]
		SkillDependData data
			vector m_effects
				Array Array
				int size = 4
					[0]
					int data = 186
					[1]
					int data = 9
					[2]
					int data = 10
					[3]
					int data = 11
			vector m_conditions
				Array Array
				int size = 0
		[218]
		SkillDependData data
			vector m_effects
				Array Array
				int size = 3
					[0]
					int data = 153
					[1]
					int data = 190
					[2]
					int data = 11
			vector m_conditions
				Array Array
				int size = 1
					[0]
					int data = 103
		[219]
		SkillDependData data
			vector m_effects
				Array Array
				int size = 2
					[0]
					int data = 135
					[1]
					int data = 190
			vector m_conditions
				Array Array
				int size = 1
					[0]
					int data = 102
		[220]
		SkillDependData data
			vector m_effects
				Array Array
				int size = 5
					[0]
					int data = 186
					[1]
					int data = 82
					[2]
					int data = 5
					[3]
					int data = 24
					[4]
					int data = 5
			vector m_conditions
				Array Array
				int size = 1
					[0]
					int data = 102
		[221]
		SkillDependData data
			vector m_effects
				Array Array
				int size = 3
					[0]
					int data = 73
					[1]
					int data = 114
					[2]
					int data = 75
			vector m_conditions
				Array Array
				int size = 0
		[222]
		SkillDependData data
			vector m_effects
				Array Array
				int size = 3
					[0]
					int data = 78
					[1]
					int data = 75
					[2]
					int data = 73
			vector m_conditions
				Array Array
				int size = 0
		[223]
		SkillDependData data
			vector m_effects
				Array Array
				int size = 7
					[0]
					int data = 123
					[1]
					int data = 14
					[2]
					int data = 12
					[3]
					int data = 123
					[4]
					int data = 14
					[5]
					int data = 87
					[6]
					int data = 14
			vector m_conditions
				Array Array
				int size = 0
		[224]
		SkillDependData data
			vector m_effects
				Array Array
				int size = 3
					[0]
					int data = 152
					[1]
					int data = 246
					[2]
					int data = 66
			vector m_conditions
				Array Array
				int size = 0
		[225]
		SkillDependData data
			vector m_effects
				Array Array
				int size = 9
					[0]
					int data = 186
					[1]
					int data = 64
					[2]
					int data = 65
					[3]
					int data = 66
					[4]
					int data = 64
					[5]
					int data = 65
					[6]
					int data = 66
					[7]
					int data = 246
					[8]
					int data = 66
			vector m_conditions
				Array Array
				int size = 1
					[0]
					int data = 52
		[226]
		SkillDependData data
			vector m_effects
				Array Array
				int size = 3
					[0]
					int data = 140
					[1]
					int data = 240
					[2]
					int data = 63
			vector m_conditions
				Array Array
				int size = 0
		[227]
		SkillDependData data
			vector m_effects
				Array Array
				int size = 5
					[0]
					int data = 33
					[1]
					int data = 78
					[2]
					int data = 75
					[3]
					int data = 246
					[4]
					int data = 75
			vector m_conditions
				Array Array
				int size = 0
		[228]
		SkillDependData data
			vector m_effects
				Array Array
				int size = 3
					[0]
					int data = 233
					[1]
					int data = 35
					[2]
					int data = 51
			vector m_conditions
				Array Array
				int size = 0
		[229]
		SkillDependData data
			vector m_effects
				Array Array
				int size = 2
					[0]
					int data = 150
					[1]
					int data = 187
			vector m_conditions
				Array Array
				int size = 1
					[0]
					int data = 106
		[230]
		SkillDependData data
			vector m_effects
				Array Array
				int size = 4
					[0]
					int data = 186
					[1]
					int data = 73
					[2]
					int data = 256
					[3]
					int data = 75
			vector m_conditions
				Array Array
				int size = 1
					[0]
					int data = 106
		[231]
		SkillDependData data
			vector m_effects
				Array Array
				int size = 3
					[0]
					int data = 186
					[1]
					int data = 13
					[2]
					int data = 75
			vector m_conditions
				Array Array
				int size = 0
		[232]
		SkillDependData data
			vector m_effects
				Array Array
				int size = 6
					[0]
					int data = 150
					[1]
					int data = 207
					[2]
					int data = 114
					[3]
					int data = 75
					[4]
					int data = 73
					[5]
					int data = 73
			vector m_conditions
				Array Array
				int size = 0
		[233]
		SkillDependData data
			vector m_effects
				Array Array
				int size = 4
					[0]
					int data = 186
					[1]
					int data = 43
					[2]
					int data = 44
					[3]
					int data = 45
			vector m_conditions
				Array Array
				int size = 0
		[234]
		SkillDependData data
			vector m_effects
				Array Array
				int size = 4
					[0]
					int data = 186
					[1]
					int data = 27
					[2]
					int data = 28
					[3]
					int data = 29
			vector m_conditions
				Array Array
				int size = 0
		[235]
		SkillDependData data
			vector m_effects
				Array Array
				int size = 1
					[0]
					int data = 186
			vector m_conditions
				Array Array
				int size = 2
					[0]
					int data = 1
					[1]
					int data = 2
		[236]
		SkillDependData data
			vector m_effects
				Array Array
				int size = 3
					[0]
					int data = 150
					[1]
					int data = 246
					[2]
					int data = 75
			vector m_conditions
				Array Array
				int size = 0
		[237]
		SkillDependData data
			vector m_effects
				Array Array
				int size = 5
					[0]
					int data = 207
					[1]
					int data = 114
					[2]
					int data = 75
					[3]
					int data = 73
					[4]
					int data = 73
			vector m_conditions
				Array Array
				int size = 0
		[238]
		SkillDependData data
			vector m_effects
				Array Array
				int size = 6
					[0]
					int data = 33
					[1]
					int data = 73
					[2]
					int data = 78
					[3]
					int data = 75
					[4]
					int data = 246
					[5]
					int data = 75
			vector m_conditions
				Array Array
				int size = 0
		[239]
		SkillDependData data
			vector m_effects
				Array Array
				int size = 8
					[0]
					int data = 64
					[1]
					int data = 65
					[2]
					int data = 66
					[3]
					int data = 64
					[4]
					int data = 65
					[5]
					int data = 66
					[6]
					int data = 120
					[7]
					int data = 66
			vector m_conditions
				Array Array
				int size = 1
					[0]
					int data = 52
		[240]
		SkillDependData data
			vector m_effects
				Array Array
				int size = 3
					[0]
					int data = 9
					[1]
					int data = 10
					[2]
					int data = 11
			vector m_conditions
				Array Array
				int size = 0
		[241]
		SkillDependData data
			vector m_effects
				Array Array
				int size = 0
			vector m_conditions
				Array Array
				int size = 0
		[242]
		SkillDependData data
			vector m_effects
				Array Array
				int size = 0
			vector m_conditions
				Array Array
				int size = 0
		[243]
		SkillDependData data
			vector m_effects
				Array Array
				int size = 0
			vector m_conditions
				Array Array
				int size = 0
		[244]
		SkillDependData data
			vector m_effects
				Array Array
				int size = 0
			vector m_conditions
				Array Array
				int size = 0
		[245]
		SkillDependData data
			vector m_effects
				Array Array
				int size = 0
			vector m_conditions
				Array Array
				int size = 0
		[246]
		SkillDependData data
			vector m_effects
				Array Array
				int size = 0
			vector m_conditions
				Array Array
				int size = 0
		[247]
		SkillDependData data
			vector m_effects
				Array Array
				int size = 0
			vector m_conditions
				Array Array
				int size = 0
