PPtr<GameObject> m_GameObject
	int m_FileID = 0
	SInt64 m_PathID = 0
UInt8 m_Enabled = 1
PPtr<MonoScript> m_Script
	int m_FileID = 0
	SInt64 m_PathID = 1088006837878153380
string m_Name = "EnemyPack_extra1_022"
EnemySet m_normalPrimaryEnemySets
	Array Array
	int size = 3
		[0]
		EnemySet data
			RegistData m_registDatas
				Array Array
				int size = 3
					[0]
					RegistData data
						PPtr<$EnemyData> m_enemyData
							int m_FileID = 0
							SInt64 m_PathID = -595788519479315651
						int m_lotteryRate = 100
					[1]
					RegistData data
						PPtr<$EnemyData> m_enemyData
							int m_FileID = 0
							SInt64 m_PathID = 4235944562134518843
						int m_lotteryRate = 100
					[2]
					RegistData data
						PPtr<$EnemyData> m_enemyData
							int m_FileID = 0
							SInt64 m_PathID = -923742360795780627
						int m_lotteryRate = 5
		[1]
		EnemySet data
			RegistData m_registDatas
				Array Array
				int size = 3
					[0]
					RegistData data
						PPtr<$EnemyData> m_enemyData
							int m_FileID = 0
							SInt64 m_PathID = -2843367328382131521
						int m_lotteryRate = 100
					[1]
					RegistData data
						PPtr<$EnemyData> m_enemyData
							int m_FileID = 0
							SInt64 m_PathID = 6475844199019596050
						int m_lotteryRate = 100
					[2]
					RegistData data
						PPtr<$EnemyData> m_enemyData
							int m_FileID = 0
							SInt64 m_PathID = 8965113467510723370
						int m_lotteryRate = 5
		[2]
		EnemySet data
			RegistData m_registDatas
				Array Array
				int size = 1
					[0]
					RegistData data
						PPtr<$EnemyData> m_enemyData
							int m_FileID = 0
							SInt64 m_PathID = -8295643000570567875
						int m_lotteryRate = 100
EnemySet m_normalSecondaryEnemySets
	Array Array
	int size = 4
		[0]
		EnemySet data
			RegistData m_registDatas
				Array Array
				int size = 2
					[0]
					RegistData data
						PPtr<$EnemyData> m_enemyData
							int m_FileID = 0
							SInt64 m_PathID = -3757991452032081507
						int m_lotteryRate = 100
					[1]
					RegistData data
						PPtr<$EnemyData> m_enemyData
							int m_FileID = 0
							SInt64 m_PathID = 8182647593762094020
						int m_lotteryRate = 100
		[1]
		EnemySet data
			RegistData m_registDatas
				Array Array
				int size = 2
					[0]
					RegistData data
						PPtr<$EnemyData> m_enemyData
							int m_FileID = 0
							SInt64 m_PathID = -7883571001136501426
						int m_lotteryRate = 100
					[1]
					RegistData data
						PPtr<$EnemyData> m_enemyData
							int m_FileID = 0
							SInt64 m_PathID = 2836289555184137545
						int m_lotteryRate = 100
		[2]
		EnemySet data
			RegistData m_registDatas
				Array Array
				int size = 1
					[0]
					RegistData data
						PPtr<$EnemyData> m_enemyData
							int m_FileID = 0
							SInt64 m_PathID = -8868519721074840892
						int m_lotteryRate = 100
		[3]
		EnemySet data
			RegistData m_registDatas
				Array Array
				int size = 1
					[0]
					RegistData data
						PPtr<$EnemyData> m_enemyData
							int m_FileID = 0
							SInt64 m_PathID = -3755258579927471876
						int m_lotteryRate = 100
EnemySet m_normalTertiaryEnemySets
	Array Array
	int size = 2
		[0]
		EnemySet data
			RegistData m_registDatas
				Array Array
				int size = 1
					[0]
					RegistData data
						PPtr<$EnemyData> m_enemyData
							int m_FileID = 0
							SInt64 m_PathID = -3755258579927471876
						int m_lotteryRate = 100
		[1]
		EnemySet data
			RegistData m_registDatas
				Array Array
				int size = 1
					[0]
					RegistData data
						PPtr<$EnemyData> m_enemyData
							int m_FileID = 0
							SInt64 m_PathID = -8868519721074840892
						int m_lotteryRate = 100
EnemySet m_normalQuarternaryEnemySets
	Array Array
	int size = 1
		[0]
		EnemySet data
			RegistData m_registDatas
				Array Array
				int size = 1
					[0]
					RegistData data
						PPtr<$EnemyData> m_enemyData
							int m_FileID = 0
							SInt64 m_PathID = -3755258579927471876
						int m_lotteryRate = 100
EnemySet m_bossPrimaryEnemySet
	RegistData m_registDatas
		Array Array
		int size = 4
			[0]
			RegistData data
				PPtr<$EnemyData> m_enemyData
					int m_FileID = 0
					SInt64 m_PathID = -6180322494496842136
				int m_lotteryRate = 100
			[1]
			RegistData data
				PPtr<$EnemyData> m_enemyData
					int m_FileID = 0
					SInt64 m_PathID = -1311144438483354217
				int m_lotteryRate = 45
			[2]
			RegistData data
				PPtr<$EnemyData> m_enemyData
					int m_FileID = 0
					SInt64 m_PathID = 6142482710672089137
				int m_lotteryRate = 45
			[3]
			RegistData data
				PPtr<$EnemyData> m_enemyData
					int m_FileID = 0
					SInt64 m_PathID = 8584599535854726021
				int m_lotteryRate = 10
EnemySet m_bossSecondaryEnemySet
	RegistData m_registDatas
		Array Array
		int size = 0
EnemySet m_bossTertiaryEnemySet
	RegistData m_registDatas
		Array Array
		int size = 1
			[0]
			RegistData data
				PPtr<$EnemyData> m_enemyData
					int m_FileID = 0
					SInt64 m_PathID = 0
				int m_lotteryRate = 0
EnemySet m_bossQuarternaryEnemySet
	RegistData m_registDatas
		Array Array
		int size = 1
			[0]
			RegistData data
				PPtr<$EnemyData> m_enemyData
					int m_FileID = 0
					SInt64 m_PathID = 0
				int m_lotteryRate = 0
RegistData m_registDatas
	Array Array
	int size = 8
		[0]
		RegistData data
			PPtr<$EnemyData> m_enemyData
				int m_FileID = 0
				SInt64 m_PathID = 0
			int m_min = 3
			int m_max = 3
			UInt8 m_isFixPosition = 0
			UInt8 m_isBoss = 0
			int m_setType = 0
			int m_setIndex = 0
			int m_spawnMode = 0
		[1]
		RegistData data
			PPtr<$EnemyData> m_enemyData
				int m_FileID = 0
				SInt64 m_PathID = 0
			int m_min = 3
			int m_max = 3
			UInt8 m_isFixPosition = 0
			UInt8 m_isBoss = 0
			int m_setType = 1
			int m_setIndex = 0
			int m_spawnMode = 0
		[2]
		RegistData data
			PPtr<$EnemyData> m_enemyData
				int m_FileID = 0
				SInt64 m_PathID = 0
			int m_min = 2
			int m_max = 2
			UInt8 m_isFixPosition = 0
			UInt8 m_isBoss = 0
			int m_setType = 0
			int m_setIndex = 1
			int m_spawnMode = 0
		[3]
		RegistData data
			PPtr<$EnemyData> m_enemyData
				int m_FileID = 0
				SInt64 m_PathID = 0
			int m_min = 2
			int m_max = 2
			UInt8 m_isFixPosition = 0
			UInt8 m_isBoss = 0
			int m_setType = 1
			int m_setIndex = 1
			int m_spawnMode = 0
		[4]
		RegistData data
			PPtr<$EnemyData> m_enemyData
				int m_FileID = 0
				SInt64 m_PathID = 0
			int m_min = 1
			int m_max = 1
			UInt8 m_isFixPosition = 0
			UInt8 m_isBoss = 0
			int m_setType = 0
			int m_setIndex = 2
			int m_spawnMode = 0
		[5]
		RegistData data
			PPtr<$EnemyData> m_enemyData
				int m_FileID = 0
				SInt64 m_PathID = 0
			int m_min = 2
			int m_max = 2
			UInt8 m_isFixPosition = 0
			UInt8 m_isBoss = 0
			int m_setType = 1
			int m_setIndex = 2
			int m_spawnMode = 0
		[6]
		RegistData data
			PPtr<$EnemyData> m_enemyData
				int m_FileID = 0
				SInt64 m_PathID = 0
			int m_min = 2
			int m_max = 2
			UInt8 m_isFixPosition = 0
			UInt8 m_isBoss = 0
			int m_setType = 2
			int m_setIndex = 1
			int m_spawnMode = 0
		[7]
		RegistData data
			PPtr<$EnemyData> m_enemyData
				int m_FileID = 0
				SInt64 m_PathID = 0
			int m_min = 1
			int m_max = 1
			UInt8 m_isFixPosition = 0
			UInt8 m_isBoss = 1
			int m_setType = 0
			int m_setIndex = 0
			int m_spawnMode = 0
