PPtr<GameObject> m_GameObject
	int m_FileID = 0
	SInt64 m_PathID = 0
UInt8 m_Enabled = 1
PPtr<MonoScript> m_Script
	int m_FileID = 0
	SInt64 m_PathID = 1088006837878153380
string m_Name = "EnemyPack_extra1_000"
EnemySet m_normalPrimaryEnemySets
	Array Array
	int size = 3
		[0]
		EnemySet data
			RegistData m_registDatas
				Array Array
				int size = 4
					[0]
					RegistData data
						PPtr<$EnemyData> m_enemyData
							int m_FileID = 0
							SInt64 m_PathID = -7887496803251209522
						int m_lotteryRate = 100
					[1]
					RegistData data
						PPtr<$EnemyData> m_enemyData
							int m_FileID = 0
							SInt64 m_PathID = -5580075294722729736
						int m_lotteryRate = 40
					[2]
					RegistData data
						PPtr<$EnemyData> m_enemyData
							int m_FileID = 0
							SInt64 m_PathID = 1285795030877212318
						int m_lotteryRate = 60
					[3]
					RegistData data
						PPtr<$EnemyData> m_enemyData
							int m_FileID = 0
							SInt64 m_PathID = -923742360795780627
						int m_lotteryRate = 10
		[1]
		EnemySet data
			RegistData m_registDatas
				Array Array
				int size = 4
					[0]
					RegistData data
						PPtr<$EnemyData> m_enemyData
							int m_FileID = 0
							SInt64 m_PathID = -1385632400320811633
						int m_lotteryRate = 130
					[1]
					RegistData data
						PPtr<$EnemyData> m_enemyData
							int m_FileID = 0
							SInt64 m_PathID = -6741322153423356095
						int m_lotteryRate = 60
					[2]
					RegistData data
						PPtr<$EnemyData> m_enemyData
							int m_FileID = 0
							SInt64 m_PathID = 3218738626969731541
						int m_lotteryRate = 10
					[3]
					RegistData data
						PPtr<$EnemyData> m_enemyData
							int m_FileID = 0
							SInt64 m_PathID = 8965113467510723370
						int m_lotteryRate = 10
		[2]
		EnemySet data
			RegistData m_registDatas
				Array Array
				int size = 1
					[0]
					RegistData data
						PPtr<$EnemyData> m_enemyData
							int m_FileID = 0
							SInt64 m_PathID = 1581712704949775820
						int m_lotteryRate = 100
EnemySet m_normalSecondaryEnemySets
	Array Array
	int size = 4
		[0]
		EnemySet data
			RegistData m_registDatas
				Array Array
				int size = 2
					[0]
					RegistData data
						PPtr<$EnemyData> m_enemyData
							int m_FileID = 0
							SInt64 m_PathID = 8125429453147849927
						int m_lotteryRate = 70
					[1]
					RegistData data
						PPtr<$EnemyData> m_enemyData
							int m_FileID = 0
							SInt64 m_PathID = 8117235664211692034
						int m_lotteryRate = 30
		[1]
		EnemySet data
			RegistData m_registDatas
				Array Array
				int size = 2
					[0]
					RegistData data
						PPtr<$EnemyData> m_enemyData
							int m_FileID = 0
							SInt64 m_PathID = -6029542134139632719
						int m_lotteryRate = 70
					[1]
					RegistData data
						PPtr<$EnemyData> m_enemyData
							int m_FileID = 0
							SInt64 m_PathID = -5165223357979620574
						int m_lotteryRate = 30
		[2]
		EnemySet data
			RegistData m_registDatas
				Array Array
				int size = 1
					[0]
					RegistData data
						PPtr<$EnemyData> m_enemyData
							int m_FileID = 0
							SInt64 m_PathID = -3954560858406221582
						int m_lotteryRate = 100
		[3]
		EnemySet data
			RegistData m_registDatas
				Array Array
				int size = 1
					[0]
					RegistData data
						PPtr<$EnemyData> m_enemyData
							int m_FileID = 0
							SInt64 m_PathID = -6874516937049131221
						int m_lotteryRate = 100
EnemySet m_normalTertiaryEnemySets
	Array Array
	int size = 1
		[0]
		EnemySet data
			RegistData m_registDatas
				Array Array
				int size = 1
					[0]
					RegistData data
						PPtr<$EnemyData> m_enemyData
							int m_FileID = 0
							SInt64 m_PathID = 3218738626969731541
						int m_lotteryRate = 100
EnemySet m_normalQuarternaryEnemySets
	Array Array
	int size = 1
		[0]
		EnemySet data
			RegistData m_registDatas
				Array Array
				int size = 1
					[0]
					RegistData data
						PPtr<$EnemyData> m_enemyData
							int m_FileID = 0
							SInt64 m_PathID = 0
						int m_lotteryRate = 0
EnemySet m_bossPrimaryEnemySet
	RegistData m_registDatas
		Array Array
		int size = 1
			[0]
			RegistData data
				PPtr<$EnemyData> m_enemyData
					int m_FileID = 0
					SInt64 m_PathID = 1540680089062153348
				int m_lotteryRate = 100
EnemySet m_bossSecondaryEnemySet
	RegistData m_registDatas
		Array Array
		int size = 0
EnemySet m_bossTertiaryEnemySet
	RegistData m_registDatas
		Array Array
		int size = 1
			[0]
			RegistData data
				PPtr<$EnemyData> m_enemyData
					int m_FileID = 0
					SInt64 m_PathID = 0
				int m_lotteryRate = 0
EnemySet m_bossQuarternaryEnemySet
	RegistData m_registDatas
		Array Array
		int size = 1
			[0]
			RegistData data
				PPtr<$EnemyData> m_enemyData
					int m_FileID = 0
					SInt64 m_PathID = 0
				int m_lotteryRate = 0
RegistData m_registDatas
	Array Array
	int size = 9
		[0]
		RegistData data
			PPtr<$EnemyData> m_enemyData
				int m_FileID = 0
				SInt64 m_PathID = 0
			int m_min = 3
			int m_max = 3
			UInt8 m_isFixPosition = 0
			UInt8 m_isBoss = 0
			int m_setType = 0
			int m_setIndex = 0
			int m_spawnMode = 0
		[1]
		RegistData data
			PPtr<$EnemyData> m_enemyData
				int m_FileID = 0
				SInt64 m_PathID = 0
			int m_min = 3
			int m_max = 3
			UInt8 m_isFixPosition = 0
			UInt8 m_isBoss = 0
			int m_setType = 1
			int m_setIndex = 0
			int m_spawnMode = 0
		[2]
		RegistData data
			PPtr<$EnemyData> m_enemyData
				int m_FileID = 0
				SInt64 m_PathID = 0
			int m_min = 2
			int m_max = 2
			UInt8 m_isFixPosition = 0
			UInt8 m_isBoss = 0
			int m_setType = 0
			int m_setIndex = 1
			int m_spawnMode = 0
		[3]
		RegistData data
			PPtr<$EnemyData> m_enemyData
				int m_FileID = 0
				SInt64 m_PathID = 0
			int m_min = 2
			int m_max = 2
			UInt8 m_isFixPosition = 0
			UInt8 m_isBoss = 0
			int m_setType = 1
			int m_setIndex = 1
			int m_spawnMode = 0
		[4]
		RegistData data
			PPtr<$EnemyData> m_enemyData
				int m_FileID = 0
				SInt64 m_PathID = 0
			int m_min = 1
			int m_max = 1
			UInt8 m_isFixPosition = 0
			UInt8 m_isBoss = 0
			int m_setType = 0
			int m_setIndex = 2
			int m_spawnMode = 0
		[5]
		RegistData data
			PPtr<$EnemyData> m_enemyData
				int m_FileID = 0
				SInt64 m_PathID = 0
			int m_min = 3
			int m_max = 3
			UInt8 m_isFixPosition = 0
			UInt8 m_isBoss = 0
			int m_setType = 1
			int m_setIndex = 3
			int m_spawnMode = 0
		[6]
		RegistData data
			PPtr<$EnemyData> m_enemyData
				int m_FileID = 0
				SInt64 m_PathID = 0
			int m_min = 1
			int m_max = 1
			UInt8 m_isFixPosition = 0
			UInt8 m_isBoss = 1
			int m_setType = 0
			int m_setIndex = 0
			int m_spawnMode = 0
		[7]
		RegistData data
			PPtr<$EnemyData> m_enemyData
				int m_FileID = 0
				SInt64 m_PathID = 0
			int m_min = 3
			int m_max = 3
			UInt8 m_isFixPosition = 0
			UInt8 m_isBoss = 0
			int m_setType = 1
			int m_setIndex = 2
			int m_spawnMode = 0
		[8]
		RegistData data
			PPtr<$EnemyData> m_enemyData
				int m_FileID = 0
				SInt64 m_PathID = 0
			int m_min = 1
			int m_max = 1
			UInt8 m_isFixPosition = 0
			UInt8 m_isBoss = 0
			int m_setType = 2
			int m_setIndex = 0
			int m_spawnMode = 0
